{
  "name": "sufficiency-of-creed-part37",
  "title": "আল ইমাম মুহাম্মাদ ইবনু সালিহ্\u200c আল ‘উছাইমীন কর্তৃক ব্যাখ্যাকৃত আল ইমাম ইবনু ক্বোদামাহ আল মাক্বদিছী রচিত -‘আক্বীদাহ সংকলন- গ্রন্থ (৩৭নং পর্ব)",
  "categories": [
    { "name": "belief-in-qadr-meaning", "url": "category-belief-in-qadr-meaning.json" },
    { "name": "islamic-aqeedah-eemaan", "url": "category-islamic-aqeedah-eemaan.json" },
    { "name": "belief-in-qadr-good-and-bad", "url": "category-belief-in-qadr-good-and-bad.json" }
  ],
  "content": "<p>এই অডিওটি হলো আশ্\u200cশাইখ মুহাম্মাদ ইবনু সালিহ্\u200c আল ‘উছাইমীন <span style=\"font-family: 'Arabic Symbols';\">(رَحِمَهُ ٱللَّٰهُ)</span> কর্তৃক ব্যাখ্যাকৃত ইমাম ইবনু ক্বোদামাহ আল মাক্বদিছী <span style=\"font-family: 'Arabic Symbols';\">(رَحِمَهُ ٱللَّٰهُ)</span> এর সুপ্রসিদ্ধ গ্রন্থ “লুম‘আতুল ই‘তিক্বাদ” এর ধারাবাহিক অডিও ভাষান্তর। বাংলা ভাষায় অডিওরূপে এটি ভাষান্তর করেছেন উছতায হাম্মাদ বিল্লাহ <span style=\"font-family: 'Arabic Symbols';\">(حفيظ الله)</span>। এতে ছালাফে সালিহীনের (<span style=\"font-family: 'Arabic Symbols';\">(unknown text)</span>) ‘আক্বীদাহ-বিশ্বাসের বিবরণ তুলে ধরা হয়েছে। আহলুছ্\u200c ছুন্নাহ ওয়াল জামা‘আতের ‘উলামায়ে কিরামের চিরাচরিত স্বভাব–বৈশিষ্ট্যও হলো যে, তারা তাদের লিখনীর মাধ্যমে সর্বাগ্রে বিশুদ্ধ ইছলামী ‘আক্বীদাহ্\u200cর সংরক্ষণ এবং তা প্রচার ও প্রসার করে থাকেন। বক্তব্যের এ পর্বে উছতায হাম্মাদ বিল্লাহ <span style=\"font-family: 'Arabic Symbols';\">(حفيظ الله)</span> বিশেষ করে ক্বাযা ও ক্বাদ্\u200cর সহ নিম্নোক্ত বিষয়ে আলোচনা করেছেন:-<br />\n ১) প্রাণ হরণকারী ফিরিশতা ও মূছা <span style=\"font-family: 'Arabic Symbols';\">(ﷷ ﷵ)</span> এর মধ্যকার অসাধারণ একটি ঘটনা উছতায আলোচনা করেছেন।<br />\n ২) এই ঘটনাটিকে ‘আক্বীদাহ অধ্যায়ে, বিশেষ করে “অদৃশ্য বিষয়ে ঈমান পোষণ” অধ্যায়ে উল্লেখ করার কারণ হলো- “একজন নাবীর দ্বারা তাঁর থেকে অনেকগুণ বেশি শক্তিশালী একজন ফিরিশতাকে আঘাত করা অসম্ভব” এই যুক্তিতে কতিপয় বিদ‘আতী বিশুদ্ধ হাদীছ দ্বারা প্রমাণিত এই ঘটনাকে অস্বীকার ও প্রত্যাখ্যান করে থাকে।<br />\n অথচ এই সংশয় পোষণকারীদের জানা উচিত ছিল যে, প্রাণ হরণকারী ফিরিশতা মূছা <span style=\"font-family: 'Arabic Symbols';\">(ﷷ ﷵ)</span> এর নিকট তাঁর প্রাণ হরণের বিষয়ে কথা বলতে মানুষের আকৃতিতে এসেছিলেন, ফিরিশতার আকৃতিতে নয়। মূছা <span style=\"font-family: 'Arabic Symbols';\">(ﷷ ﷵ)</span> তাঁকে চিনতে না পেরে, তাঁকে আক্রমনকারী ভেবে নিজের আত্মরক্ষার জন্য আঘাত করেছিলেন। যদি তিনি জানতেন যে, ইনি হচ্ছেন আল্লাহ্\u200cর একজন ফিরিশতা, তাহলে তিনি তাকে কক্ষনো আঘাত করতেন না।<br />\n শাইখ হাম্মাদ বিল্লাহ এই গুরুত্বপূর্ণ বিষয়টি সবিস্তার আলোচনা করেছেন।</p>\n<p>&nbsp;</p>\n<p>ক্লাস শেষে নিম্নোক্ত প্রশ্নগুলোর উত্তর প্রদান করা হয়:-<br />\n ক) আত্মরক্ষার উদ্দেশ্যে কারো মুখমন্ডলে আঘাত করা কি জাইয? যদি তাই হয়, তাহলে রাছূলুল্লাহ <span style=\"font-family: 'Arabic Symbols';\">(ﷷ ﷵ)</span> এর নিম্নোক্ত হাদীছ দু’টিকে আমরা কিভাবে ব্যাখ্যা করব?</p>\n<p style=\"padding-left: 30px;\">(১) রাছূলুল্লাহ <span style=\"font-family: 'Arabic Symbols';\">(ﷺ)</span> বলেছেন- মুখমন্ডলে আঘাত করো না এবং “মুখমন্ডল বিশ্রি হয়ে যাক” বলে বদদো‘আ করো না।<br />\n (২) রাছূলুল্লাহ <span style=\"font-family: 'Arabic Symbols';\">(ﷺ)</span> বলেছেন- যদি কেউ তার মালিকানাধীন দাঁস বা দাঁসীর মুখে চড়-থাপ্পড় মারে কিংবা তাকে আঘাত করে, তাহলে এর কাফ্\u200cফারা হলো ঐ দাস বা দাসীকে মুক্ত করে দেয়া।</p>\n<p>খ) ইবনু হাজার ‘আছক্বালানী সংকলিত এবং দারুছ ছালাম প্রকাশনী থেকে প্রকাশিত বুলূগুল মারাম (যার ইংরেজী নাম হলো \"Attainment of the Objective Accordingly to the Ordinances\") কিতাবটি ঢাকার একটি বইয়ের দোকানে যেখানে কোন উপলক্ষ ছাড়াই ২০%-৩০% ছাড়ে বিক্রি করা হয়, সেখানে ২১শে ফেব্রুয়ারী (আন্তর্জাতিক মাতৃভাষা দিবস) উপলক্ষে বইটি ১০% ছাড়ে বিক্রি করা হচ্ছে।</p>\n<p>আমার প্রশ্ন হলো- এ বইটি ক্রয়ের ক্ষেত্রে বর্তমান (১০% ডিসকাউন্ট এর) সুযোগ শেষ হওয়া পর্যন্ত কি আমার অপেক্ষা করা উচিত, না-কি এখনই বইটি কেনা উচিত? আমার কাছে ফিক্বহের কিছু কিতাব আছে, তবে তাওহীদ বিষয়ক কিতাব আছে মাত্র দুটি।<br />\n শাইখ!‘আক্বীদাহ বিষয়ক কিতাবাদী বেশি বেশি অধ্যয়ন করতে হবে, না-কি হাদীছ বিষয়ক কিতাবাদী, আপনার পরামর্শ ও নির্দেশনা কি?</p>",
  "excerpt": "<p>এই অডিওটি হলো আশ্\u200cশাইখ মুহাম্মাদ ইবনু সালিহ্\u200c আল ‘উছাইমীন رحمه الله কর্তৃক ব্যাখ্যাকৃত ইমাম ইবনু ক্বোদামাহ আল মাক্বদিছী رحمه الله এর সুপ্রসিদ্ধ গ্রন্থ “লুম‘আতুল ই‘তিক্বাদ” এর ধারাবাহিক অডিও ভাষান্তর। বাংলা ভাষায় অডিওরূপে এটি ভাষান্তর করেছেন উছতায হাম্মাদ বিল্লাহ حفظه الله। এতে ছালাফে সালিহীনের (رضي الله عنهم) ‘আক্বীদাহ-বিশ্বাসের বিবরণ তুলে ধরা হয়েছে। আহলুছ্\u200c ছুন্নাহ ওয়াল জামা‘আতের ‘উলামায়ে কিরামের চিরাচরিত স্বভাব–বৈশিষ্ট্যও হলো যে, তারা তাদের লিখনীর মাধ্যমে সর্বাগ্রে বিশুদ্ধ ইছলামী ‘আক্বীদাহ্\u200cর সংরক্ষণ এবং তা প্রচার ও প্রসার করে থাকেন। <br />\n বক্তব্যের এ পর্বে উছতায হাম্মাদ বিল্লাহ حفظه الله বিশেষ করে ক্বাযা ও ক্বাদ্\u200cর সহ নিম্নোক্ত বিষয়ে আলোচনা করেছেন:-<br />\n ১) প্রাণ হরণকারী ফিরিশতা ও মূছা عليه السلام এর মধ্যকার অসাধারণ একটি ঘটনা উছতায আলোচনা করেছেন।<br />\n ২) এই ঘটনাটিকে ‘আক্বীদাহ অধ্যায়ে, বিশেষ করে “অদৃশ্য বিষয়ে ঈমান পোষণ” অধ্যায়ে উল্লেখ করার কারণ হলো- “একজন নাবীর দ্বারা তাঁর থেকে অনেকগুণ বেশি শক্তিশালী একজন ফিরিশতাকে আঘাত করা অসম্ভব” এই যুক্তিতে কতিপয় বিদ‘আতী</p>",
  "audio_files": [
    {
      "name": "Lum’atul I’tiqad of Imam Ibn Qudamah, class # 37",
      "url": "http://eshodinshikhi.com/wp-content/uploads/2017/03/edited-lumatul-itiqad-of-imam-ibn-qudamah-class-37.mp3"
    }
  ],
  "published_on": "Sun, 19 Mar 2017 14:35:06 +0000"
}