{
  "name": "the-character-of-muslim",
  "title": "মুছলমানের চারিত্রিক গুণাবলী",
  "categories": [
    { "name": "islamic-manner-character", "url": "category-islamic-manner-character.json" },
    { "name": "character-manner", "url": "category-character-manner.json" }
  ],
  "content": "<p>এটি শাইখ হাম্মাদ বিল্লাহ <span style=\"font-family: Arabic Symbols;\">(حفيظ الله)</span> প্রদত্ত অত্যন্ত মূল্যবান একটি বক্তৃতা। এতে তিনি চারিত্রিক ও নৈতিক আচার-আচরণের বিভিন্ন স্তর ও প্রকার সম্পর্কে আলোচনা করেছেন। উত্তম আচার-আচরণের সর্বোচ্চ পর্যায় হলো আল্লাহ্\u200cর সাথে উত্তম আচরণ। সেখান থেকে শুরু হয়ে পরবর্তীতে তা বিভিন্ন শেণী ও প্রকারে বিভক্ত হয়েছে। এসব শ্রেণী ও প্রকারের মধ্যে একটি হলো সাধারণ মানুষের সাথে সদাচরণ। ইছলাম প্রথমেই মানুষকে আল্লাহ্\u200cর (<span style=\"font-family: 'Arabic Symbols';\">(سُبْحَانَهُ وَتَعَالَىٰ)</span>) সাথে সদাচরণের আহবান জানায়। এছাড়া, যেসকল চারিত্রিক গুণাবলীতে প্রত্যেক মুছলমানের গুণান্বিত হওয়া উচিত, শাইখ তাঁর এই বক্তৃতায় সেসব চারিত্রিক গুণাবলী ও আচার-আচরণ সম্পর্কে আমাদেরকে স্ববিস্তার অবহিত করেছেন।</p>",
  "excerpt": "<p>এটি শাইখ হাম্মাদ বিল্লাহ حفظه الله প্রদত্ত অত্যন্ত মূল্যবান একটি বক্তৃতা। এতে তিনি চারিত্রিক ও নৈতিক আচার-আচরণের বিভিন্ন স্তর ও প্রকার সম্পর্কে আলোচনা করেছেন। উত্তম আচার-আচরণের সর্বোচ্চ পর্যায় হলো আল্লাহ্\u200cর সাথে উত্তম আচরণ। সেখান থেকে শুরু হয়ে পরবর্তীতে তা বিভিন্ন শেণী ও প্রকারে বিভক্ত হয়েছে। এসব শ্রেণী ও প্রকারের মধ্যে একটি হলো সাধারণ মানুষের সাথে সদাচরণ। ইছলাম প্রথমেই মানুষকে আল্লাহ্\u200cর (سبحانه وتعالى) সাথে সদাচরণের আহবান জানায়। এছাড়া, যেসকল চারিত্রিক গুণাবলীতে প্রত্যেক মুছলমানের গুণান্বিত হওয়া উচিত, শাইখ তাঁর এই বক্তৃতায় সেসব চারিত্রিক গুণাবলী ও আচার-আচরণ সম্পর্কে আমাদেরকে স্ববিস্তার অবহিত করেছেন।</p>",
  "audio_files": [
    {
      "name": "Muslim Character",
      "url": "http://eshodinshikhi.com/wp-content/uploads/2014/09/Muslim-Character.mp3"
    }
  ],
  "published_on": "Fri, 26 Sep 2014 04:13:51 +0000"
}