{
  "name": "tafsirul-quran-part5",
  "title": "ক্বোরআনের তাফছীর (৫ম  পর্ব)",
  "categories": [
    { "name": "introduction-to-al-quraan", "url": "category-introduction-to-al-quraan.json" },
    { "name": "sciences-of-al-quraan", "url": "category-sciences-of-al-quraan.json" }
  ],
  "content": "<p>এটি উছতায আবূ ছা‘আদা হাম্মাদ বিল্লাহ <span style=\"font-family: 'Arabic Symbols';\">(حفيظ الله)</span> প্রদত্ত একটি ধারাবাহিক অডিও বক্তব্য। উক্ত ধারাবাহিক বক্তব্যে উছতায পবিত্র ক্বোরআনের ছূরা সমূহের তাফছীর প্রদান করবেন, إن شاء الله। বক্তব্যের এই পর্বে উছতায তাফছীরের নিয়ম-নীতি ও 'উলূমুল ক্বোরআন সম্পর্কে আলোচনা করেছেন।<br />\nনিম্নোক্ত বইসমূহ উৎস হিসেবে গ্রহণ করা হয়েছে-</p>\n<p style=\"padding-left: 30px;\">ক) আল 'আল্লামা 'আব্দুল্লাহ আছ্\u200c ছা‘দী <span style=\"font-family: 'Arabic Symbols';\">(رَحِمَهُ ٱللَّٰهُ)</span> রচিত এবং শাইখ সালিহ্\u200c আল ‘উছাইমীন <span style=\"font-family: 'Arabic Symbols';\">(رَحِمَهُ ٱللَّٰهُ)</span> কর্তৃক ব্যাখ্যাকৃত আত-তা‘লীক্ব ‘আলাল ক্বাওা‘য়ীদ আল-হিছান।<br />\nখ) আল 'আল্লামা মুহাম্মাদ 'আলী আস্\u200c সাবূনী <span style=\"font-family: 'Arabic Symbols';\">(رَحِمَهُ ٱللَّٰهُ)</span> রচিত আত্\u200c তিবয়ান ফী 'ঊলূমিল ক্বোরআন।<br />\nগ) আল-'আল্লামা ছুয়ূতী <span style=\"font-family: 'Arabic Symbols';\">(رَحِمَهُ ٱللَّٰهُ)</span> রচিত আল-ইতক্বান।<br />\nএছাড়াও ছালাফদের রচিত আরো কিছু বই থেকে সারাংশ উপস্থাপন করা হবে, ইন-শা-আল্লাহ।</p>\n<p>১) ক্বোরআনে কারীমে তাফছীর ও তা’ওয়ীল শব্দের উল্লেখ আছে। তাফছীর ও তা’ওয়ীল কাকে বলে এবং এই দু’টোর মধ্যে কি সম্পর্ক রয়েছে, এই বিষয়গুলো আমাদের জানা খুবই প্রয়োজন। তাছাড়া আয়াতের শানে নুযূল বা আয়াত নাযিলের প্রেক্ষাপট জানা থাকলে ক্বোরআনে কারীমের বিভিন্ন আয়াতের তাফছীর বুঝা সহজ হবে, إن شاء الله।<br />\n২) তাফছীর শব্দের শাব্দিক অর্থ হচ্ছে- কোনো বিষয় স্পষ্ট করা বা পরিষ্কার করা। যেমন ক্বোরআনে কারীমে আল্লাহ <span style=\"font-family: 'Arabic Symbols';\">(سُبْحَانَهُ وَتَعَالَىٰ)</span> ইরশাদ করেছেনঃ- وَلَا يَأْتُونَكَ بِمَثَلٍ إِلَّا جِئْنَاكَ بِالْحَقِّ وَأَحْسَنَ تَفْسِيرًا<br />\nঅর্থাৎ- আপনার কাছে তারা এমন কোন দৃষ্টান্ত নিয়ে আসে না, যার সঠিক ও অধিক সুন্দর ব্যাখ্যা আমি আপনার নিকট নিয়ে আসি না। ((ছূরা আল ফুরক্বান- ৩৩))<br />\nআভিধানিক অর্থে তাফছীরের প্রকৃত সংজ্ঞা 'উলামায়ে ক্বিরামের কেউ দিতে পারেননি। তবে তাদের বক্তব্যগুলোর সারাংশ হচ্ছে- তাফছীর হলো এমন একটি বিষয়, যা ক্বোরআনে কারীমের বয়ান এবং শব্দ ও অর্থকে আরো স্পষ্ট করে দেয়।<br />\n৩) তাফছীরের সমার্থক আরেকটি শব্দের নাম হচ্ছে, তা’ওয়ীল। এর শাব্দিক অর্থ হচ্ছে- প্রত্যাবর্তন করা বা ফিরে যাওয়া। আর এর আভিধানিক অর্থ হচ্ছে, কোনো বাক্য বা বাণীকে তার সঠিক জায়গায় রেখে দেয়া। ক্বোরআনে কারীমের বেশ কিছু আয়াতে তা’ওয়ীল শব্দের উল্লেখ পাওয়া যায়। তবে, তা’ওয়ীল শব্দটি একেকটি আয়াতে একেক অর্থে ব্যবহৃত হয়েছে।<br />\nযেমন, আল্লাহ <span style=\"font-family: 'Arabic Symbols';\">(سُبْحَانَهُ وَتَعَالَىٰ)</span> ইরশাদ করেছেনঃ-</p>\n<p style=\"text-align: right;\">فَأَمَّا الَّذِينَ فِي قُلُوبِهِمْ زَيْغٌ فَيَتَّبِعُونَ مَا تَشَابَهَ مِنْهُ ابْتِغَاءَ الْفِتْنَةِ وَابْتِغَاءَ تَأْوِيلِهِ وَمَا يَعْلَمُ تَأْوِيلَهُ إِلَّا اللَّهُ</p>\n<p>অর্থাৎ- আর যাদের অন্তরে রয়েছে বক্রতা, তারাই গোলযোগ সৃষ্টির উদ্দেশ্যে এবং অপব্যাখ্যার উদ্দেশ্যে ক্বোরআনের মুতাশাবিহ আয়াতসমূহের পিছনে লেগে থাকে। অথচ আল্লাহ ব্যতিত কেউ এর ব্যাখ্যা জানে না। ((ছূরা আলি-'ইমরান- ৭))<br />\nক্বোরআনে কারীমের অন্যত্র আল্লাহ <span style=\"font-family: 'Arabic Symbols';\">(سُبْحَانَهُ وَتَعَالَىٰ)</span> ইরশাদ করেছেনঃ-</p>\n<p style=\"text-align: right;\">فَإِنْ تَنَازَعْتُمْ فِي شَيْءٍ فَرُدُّوهُ إِلَى اللَّهِ وَالرَّسُولِ إِنْ كُنْتُمْ تُؤْمِنُونَ بِاللَّهِ وَالْيَوْمِ الْآخِرِ ذَلِكَ خَيْرٌ وَأَحْسَنُ تَأْوِيلًا</p>\n<p>অর্থাৎ- যদি কোন বিষয়ে তোমরা মতবিরোধ কর, তবে তা আল্লাহ ও রাছূলের দিকে ফিরিয়ে দাও- যদি তোমরা আল্লাহ এবং আখিরাত দিবসের প্রতি ঈমান এনে থাক, এটি উত্তম এবং পরিণামে সর্বোৎকৃষ্ট। ((ছূরা আন্\u200cনিছা- ৫৯))<br />\nক্বোরআনের অন্যত্র আল্লাহ <span style=\"font-family: 'Arabic Symbols';\">(سُبْحَانَهُ وَتَعَالَىٰ)</span> ইরশাদ করেছেনঃ-</p>\n<p style=\"text-align: right;\">هَلْ يَنْظُرُونَ إِلَّا تَأْوِيلَهُ يَوْمَ يَأْتِي تَأْوِيلُهُ يَقُولُ الَّذِينَ نَسُوهُ مِنْ قَبْلُ</p>\n<p>অর্থাৎ- তারা কি কেবল এর পরিণামের অপেক্ষা করছে? যেদিন এর পরিণাম এসে যাবে, সেদিন যারা পূর্বে তা ভুলে গিয়েছিল তারা বলবে-------।((ছূরা আল আ'রাফ- ৫৩))<br />\n৪) তা’ওয়ীল কাকে বলে?<br />\nছালাফগন তা’ওয়ীল শব্দটিকে আভিধানিকভাবে দুই অর্থে ব্যবহার করেন। যেমন-</p>\n<p style=\"padding-left: 30px;\">ক) কালামুল্লাহর় কোনো বাক্যের ব্যাখ্যা এবং তার অর্থের বিবরণ দেওয়া। এই অর্থে তাফছীর এবং তা’ওয়ীল শব্দ দু’টি সমার্থক।<br />\nখ) কালাম বা বাক্যটি যে বিষয়কে উদ্দেশ্য করে বা বুঝায়, সে বিষয়টিই হচ্ছে উক্ত কালাম বা বাক্যের তা’ওয়ীল।<br />\n৫) তাফছীর এবং তা’ওয়ীলের পার্থক্য নিম্নরূপঃ<br />\nক) একক শব্দের ব্যাখ্যাকে তাফছীর এবং পুরো বাক্যের ব্যাখ্যা করাকে তা’ওয়ীল বলে।<br />\nখ) যেকোনো গ্রন্থের ব্যাখ্যার ক্ষেত্রেই তাফছীর শব্দটি ব্যবহৃত হয়। তবে তা’ওয়ীল শব্দটিকে শুধুমাত্র ঐশী গ্রন্থের ব্যাখ্যার ক্ষেত্রেই ব্যবহার করা হয়।<br />\nগ) একক শব্দের ব্যাখ্যাকে তাফছীর এবং অনেক শব্দের ব্যাখ্যাকে তা’ওয়ীল বলে।</p>\n<p>৬) সাহাবায়ে কিরামের (<span style=\"font-family: 'Arabic Symbols';\">(رَضِيَ ٱللَّٰهُ عَنْهُمْ)</span>) মধ্যে কি মুফাছ্\u200cছির ছিলেন? থাকলে কে কে ছিলেন?<br />\nসাহাবায়ে ক্বিরামের (<span style=\"font-family: 'Arabic Symbols';\">(رَضِيَ ٱللَّٰهُ عَنْهُمْ)</span>) যুগের পরে সময় যতো অতিবাহিত হয়েছে, তাফছীরের প্রয়োজনও ততবেশি দেখা দিয়েছে। তাফছীরের ব্যাপক চর্চা ও গবেষণা সাহাবায়ে কিরামের যুগে ছিল না। তাবি‘ঈনের যুগের পরে তাফছীরের ব্যাপক চর্চা ও গবেষণা শুরু হয়। তাই সাহাবায়ে ক্বিরামের (<span style=\"font-family: 'Arabic Symbols';\">(رَضِيَ ٱللَّٰهُ عَنْهُمْ)</span>) মধ্যে মুফাছ্\u200cছির সাহাবী ছিলেন হাতে গোনা কয়েকজন। যারা সাহাবায়ে ক্বিরামের (<span style=\"font-family: 'Arabic Symbols';\">(رَضِيَ ٱللَّٰهُ عَنْهُمْ)</span>) মধ্যে প্রখ্যাত মুফাছ্\u200cছীর ছিলেন, তারা হলেন-</p>\n<p style=\"padding-left: 30px;\">ক) আবূ বাক্\u200cর আস্\u200c সিদ্দীক্ব <span style=\"font-family: 'Arabic Symbols';\">(رضي الله عنه)</span><br />\nখ) ‘উমার ইবনুল খাত্তাব <span style=\"font-family: 'Arabic Symbols';\">(رضي الله عنه)</span><br />\nগ) ‘উছমান ইবনু ‘আফ্\u200cফান <span style=\"font-family: 'Arabic Symbols';\">(رضي الله عنه)</span><br />\nঘ) ‘আলী ইবনু আবী ত্বালিব <span style=\"font-family: 'Arabic Symbols';\">(رضي الله عنه)</span> <br />\nঙ) 'আব্দুল্লাহ ইবনু মাছ'উদ <span style=\"font-family: 'Arabic Symbols';\">(رضي الله عنه)</span> <br />\nচ) 'আব্দুল্লাহ ইবনু ‘আব্বাছ <span style=\"font-family: 'Arabic Symbols';\">(رضي الله عنه)</span><br />\nছ) 'উবাইদ ইবনু ক্বায়ছ <span style=\"font-family: 'Arabic Symbols';\">(رضي الله عنه)</span><br />\nজ) যাইদ ইবনু ছাবিত <span style=\"font-family: 'Arabic Symbols';\">(رضي الله عنه)</span> <br />\nঞ) আবূ মূছা আল-আশ'আরী <span style=\"font-family: 'Arabic Symbols';\">(رضي الله عنه)</span> <br />\nট) আব্দুল্লাহ ইবনুয্\u200c যুবাইর <span style=\"font-family: 'Arabic Symbols';\">(رضي الله عنه)</span> </p>\n<p style=\"padding-left: 30px;\">সাহাবায়ে কিরামের (<span style=\"font-family: 'Arabic Symbols';\">(رَضِيَ ٱللَّٰهُ عَنْهُمْ)</span>) মধ্যে তাঁরা ছাড়াও আরো অনেকেই মুফাছ্\u200cছির ছিলেন। তবে তারা এতো বেশি প্রসিদ্ধ ছিলেন না।</p>\n<p style=\"text-align: left;\">৭) রাছূলুল্লাহ <span style=\"font-family: 'Arabic Symbols';\">(ﷺ)</span> কি পরিপূর্ণ ক্বোরআনের তাফছীর করে গিয়েছিলেন? নাকি এর পূর্ণ ব্যাখ্যা তিনি করেননি?<br />\nএ প্রসঙ্গে আল্লাহ <span style=\"font-family: 'Arabic Symbols';\">(سُبْحَانَهُ وَتَعَالَىٰ)</span> ক্বোরআনে কারীমে ইরশাদ করেছেনঃ-</p>\n<p style=\"text-align: right;\">وَأَنْزَلْنَا إِلَيْكَ الذِّكْرَ لِتُبَيِّنَ لِلنَّاسِ مَا نُزِّلَ إِلَيْهِمْ وَلَعَلَّهُمْ يَتَفَكَّرُونَ</p>\n<p style=\"text-align: left;\">অর্থাৎ- আর আমি আপনার প্রতি যিক্\u200cর অবতীর্ণ করেছি যাতে আপনি মানুষের জন্য তা স্পষ্ট করেন যা তাদের প্রতি অবতীর্ণ করা হয়েছে, আর যাতে তারা চিন্তা-ভাবনা করে। ((ছূরা আন্\u200c নাহল- ৪৪)<br />\nএই আয়াত দ্বারা একথাই প্রতিয়মান হয় যে, রাছূলুল্লাহ <span style=\"font-family: 'Arabic Symbols';\">(ﷺ)</span> পূর্ণ ক্বোরআনের তাফছীর করেছেন।<br />\nকিন্তু তদুপরি এই বিষয় নিয়ে 'উলামায়ে কিরামের মধ্যে দ্বিমত রয়েছে। ইবনু তাইমিয়্যাহ <span style=\"font-family: 'Arabic Symbols';\">(سُبْحَانَهُ وَتَعَالَىٰ)</span> এর মতে, রাছূলুল্লাহ <span style=\"font-family: 'Arabic Symbols';\">(ﷺ)</span> পূর্ণ ক্বোরআনের তাফছীর করে গেছেন। তবে, অন্যান্য 'উলামায়ে কিরামের মতে, রাছূলুল্লাহ <span style=\"font-family: 'Arabic Symbols';\">(ﷺ)</span> সকল আয়াতের ব্যাখ্যা দিয়ে যাননি। এই ব্যাপারে পরবর্তীতে আরো বিস্তারিত আলোচনা করা হবে, إن شاء الله।</p>\n<p>&nbsp;</p>\n<p>ক্লাস শেষে নিম্নোক্ত প্রশ্নগুলোর উত্তর প্রদান করা হয়:-<br />\n১) السلام عليكم ورحمة الله وبركاته।<br />\nশাইখ, আমাদের মতো নতুন ছাত্রদের জন্য তাফছীরের কোন কিতাবটি আপনি সুপারিশ করেন? আল্লাহ <span style=\"font-family: 'Arabic Symbols';\">(سُبْحَانَهُ وَتَعَالَىٰ)</span> আপনাকে উত্তম প্রতিদান প্রদান করুন।<br />\n২) পূর্বেকার নাবী-রাছূলগণের ঘটনা যা ক্বোরআনে বর্ণনা করা হয়েছে, তা থেকে উপকৃত হওয়ার উপায় কি?<br />\n৩) ক্বোরআনে বর্ণিত ঐতিহাসিক স্থানসমূহে গমন করা কি মুছলিমদের জন্য জা-ইয?</p>",
  "excerpt": "<p>এটি উছতায আবূ ছা‘আদা হাম্মাদ বিল্লাহ حفظه الله প্রদত্ত একটি ধারাবাহিক অডিও বক্তব্য। উক্ত ধারাবাহিক বক্তব্যে উছতায পবিত্র ক্বোরআনের ছূরা সমূহের তাফছীর প্রদান করবেন, إن شاء الله। বক্তব্যের এই পর্বে উছতায তাফছীরের নিয়ম-নীতি ও 'উলূমুল ক্বোরআন সম্পর্কে আলোচনা করেছেন।<br />\nনিম্নোক্ত বইসমূহ উৎস হিসেবে গ্রহণ করা হয়েছে-</p>\n<p style=\"padding-left: 30px;\">ক) আল 'আল্লামা 'আব্দুল্লাহ আছ্\u200c ছা‘দী رحمه الله রচিত এবং শাইখ সালিহ্\u200c আল ‘উছাইমীন رحمه الله কর্তৃক ব্যাখ্যাকৃত আত-তা‘লীক্ব ‘আলাল ক্বাওা‘য়ীদ আল-হিছান।<br />\nখ) আল 'আল্লামা মুহাম্মাদ 'আলী আস্\u200c সাবূনী رحمه الله রচিত আত্\u200c তিবয়ান ফী 'ঊলূমিল ক্বোরআন।<br />\nগ) আল-'আল্লামা ছুয়ূতী رحمه الله রচিত আল-ইতক্বান।<br />\nএছাড়াও ছালাফদের রচিত আরো কিছু বই থেকে সারাংশ উপস্থাপন করা হবে, ইন-শা-আল্লাহ।</p>\n<p>১) ক্বোরআনে কারীমে তাফছীর ও তা’ওয়ীল শব্দের উল্লেখ আছে। তাফছীর ও তা’ওয়ীল কাকে বলে এবং এই দু’টোর মধ্যে কি সম্পর্ক রয়েছে, এই</p>",
  "audio_files": [
    {
      "name": "Interpretation of the Meanings of the Noble Qur'an: In the Bangla Language, class # 5",
      "url": "http://eshodinshikhi.com/wp-content/uploads/2020/01/edited-Interpretation-Of-The-Meanings-Of-The-Noble-Quran-5.mp3"
    }
  ],
  "published_on": "Wed, 08 Jan 2020 21:02:38 +0000"
}