{
  "name": "sufficiency-of-creed-part1",
  "title": "আল ইমাম মুহাম্মাদ ইবনু সালিহ্\u200c আল ‘উছাইমীন কর্তৃক ব্যাখ্যাকৃত আল ইমাম ইবনু ক্বোদামাহ আল মাক্বদিছী রচিত -‘আক্বীদাহ সংকলন- গ্রন্থ (১ম পর্ব)",
  "categories": [
    { "name": "belief-in-allah", "url": "category-belief-in-allah.json" },
    { "name": "tawheed-al-asma-as-sifat", "url": "category-tawheed-al-asma-as-sifat.json" },
    { "name": "islamic-aqeedah-eemaan", "url": "category-islamic-aqeedah-eemaan.json" }
  ],
  "content": "<p>এই অডিওটি হলো আশ্\u200cশাইখ মুহাম্মাদ ইবনু সালিহ্\u200c আল ‘উছাইমীন <span style=\"font-family: 'Arabic Symbols';\">(رَحِمَهُ ٱللَّٰهُ)</span> কর্তৃক ব্যাখ্যাকৃত ইমাম ইবনু ক্বোদামাহ আল মাক্বদিছী <span style=\"font-family: 'Arabic Symbols';\">(رَحِمَهُ ٱللَّٰهُ)</span> এর সুপ্রসিদ্ধ গ্রন্থ “লুম‘আতুল ই‘তিক্বাদ” এর ধারাবাহিক অডিও ভাষান্তর। বাংলা ভাষায় অডিও রূপে এটি ভাষান্তর করেছেন শাইখ হাম্মাদ বিল্লাহ <span style=\"font-family: Arabic Symbols;\">(حفيظ الله)</span>। এতে ছালাফে সালিহীনের ‘আক্বীদাহ-বিশ্বাসের বিবরণ তুলে ধরা হয়েছে। আর যুগে যুগে আহলুছ্\u200c ছুন্নাহ ওয়াল জামা‘আতের ‘উলামায়ে কেরামের স্বভাব বা বৈশিষ্ট্যও হলো যে, তারা তাদের লিখনীর মাধ্যমে সর্বাগ্রে বিশুদ্ধ ইছলামী ‘আক্বীদাহ্\u200cর সংরক্ষণ এবং তা প্রচার ও প্রসার করে থাকেন। বক্তব্যে উল্লেখিত মূল বিষয়গুলো:-</p><p>-ইমাম ইবনু ক্বোদামাহ (<span style=\"font-family: Arabic Symbols;\">(رَحِمَهُ ٱللَّٰهُ)</span>) এর সংক্ষিপ্ত জীবন বৃত্তান্ত।<br />-“লুম‘আতুল ই‘তিক্বাদ” গ্রন্থের গুরুত্ব ও প্রয়োজনীয়তা।<br />-শাইখ সালিহ আল ‘উছাইমীন (<span style=\"font-family: Arabic Symbols;\">(رَحِمَهُ ٱللَّٰهُ)</span>) এর ভূমিকা।<br />-আল্লাহ্\u200cর সুমহান নাম ও গুণাবলী সম্পর্কে শাইখ সালিহ আল ‘উছাইমীন (<span style=\"font-family: Arabic Symbols;\">(رَحِمَهُ ٱللَّٰهُ)</span>) এর অতি গুরুত্বপূর্ণ কিছু কথা এবং এতদসম্পর্কিত চারটি মূলনীতি, যথা:-</p><p>(১) ক্বোরআন ও ছুন্নাহ্\u200cতে বর্ণিত আল্লাহ্\u200cর সুমহান নাম ও গুণাবলী সম্পর্কিত প্রমাণাদীর কোনরূপ পরিবর্তন, পরিবর্ধন ব্যতীত এসবের বাহ্যিক সুষ্পষ্ট অর্থ গ্রহণ।<br />(২) আল্লাহ্\u200cর নাম সম্পর্কিত। এই মূলনীতির অধীনে রয়েছে নিম্নোক্ত চারটি বিষয়:-</p><p style=\"padding-left: 60px;\">(ক) আল্লাহ্\u200cর সবগুলো নাম অতি সুন্দর-চমৎকার, সার্বিকভাবে যথাযথ ও পরিপূর্ণ এবং সর্বপ্রকার দোষত্রুটি থেকে সম্পূর্ণরুপে মুক্ত ও পবিত্র।<br />(খ) আল্লাহ্\u200cর নামের সংখ্যা সীমিত বা নির্দিষ্ট নয়।<br />(গ) বিবেক-বুদ্ধি দ্বারা আল্লাহ্\u200cর জন্য কোন নাম নির্ধারণ করা যায় না। আল্লাহ্\u200cর নামগুলো সম্পূর্ণরূপে শারী‘য়াত কর্তৃক সুনির্ধারিত।  <br />(ঘ) আল্লাহ্\u200cর প্রতিটি নাম, যেমন তাঁর মহান সত্তাকে বুঝায় তেমনি সেই নামটির মধ্যে যে গুণ বা বৈশিষ্ট্য রয়েছে সেটিকেও বুঝায় এবং নাম বিশেষে সেই গুণের প্রতিক্রিয়াকেও বুঝায়। মোটকথা আল্লাহ্\u200cর (<span style=\"font-family: Arabic Symbols;\">(سُبْحَانَهُ وَتَعَالَىٰ)</span>) প্রত্যেকটি নামই উপরোক্ত দু’টি কিংবা তিনিটি বিষয়কে (আল্লাহ্\u200cর যাত, আল্লাহ্\u200cর সিফাত এবং নামটি যদি মুতা‘আদ্দি হয় তাহলে এর প্রতিক্রিয়া) অন্তর্ভুক্ত রাখে। তাই আল্লাহ্\u200cর সুমহান নামসমূহের প্রতি ঈমান পোষণ করতে হলে এর অন্তর্ভুক্ত উপরোক্ত সবকটি বিষয়ের প্রতি ঈমান পোষণ করতে হবে, নতুবা ঈমান পরিপূর্ণ হবে না।</p><p>(৩) আল্লাহ্\u200cর (<span style=\"font-family: Arabic Symbols;\">(سُبْحَانَهُ وَتَعَالَىٰ)</span>) সিফাত বা গুণাবলী সম্পর্কিত। এই মূলনীতির অধীনে রয়েছে নিম্নোক্ত চারটি বিষয়:-</p><p style=\"padding-left: 60px;\">(ক) আল্লাহ্\u200cর (<span style=\"font-family: Arabic Symbols;\">(سُبْحَانَهُ وَتَعَالَىٰ)</span>) প্রতেকটি সিফাত হলো সুমহান- সমুচ্চ, পরিপূর্ণ, সুপ্রশংসিত; তাতে বিন্দুমাত্র কোনরূপ দোষ বা ত্রুটি নেই। <br />(খ) আল্লাহ্\u200cর (<span style=\"font-family: Arabic Symbols;\">(سُبْحَانَهُ وَتَعَالَىٰ)</span>) সিফাতগুলো (গুণাবলী) হলো দু’প্রকার। (এক) ছুবূতিয়্যাহ অর্থাৎ যেগুলো আল্লাহ্\u200cর জন্যে স্বীকৃত ও প্রতিষ্ঠিত। (দুই) ছালাবিয়্যাহ অর্থাৎ যেসব গুণাবলী থেকে আল্লাহ <span style=\"font-family: Arabic Symbols;\">(سُبْحَانَهُ وَتَعَالَىٰ)</span> নিজেকে মুক্ত ও পবিত্র বলে ঘোষণা করেছেন।<br />(গ) আল্লাহ <span style=\"font-family: Arabic Symbols;\">(سُبْحَانَهُ وَتَعَالَىٰ)</span> নিজেকে যেসব গুণাবলীতে গুণান্বিত করেছেন অর্থাৎ সিফাতে ছুবূতিয়্যাহ, সেগুলো দুইভাগে বিভক্ত। (এক) যেগুলো আল্লাহ্\u200cর (<span style=\"font-family: Arabic Symbols;\">(سُبْحَانَهُ وَتَعَالَىٰ)</span>) সুমহান যাত বা সত্তার সাথে সম্পৃক্ত। (দুই) যেগুলো আল্লাহ্\u200cর (<span style=\"font-family: Arabic Symbols;\">(سُبْحَانَهُ وَتَعَالَىٰ)</span>) কর্মের সাথে সম্পৃক্ত।<br />(ঘ) আল্লাহ্\u200cর (<span style=\"font-family: Arabic Symbols;\">(سُبْحَانَهُ وَتَعَالَىٰ)</span>) প্রতিটি সিফাত সম্পর্কে ৩টি প্রশ্নের সুস্পষ্ট উত্তর।</p><p>(৪) যারা আল্লাহ্\u200cর সুমহান নাম বা গুণাবলীর কোন কিছুকে অস্বীকার করে কিংবা এগুলোর বাহ্যিক সুষ্পষ্ট অর্থকে বাদ দিয়ে ভিন্ন অর্থ গ্রহণ করে, তাদেরকে প্রত্যাখ্যান করার কারণ, এ বিষয়টি উপরোক্ত অন্যান্য বিষয় আলোচনাকালে সবিস্তার আলোচনা করা হয়েছে।</p><p>&nbsp;</p><p>ভাষান্তরকালীন শাইখ হাম্মাদ বিল্লাহ <span style=\"font-family: Arabic Symbols;\">(حفيظ الله)</span> নিম্নোক্ত প্রশ্নগুলোর উত্তর প্রদান করেছেন:-</p><p>১। হাত, চক্ষু এহুলো কি আল্লাহ্\u200cর (<span style=\"font-family: 'Arabic Symbols';\">(سُبْحَانَهُ وَتَعَالَىٰ)</span>) সিফাত বা গুণাবলী?</p><p>২। হাদীছে ক্বোদছীতে আল্লাহ <span style=\"font-family: 'Arabic Symbols';\">(سُبْحَانَهُ وَتَعَالَىٰ)</span> বলেছেন:- “আমিই হলাম সময়, আমার হাতেই বিষয়”। প্রশ্ন হলো যে, এখানে “বিষয়” বলতে কি বুঝানো হয়েছে?</p><p>৩। “যা কিছু ভাল তা আপনার (আল্লাহ্\u200cর) হাতে এবং যা কিছু মন্দ তা আপনার সাথে সম্মন্ধনীয় নয়\" দয়া করে এই বাক্যটির ব্যাখ্যা দিন।</p><p>৪। একথা কি বলা যাবে যে, আরশের উপর সমাসীন হওয়ার কোন প্রারম্ভ ছিল?</p><p>৫। “ইলহাদ” কি?</p>",
  "excerpt": "<p>এই অডিওটি হলো আশ্\u200cশাইখ মুহাম্মাদ ইবনু সালিহ্\u200c আল ‘উছাইমীন رحمه الله কর্তৃক ব্যাখ্যাকৃত ইমাম ইবনু ক্বোদামাহ আল মাক্বদিছী رحمه الله এর সুপ্রসিদ্ধ গ্রন্থ “লুম‘আতুল ই‘তিক্বাদ” এর ধারাবাহিক অডিও ভাষান্তর। বক্তব্যে উল্লেখিত মূল বিষয়গুলো:-<br />-ইমাম ইবনু ক্বোদামাহ (رحمه الله) এর সংক্ষিপ্ত জীবন বৃত্তান্ত।<br />-“লুম‘আতুল ই‘তিক্বাদ” গ্রন্থের গুরুত্ব ও প্রয়োজনীয়তা।<br />-শাইখ সালিহ আল ‘উছাইমীন (رحمه الله) এর ভূমিকা।</p>",
  "audio_files": [
    {
      "name": "Lum’atul I’tiqad of Imam Ibn Qudamah, class # 1",
      "url": "http://eshodinshikhi.com/wp-content/uploads/2014/08/p1_Sufficiency-of-creed-of-Al-Imam-Ibn-Qudamah-Al-Maqdisi-edit.mp3"
    }
  ],
  "published_on": "Mon, 29 Sep 2014 15:47:55 +0000"
}