{
  "name": "firmness-upon-the-of-salafus-salih-part8",
  "title": "ছালাফে সালিহীনের মানহাজের উপর অটল ও অবিচল থাকার গুরুত্ব, প্রয়োজনীয়তা এবং উপায় ও পদ্ধতি (৮ম পর্ব)",
  "categories": [
    { "name": "ahle-sunnah-wal-jamaah", "url": "category-ahle-sunnah-wal-jamaah.json" },
    {
      "name": "usool-wa-manhaju-ahle-sunnah-wal-jamaah",
      "url": "category-usool-wa-manhaju-ahle-sunnah-wal-jamaah.json"
    }
  ],
  "content": "<p>এই অডিওটি হলো শাইখ মুহাম্মাদ ইবনু ‘উমার বাযমূল <span style=\"font-family: Arabic Symbols;\">(حفيظ الله)</span> প্রদত্ত “ছালাফে সালিহীনের অনুসৃত নীতির উপর অটল ও অবিচল থাকা” বিষয়ে প্রদত্ত একটি মূল্যবান ‘আরাবী ভাষণের বাংলা ভাষান্তর। ভাষান্তর করেছেন উছতায হাম্মাদ বিল্লাহ <span style=\"font-family: Arabic Symbols;\">(حفيظ الله)</span>। বক্তব্যে উল্লেখিত মূল বিষয়গুলো:-<br />১) পূর্ববর্তী ক্লাসের সংক্ষিপ্ত পূণঃআলোচনা।<br />২) দৃঢ়তা ও অবিচলতা হলো আহলুল হাদীছের বৈশিষ্ট্য। এই উত্তম গুণগুলো অন্যান্য দলের চেয়ে আহলুল হাদীছের মধ্যেই বেশি পাওয়া যায়।<br />৩) আহলুছ্\u200c ছুন্নাহ বা আহলুল হাদীছ হলেন তারা যারা সত্যের উপর অটল থাকেন। অপরপক্ষে যারা আহ্\u200cলে ছুন্নাত ওয়াল জামা‘আতের অনুসারী নয় তাদের মধ্যেই বিচলতা ও অস্থিরতা (কখনো এই দলের সাথে কখনো ঐ দলের সাথে) প্রচন্ডভাবে দেখা যায়। শাইখ বলেছেন যে, আপনি আহ্\u200cলুছ্\u200c ছুন্নাহ্\u200cর প্রকৃত কোন অনুসারীকে দার্শনিকদের কিংবা তাবলীগ জামা‘আতের বা অন্য কোন দলের সাথে দেখতে পাবেন না।<br />৪) আহলুল কালাম ও দর্শনশাস্ত্রীগণের মধ্যে তফাৎ।<br />৫) আহলুছ্\u200c ছুন্নাহ ওয়াল জামা‘আতের সবচেয়ে বড় বৈশিষ্ট্য হলো যে, তাদের মধ্যে একতা বা ঐক্য থাকে, বিভক্তি ও বিচ্ছিন্নতা থাকে না। কারণ তারা সকলেই ক্বোরআন ও ছুন্নাহ্\u200cকে ছালাফে সালিহীনের (<span style=\"font-family: Arabic Symbols;\">(unknown text)</span>) জ্ঞান ও উপলব্ধি অনুযায়ী অনুসরণ করে থাকেন।<br />৬) মৃত্যুর পূর্বে ইমাম আল জুওয়াইনী যা বলেছিলেন।<br />৭) বিভিন্ন দল ও তাদের পারস্পরিক বিভক্তি ও বিচ্ছিন্নতার কিছু উদাহরণ শাইখ এখানে উপস্থাপন করেছেন।</p>",
  "excerpt": "<p>এই অডিওটি হলো শাইখ মুহাম্মাদ ইবনু ‘উমার বাযমূল حفظه الله প্রদত্ত “ছালাফে সালিহীনের অনুসৃত নীতির উপর অটল ও অবিচল থাকা” বিষয়ে প্রদত্ত একটি মূল্যবান ‘আরাবী ভাষণের বাংলা ভাষান্তর। ক্তব্যে উল্লেখিত মূল বিষয়গুলো:-<br />১) পূর্ববর্তী ক্লাসের সংক্ষিপ্ত পূণঃআলোচনা।<br />২) দৃঢ়তা ও অবিচলতা হলো আহলুল হাদীছের বৈশিষ্ট্য। এই উত্তম গুণগুলো অন্যান্য দলের চেয়ে আহলুল হাদীছের মধ্যেই বেশি পাওয়া যায়।<br />৩) আহলুছ্\u200c ছুন্নাহ বা আহলুল হাদীছ হলেন তারা যারা সত্যের উপর অটল থাকেন। অপরপক্ষে যারা আহ্\u200cলে ছুন্নাত ওয়াল জামা‘আতের অনুসারী নয় তাদের মধ্যেই বিচলতা ও অস্থিরতা (কখনো এই দলের সাথে কখনো ঐ দলের সাথে) প্রচন্ডভাবে দেখা যায়। শাইখ বলেছেন যে, আপনি আহ্\u200cলুছ্\u200c ছুন্নাহ্\u200cর প্রকৃত কোন অনুসারীকে দার্শনিকদের কিংবা তাবলীগ জামা‘আতের বা অন্য কোন দলের সাথে দেখতে পাবেন না।<br />৪) আহলুল কালাম ও দর্শনশাস্ত্রীগণের মধ্যে তফাৎ।</p>",
  "audio_files": [
    {
      "name": "Thabat 'Alal Manhaj of Shaykh Umar Bazmool",
      "url": "http://eshodinshikhi.com/wp-content/uploads/2015/08/edited-ath-thabat-alal-manhaj-class-8.mp3"
    }
  ],
  "published_on": "Fri, 14 Aug 2015 20:17:30 +0000"
}