{
  "name": "loving-knowing-prophet-part2",
  "title": "রাছূলুল্লাহ-কে (صلى الله عليه وسلم) জানা এবং তাকে ভালোবাসা (২য় পর্ব)",
  "categories": [
    {
      "name": "obligatory-knowing-islamic-aqeedah",
      "url": "category-obligatory-knowing-islamic-aqeedah.json"
    },
    { "name": "islamic-aqeedah-eemaan", "url": "category-islamic-aqeedah-eemaan.json" }
  ],
  "content": "<p>এটি শাইখ হাম্মাদ বিল্লাহ <span style=\"font-family: Arabic Symbols;\">(حفيظ الله)</span> প্রদত্ত অত্যন্ত মূল্যবান একটি ভাষণ। এতে তিনি তিনটি মৌলনীতির মধ্য হতে দ্বিতীয় মৌলনীতি (“প্রত্যেক মুছলমানের উপর ওয়াজিব, তার নাবী-কে সঠিকভাবে চেনা ও জানা”) সম্পর্কে আলোচনা করেছেন। নাবীকে (<span style=\"font-family: Arabic Symbols;\">(ﷺ)</span>) চিনতে ও জানতে পারার ‘আলামাত হলো তাঁর অনুসরণ করা এবং মানুষের মধ্যে তাকে সবচাইতে বেশি ভালোবাসা। আলোচনাটি তিনি আশ্\u200cশাইখ মুহাম্মাদ ইবনু সালিহ্\u200c আল ‘উছাইমীন <span style=\"font-family: Arabic Symbols;\">(رَحِمَهُ ٱللَّٰهُ)</span> প্রণীত “তিনিটি মৌলনীতির ব্যাখ্যা” গ্রন্থ থেকে করেছেন।</p>",
  "excerpt": "<p>এটি শাইখ হাম্মাদ বিল্লাহ حفظه الله প্রদত্ত অত্যন্ত মূল্যবান একটি ভাষণ। এতে তিনি তিনটি মৌলনীতির মধ্য হতে দ্বিতীয় মৌলনীতি (“প্রত্যেক মুছলমানের উপর ওয়াজিব, তার নাবী-কে সঠিকভাবে চেনা ও জানা”) সম্পর্কে আলোচনা করেছেন। নাবীকে (صلى الله عليه وسلم) চিনতে ও জানতে পারার ‘আলামাত হলো তাঁর অনুসরণ করা এবং মানুষের মধ্যে তাকে সবচাইতে বেশি ভালোবাসা।</p>",
  "audio_files": [
    {
      "name": "Loving and knowing the prophet, Part 2",
      "url": "http://eshodinshikhi.com/wp-content/uploads/2014/09/Loving-and-knowing-the-prophet-Part-2.mp3"
    }
  ],
  "published_on": "Fri, 26 Sep 2014 20:26:56 +0000"
}