{
  "name": "corona-virus-part4",
  "title": "করোনাভাইরাস সম্পর্কিত ইছলামিক দৃষ্টিভঙ্গি (৪র্থ পর্ব)",
  "categories": [
    { "name": "current-events", "url": "category-current-events.json" },
    { "name": "corona-virus", "url": "category-corona-virus.json" }
  ],
  "content": "<p>১) শামে যখন তা'উন দেখা দেয়, তখন আবূ উবাইদাহ ইবনে জাররাহ <span style=\"font-family: 'Arabic Symbols';\">(رضي الله عنه)</span> ও মু'আয ইবনে জাবাল <span style=\"font-family: 'Arabic Symbols';\">(رضي الله عنه)</span> আল্লাহ এর কাছে প্রার্থনা করে যে, যেনো এই তা'উনের মধ্যে তাদের একটা অংশ রাখা হয়। এই রকম দু'আ করে কি রোগ কামনা করা জায়েয আছে? এবং, এই তা'উনের মধ্যেও উনারা জামা'আতে সালাত আদায় করেছেন এবং, জুমু'আর খুতবা দিয়েছেন। <br />\nরাছূল <span style=\"font-family: 'Arabic Symbols';\">(ﷺ)</span> বলেছেন, তোমরা তোমাদের সন্তানের উপর, নিজের সম্পদের উপর এবং,নিজের উপরে নিজে বদ দূ'আ করোনা। কারণ, হয়তো এমন একটা সময়ে এই বদ দু'আ গুলো তোমরা করবে যে, যে সময়টা হবে দু'আ ক্ববুলের মুহূর্ত এবং, তা আল্লাহ <span style=\"font-family: 'Arabic Symbols';\">(سُبْحَانَهُ وَتَعَالَىٰ)</span> এর কাছে ক্ববুল হয়ে যাবে। ((মুছলিম))<br />\nতাহলে, আবূ উবাইদাহ ইবনে জাররাহ  <span style=\"font-family: 'Arabic Symbols';\">(رضي الله عنه)</span> ও মু'আয ইবনে জাবাল <span style=\"font-family: 'Arabic Symbols';\">(رضي الله عنه)</span> কিভাবে এই তা'উনের মধ্যে তাদের একটা অংশ আল্লাহ <span style=\"font-family: 'Arabic Symbols';\">(سُبْحَانَهُ وَتَعَالَىٰ)</span> এর কাছে চাইলেন?  <br />\nএর উত্তরে 'উলামারা বলেন, আপনি যখন কোনও ভালো অবস্থানে আছেন, তখন আপনি নিজের জন্য কোনও বদ দূ'আ করতে পারবেন না। কিন্তু, যখন শাহাদাতের উপকরণ গুলো উপস্থিত থাকবে তখন শাহাদাত কামনা করা এই হাদীছের পরিপন্থী নয়।<br />\n২) এই তা'উন কে দূর করার জন্য আমাদের করণীয় কি রয়েছে?<br />\nরাষ্ট্রীয় পর্যায়ে করণীয় হলঃ</p>\n<p style=\"padding-left: 30px;\">ক) দেশ থেকে সকল প্রকারের অশ্লীলতা ও বেহায়াপনাকে দূর করতে হবে। <br />\nখ) জুয়া ও মদের আড্ডাখানা গুলোকে বন্ধ করতে হবে। <br />\nব্যক্তি পর্যায়ে করণীয় হলঃ <br />\nক) আমাদের আক্বিদাকে ঠিক করতে হবে। <br />\nখ) সবসময় ওযু অবস্থায় থাকার চেষ্টা করতে হবে।<br />\nগ) মনোযোগ দিয়ে সালাত আদায় করতে হবে। <br />\nঘ) নফল সালাত আদায়ের চেষ্টা করা। <br />\nঙ) বেশী বেশী আল্লাহ <span style=\"font-family: 'Arabic Symbols';\">(سُبْحَانَهُ وَتَعَالَىٰ)</span> কে স্মরণ করতে হবে। কারণ, এগুলোর দ্বারা বালা-মুসীবাহ দূর হয়। <br />\nচ) বেশী বেশী ইছতিগফার করতে হবে। <br />\nছ) সর্বদা আল্লাহ <span style=\"font-family: 'Arabic Symbols';\">(سُبْحَانَهُ وَتَعَالَىٰ)</span> এর নিকট দু'আ করতে হবে। <br />\nজ) মানুষের সাথে উত্তম আচরণ করতে হবে।<br />\nঝ) বেশী বেশী সাদাক্বা করতে হবে। এটি অত্যন্ত গুরুত্বপূর্ণ ও পরীক্ষিত একটি আমল।</p>",
  "excerpt": "<p>১) শামে যখন তা'উন দেখা দেয়, তখন আবূ উবাইদাহ ইবনে জাররাহ رضي الله عنه ও মু'আয ইবনে জাবাল رضي الله عنه আল্লাহ এর কাছে প্রার্থনা করে যে, যেনো এই তা'উনের মধ্যে তাদের একটা অংশ রাখা হয়। এই রকম দু'আ<br />\nকরে কি রোগ কামনা করা জায়েয আছে? এবং, এই তা'উনের মধ্যেও উনারা জামা'আতে সালাত আদায় করেছেন এবং, জুমু'আর খুতবা দিয়েছেন। <br />\nরাছূল صلى الله عليه وسلم বলেছেন, তোমরা তোমাদের সন্তানের উপর, নিজের সম্পদের উপর এবং,নিজের উপরে নিজে বদ দূ'আ করোনা। কারণ, হয়তো এমন একটা সময়ে এই বদ দু'আ গুলো তোমরা করবে যে, যে সময়টা হবে<br />\nদু'আ ক্ববুলের মুহূর্ত এবং, তা আল্লাহ سبحانه وتعالى এর কাছে ক্ববুল হয়ে যাবে। (মুছলিম)</p>",
  "audio_files": [
    {
      "name": "Islamic Perspective on COVID-19 Part 4",
      "url": "http://eshodinshikhi.com/wp-content/uploads/2020/08/Islamic-Perspective-on-COVID-19-Part-4.mp3"
    }
  ],
  "published_on": "Sat, 10 Oct 2020 18:00:14 +0000"
}