{
  "name": "ilm-part-7",
  "title": "‘ইল্\u200cম বা জ্ঞান বিষয়ক ধারাবাহিক বক্তব্য (৭ম পর্ব)",
  "categories": [
    { "name": "islamic-manner-character", "url": "category-islamic-manner-character.json" },
    { "name": "character-manner", "url": "category-character-manner.json" }
  ],
  "content": "<p>ধারাবাহিক এই অডিও বক্তব্যগুলো শাইখ হাম্মাদ বিল্লাহ <span style=\"font-family: Arabic Symbols;\">(حفيظ الله)</span> প্রদত্ত ‘ইল্\u200cম বা জ্ঞান বিষয়ে অত্যন্ত মূল্যবান ও অসাধারণ ক’টি বক্তব্য। এতে তিনি ইমাম ছুফইয়ান ছাওরী, ইমাম শাফি‘য়ী, ইমাম যুহরী, ইমাম ফুযাইল ইবনু ‘ইয়ায, ইমাম ইবনু ‘আব্দিল বার্\u200c, ইমাম সালিহ্\u200c আল ‘উছাইমীন (<span style=\"font-family: 'Arabic Symbols';\">(unknown text)</span>) প্রমুখ হাক্বানী ‘উলামায়ে কিরামের বিভিন্ন গ্রন্থ থেকে অত্যন্ত জ্ঞানগর্ব আলোচনা করেছেন। ধারাবাহিক এসব বক্তব্যে তিনি বিশেষভাবে নিম্নোক্ত বিষয়গুলো আলোচনা করেছেন:-<br />\n১) ‘ইল্\u200cম কী, ‘ইল্\u200cম কাকে বলে, ‘ইল্\u200cম কত প্রকার এবং ‘ইল্\u200cমের স্তর কয়টি ও কি কি।<br />\n২) ইল্\u200cম অর্জনের নিয়ম-নীতি, শর্তাবলী, ‘ইল্\u200cমের তাৎপর্য ও ফাযীলাত কী।<br />\n৩) সত্যিকার ‘উলামা কারা? জ্ঞানের প্রকৃত উৎস কি? কোথায় বা কাদের নিকট জ্ঞান অন্বেষণ করতে হবে?<br />\nধারাবাহিক আলোচনার এই পর্বে প্রকৃত ‘উলামা করা, ‘উলামাদের সাথে আমাদের সম্পর্ক কেমন হওয়া উচিত, আমাদের নিকট তাদের অধিকার বা প্রাপ্য এবং তাদের নিকট আমাদের অধিকার বা প্রাপ্য কী, কাদের থেকে জ্ঞান নেয়া যাবে এবং কাদের থেকে জ্ঞান নেয়া যাবে না, এসব বিষয়ে আলোচনা করেছেন।</p>",
  "excerpt": "<p>ধারাবাহিক এই অডিও বক্তব্যগুলো শাইখ হাম্মাদ বিল্লাহ حفظه الله প্রদত্ত ‘ইল্\u200cম বা জ্ঞান বিষয়ে অত্যন্ত মূল্যবান ও অসাধারণ ক’টি বক্তব্য। এতে তিনি ইমাম ছুফইয়ান ছাওরী, ইমাম শাফি‘য়ী, ইমাম যুহরী, ইমাম ফুযাইল ইবনু ‘ইয়ায, ইমাম ইবনু ‘আব্দিল বার্\u200c, ইমাম সালিহ্\u200c আল ‘উছাইমীন (رضي الله عنهم) প্রমুখ হাক্বানী ‘উলামায়ে কিরামের বিভিন্ন গ্রন্থ থেকে অত্যন্ত জ্ঞানগর্ব আলোচনা করেছেন। ধারাবাহিক এসব বক্তব্যে তিনি বিশেষভাবে নিম্নোক্ত বিষয়গুলো আলোচনা করেছেন:-<br />\n১) ধারাবাহিক আলোচনার এই পর্বে প্রকৃত ‘উলামা করা, ‘উলামাদের সাথে আমাদের সম্পর্ক কেমন হওয়া উচিত, আমাদের নিকট তাদের অধিকার বা প্রাপ্য এবং তাদের নিকট আমাদের অধিকার বা প্রাপ্য কী, কাদের</p>",
  "audio_files": [
    {
      "name": "ilm part 7",
      "url": "http://eshodinshikhi.com/wp-content/uploads/2014/09/Ilm_7_edit_mp3.mp3"
    }
  ],
  "published_on": "Thu, 25 Sep 2014 03:59:06 +0000"
}