{
  "name": "difficulties-of-women-part36",
  "title": "নারীদের সম-সাময়িক বিভিন্ন সমস্যা এবং তা থেকে উত্তোরণের ক্বোরআন-ছুন্নাহ ভিত্তিক পথ ও পদ্ধতি (৩৬তম পর্ব)",
  "categories": [
    { "name": "instigate-marriage", "url": "category-instigate-marriage.json" },
    { "name": "rulings-social-relations", "url": "category-rulings-social-relations.json" },
    { "name": "islamic-jurisprudence", "url": "category-islamic-jurisprudence.json" }
  ],
  "content": "<p>উছতায আবূ ছা‘আদাহ হাম্মাদ বিল্লাহ <span style=\"font-family: 'Arabic Symbols';\">(حفيظ الله)</span> ধারাবাহিক এই অডিও বক্তব্যে নারীদের সম-সাময়িক বিভিন্ন সমস্যা এবং এসকল সমস্যা থেকে উত্তোরণের পথ ও পদ্ধতি বিষয়ে ক্বোরআন-ছুন্নাহ্\u200cর আলোকে অত্যন্ত মূল্যবান আলোচনা পেশ করেছেন।পারিবারিক এবং বৈবাহিক জীবনে নারীরা বিভিন্ন সমস্যার সম্মুখীন হওয়া, সন্তানদের লালন-পালন করা, সুখী ও সমৃদ্ধ পরিবার গড়ে তোলা, ঘরের বাইরে কাজ-কর্ম করা ইত্যাদি অনেকগুলো বিষয় সম্পর্কে এখানে আলোচনা করা হয়েছে। এই পর্বে উছতায হাম্মাদ বিল্লাহ <span style=\"font-family: 'Arabic Symbols';\">(حفيظ الله)</span> পুরুষদের জন্য একের অধিক বিয়ে প্রসংঙ্গে যেসব বিষয় আলোচনা করেন, তন্মধ্যে অতি গুরুত্বপূর্ণ কয়েকটি বিষয়। নিম্নে উল্লেখ করা হলো:-<br />\n১) একাধিক বিয়ের বিষয়টি ক্বোরআন, ছুন্নাহ ও ছালাফে সালিহীনের (<span style=\"font-family: 'Arabic Symbols';\">(رَضِيَ ٱللَّٰهُ عَنْهُمْ)</span>)‘আমাল দ্বারা অকাট্যভাবে প্রমানিত।</p>\n<p style=\"padding-left: 30px;\">ক) ক্বোরআনে কারীমে ছূরা আন্\u200cনিছার ৩নং আয়াতে আল্লাহ্\u200c <span style=\"font-family: 'Arabic Symbols';\">(سُبْحَانَهُ وَتَعَالَىٰ)</span> একাধিক বিয়ের অনুমতি দিয়েছেন।<br />\nখ) রাছূলুল্লাহ <span style=\"font-family: 'Arabic Symbols';\">(ﷺ)</span> নিজেও একাধিক বিয়ে করেছেন।<br />\nগ) আমাদের ছালাফগণও এর উপর ‘আমাল করেছেন।</p>\n<p>২) বর্তমান সমাজের কিছু মানুষ ও আহলে কিতাবগণ এর বিরোধিতা করলেও তাদের কিতাবেই এর প্রমাণ রয়েছে। যেমন, দাঊদ (<span style=\"font-family: 'Arabic Symbols';\">(ﷷ ﷵ)</span>) এর ১০০ জন স্ত্রী এবং ছুলাইমান (<span style=\"font-family: 'Arabic Symbols';\">(ﷷ ﷵ)</span>) এর ৯০ জন স্ত্রী ছিল। <br />\n৩) ২য়, ৩য় বা ৪র্থ বিয়ে করার সময় পূর্বের স্ত্রী বা স্ত্রীদের আপত্তি গ্রহণযোগ্য হবে কি?</p>\n<p style=\"padding-left: 30px;\">ক) তাদের আপত্তি সাধারণত গ্রহণযোগ্য নয়। <br />\nখ) ক্বোরআনে কারীমের ছূরা আন্\u200cনিছা ও ছূরা আন্\u200cনূরের আয়াতে একাধিক বিয়ের অনুমতি দেওয়া হলেও তাতে (পূর্বের স্ত্রী বা স্ত্রীদের অনুমতি নিতে হবে) এরকম কোন শর্ত দেয়া হয়নি।<br />\nগ) এটি রাছূলুল্লাহ <span style=\"font-family: 'Arabic Symbols';\">(ﷺ)</span> এর একটি ছুন্নাহও বটে।</p>\n<p>৪) রাছূলুল্লাহ <span style=\"font-family: 'Arabic Symbols';\">(ﷺ)</span> যুবকদেরকে সামর্থ্য রাখলে বিয়ে করে নিতে বলেছেন।</p>\n<p style=\"padding-left: 30px;\">ক) একজন পুরুষ, একটি বিয়ের দ্বারা তার চাহিদা পূরণ না হলে সে অবশ্যই আরও বিয়ে করতে পারবে। তবে, ক্বোরআনে কারীমের ছূরা আন্\u200cনিছার ৩নং আয়াতে বলা হয়েছে- যদি কেউ একাধিক স্ত্রীর মাঝে সমতা বিধান করতে না পারে তাহলে সে যেন একজনকেই বিয়ে করে।<br />\nখ) উপরোক্ত ব্যাপারটির ব্যাখ্যা ছূরা আন্\u200cনিছার-ই অপর আরেকটি আয়াতে আল্লাহ <span style=\"font-family: 'Arabic Symbols';\">(سُبْحَانَهُ وَتَعَالَىٰ)</span> দিয়ে দিয়েছেন। উক্ত আয়াতে অন্য স্ত্রীদের তুলনায় ইচ্ছাপূর্বক একজনের প্রতি বেশি ঝুকে পড়তে নিষেধ করা হয়েছে।</p>\n<p>৫) একাধিক বিয়েতে স্বামী স্ত্রী উভয়ের জন্যই কল্যাণ রয়েছে। উক্ত আলোচনায় শাইখ উভয়ের কল্যাণকর দিক গুলো নিয়ে আলোচনা করেছেন।<br />\n৬) স্বামীর সকল স্ত্রীরা অবশ্যই একে অপরের বোন। তারা একে অপরের প্রতিদ্বন্ধি নয়।</p>\n<p style=\"padding-left: 60px;\">ক) এক্ষেত্রে কিছুটা স্বভাবজাত ঈর্ষা থাকতেই পারে। যা উম্মাহাতুল মুমিনীনের (<span style=\"font-family: 'Arabic Symbols';\">(unknown text)</span>) মাঝেও ছিল। এতদসত্ত্বেও তারা একে অপরকে নিজের বোনের মতই মনে করতেন।<br />\nখ) যেমন, যাইনাব বিনতে জাহ্\u200cশ (<span style=\"font-family: 'Arabic Symbols';\">(رَضِيَ ٱللَّٰهُ عَنْهَا)</span>) ছিলেন খুবই সুন্দরী নারী। তা নিয়ে তিনি কিছুটা গর্ববোধ করতেন। আর এ নিয়ে ‘আয়িশাহ (<span style=\"font-family: 'Arabic Symbols';\">(رَضِيَ ٱللَّٰهُ عَنْهَا)</span>) এর সাথে তাঁর একটু মনমালিন্য হত। কিন্তু সর্বোপরি যেহেতু তারা ছিলেন অত্যন্ত দ্বীনদার মহিয়ষী নারী, রাছূলুল্লাহ <span style=\"font-family: 'Arabic Symbols';\">(ﷺ)</span> স্ত্রী । তাই, দিনশেষে তারা একে অপরের প্রশংসাই করতেন করতেন।</p>\n<p>৭) পৃথিবীর শ্রেষ্ঠ সম্পদের মধ্যে অন্যতম একটি হলো একজন দ্বীনদার নারী। এখন চারজন স্ত্রীই যদি দ্বীনদার হয় তবে একজন পুরুষ চারটি শ্রেষ্ঠ সম্পদ লাভ করল।</p>\n<p style=\"padding-left: 30px;\">ক) তাই বিয়ের ক্ষেত্রে অবশ্যই দ্বীনদার নারীকে অগ্রাধিকার দিতে হবে। তবেই চারজন স্ত্রী থাকলেও কোনো সমস্যা হবেনা। <br />\nখ) নতুবা একটি সংসারকে ধ্বংস করার জন্য একজন দাজ্জাল স্ত্রীই যথেষ্ট।</p>\n<p>৮) হাদিছের ভাষ্য অনুযায়ী, ক্বিয়ামাতের পূর্বে নারীদের আধিক্য হবে। এমনকি ৫০ জন নারীর বিপরীতে মাত্র ১ জন পুরুষ থাকবে। যার কিছুটা ‘আলামত আমরা এখনই দেখতে পাচ্ছি।</p>\n<p>৯) ২য়, ৩য় বা ৪র্থ স্ত্রীকে বিবাহের পূর্বে একথা বলা যে, আমি আমার অন্যান্য স্ত্রীদের সমপরিমাণ সময় ও ভরণপোষণ তোমাকে দিতে পারবনা, এরকম বলা কি জায়েয?</p>\n<p style=\"padding-left: 30px;\">ক) স্ত্রী রাজি থাকলে এটি জায়েয। যেমন, ছাওদাহ (<span style=\"font-family: 'Arabic Symbols';\">(رَضِيَ ٱللَّٰهُ عَنْهَا)</span>) তার জন্য নির্ধারিত সময়টুকু ‘আয়িশাহ্\u200cকে (<span style=\"font-family: 'Arabic Symbols';\">(رَضِيَ ٱللَّٰهُ عَنْهَا)</span>) দিয়ে দিয়েছিলেন।</p>\n<p>১০) কোন কারন ছাড়াই একজন পুরুষ একের অধিক বিয়ে করতে পারবে। ছূরা আন্\u200cনিছার ৩নং আয়াত দ্বারা তাই প্রমানিত হয়।</p>\n<p style=\"padding-left: 30px;\">ক) তবে এক্ষেত্রে উদ্দেশ্য সৎ হতে হবে। আর আমাদের মূল উদ্দেশ্যই হল আল্লাহ্\u200cর ‘ইবাদাত করা।</p>\n<p>&nbsp;</p>\n<p>ক্লাস শেষে নিম্নোক্ত প্রশ্নগুলোর উত্তর প্রদান করা হয়:-<br />\n১) একজন বোন ওনার টিনএজ লাইফে একজন ভাইয়ের সাথে রিলেশনশিপ করেছিলেন, এমন কি ওনার নিজের প্রতি যুলুমও করেছেন, প্রশ্ন হচ্ছে- এখন ঐ বোন যাকে বিয়ে করবেন তাকে কি জানাতে হবে যে, তিনি নিজের প্রতি যুল্\u200cম করেছেন? এই বোন এখন ছালাফি ‘আক্বীদাহ ও মানহাজ অনুসরণ করে চলতে সচেষ্ট রয়েছেন। উনি কি বিয়ের জন্য একজন ছালাফি ভাইকে খুজবেন ? <br />\n২) বাবা মায়ের সম্পদ যদি সুদ- ঘুষ মিশ্রিত হয়, তাহলে সন্তানদের জন্য প্রাপ্তবয়স্ক হওয়ার পরে ঐসব সম্পদ থেকে খাওয়া এবং তাদের তাদের মৃত্যুর পরে ঐ সম্পদ ভোগ করা কি তাদের জন্য জায়েয? আল্লাহ আপনাকে উত্তম প্রতিদান দান করুন।</p>",
  "excerpt": "<p>উছতায আবূ ছা‘আদাহ হাম্মাদ বিল্লাহ حفظه الله ধারাবাহিক এই অডিও বক্তব্যে নারীদের সম-সাময়িক বিভিন্ন সমস্যা এবং এসকল সমস্যা থেকে উত্তোরণের পথ ও পদ্ধতি বিষয়ে ক্বোরআন-ছুন্নাহ্\u200cর আলোকে অত্যন্ত মূল্যবান আলোচনা পেশ করেছেন।পারিবারিক এবং বৈবাহিক জীবনে নারীরা বিভিন্ন সমস্যার সম্মুখীন হওয়া, সন্তানদের লালন-পালন করা, সুখী ও সমৃদ্ধ পরিবার গড়ে তোলা, ঘরের বাইরে কাজ-কর্ম করা ইত্যাদি অনেকগুলো বিষয় সম্পর্কে এখানে আলোচনা করা হয়েছে। এই পর্বে উছতায হাম্মাদ বিল্লাহ حفظه الله পুরুষদের জন্য একের অধিক বিয়ে প্রসংঙ্গে যেসব বিষয় আলোচনা করেন, তন্মধ্যে অতি গুরুত্বপূর্ণ কয়েকটি বিষয় <br />\nনিম্নে উল্লেখ করা হলো:-<br />\n১) একাধিক বিয়ের বিষয়টি ক্বোরআন, ছুন্নাহ ও ছালাফে সালিহীনের (رضوان الله عليهم أجمعين)‘আমাল দ্বারা অকাট্যভাবে প্রমানিত।</p>\n<p style=\"padding-left: 30px;\">ক) ক্বোরআনে কারীমে ছূরা আন্\u200cনিছার ৩নং আয়াতে আল্লাহ্\u200c سبحانه وتعالى একাধিক বিয়ের অনুমতি দিয়েছেন।</p>",
  "audio_files": [
    {
      "name": "\"مشكلات النساء\"~Difficulties of Women, class#36",
      "url": "http://eshodinshikhi.com/wp-content/uploads/2018/11/edited-muskalitun-nisaa-class-36.mp3"
    }
  ],
  "published_on": "Sat, 24 Nov 2018 17:43:34 +0000"
}