{
  "name": "conditions-of-achievingbenefits-from-the-quraan",
  "title": "আল ফাওয়াইদ: ক্বোরআন থেকে উপকৃত হওয়ার শর্তাবলী কি কি?",
  "categories": [
    { "name": "virtues-al-quraan", "url": "category-virtues-al-quraan.json" },
    { "name": "sciences-of-al-quraan", "url": "category-sciences-of-al-quraan.json" }
  ],
  "content": "<p>এই আলোচনাটি মূলত ইমাম ইবনুল ক্বায়্যিম আল জাওযিয়্যাহ <span style=\"font-family: 'Arabic Symbols';\">(رَحِمَهُ ٱللَّٰهُ)</span> এর প্রখ্যাত গ্রন্থ “আল ফাওয়ায়িদ থেকে করা হয়েছে। ‘আরাবী থেকে বাংলায় ভাষান্তরিত এই আলোচনাটি করেছেন শাইখ হাম্মাদ বিল্লাহ <span style=\"font-family: Arabic Symbols;\">(حفيظ الله)</span>। এতে ইমাম ইবনুল ক্বায়্যিম <span style=\"font-family: 'Arabic Symbols';\">(رَحِمَهُ ٱللَّٰهُ)</span> এর শিক্ষাদীক্ষা ও প্রজ্ঞা সম্পর্কে সংক্ষিপ্ত আলোচনার পর ক্বোরআনে কারীম থেকে উপকার বা কল্যাণ লাভের শর্তাবলী সম্পর্কে আলোচনা করা হয়েছে। ক্বোরআনে কারীম হলো আল্লাহ রাব্বুল ‘আলামীনের বাণী এবং তাঁর নাযিলকৃত সর্বশেষ গ্রন্থ। ক্বোরআন দ্বারা উপকৃত হতে হলে পরিপূর্ণ নিষ্ঠা, একাগ্রতা এবং মনোযোগ সহকারে এটি পাঠ করতে হবে। ক্বোরআনে কারীম হলো এমন একটি বিষ্ময়কর মহাগ্রন্থ যার পাঠকারীগণই কেবল উপকৃত বা কল্যাণপ্রাপ্ত হন না, বরং মনোযোগ সহকারে যারা এটি শ্রবণ করেন তারাও এর দ্বারা অসংখ্য কল্যাণ ও উপকার লাভ করে থাকেন।</p>",
  "excerpt": "<p>এই আলোচনাটি মূলত ইমাম ইবনুল ক্বায়্যিম আল জাওযিয়্যাহ رحمه الله এর প্রখ্যাত গ্রন্থ “আল ফাওয়ায়িদ থেকে করা হয়েছে। ‘আরাবী থেকে বাংলায় ভাষান্তরিত এই আলোচনাটি করেছেন শাইখ হাম্মাদ বিল্লাহ حفظه الله। এতে ইমাম ইবনুল ক্বায়্যিম رحمه الله এর শিক্ষাদীক্ষা ও প্রজ্ঞা সম্পর্কে সংক্ষিপ্ত আলোচনার পর ক্বোরআনে কারীম থেকে উপকার বা কল্যাণ লাভের শর্তাবলী সম্পর্কে আলোচনা করা হয়েছে। ক্বোরআনে কারীম হলো আল্লাহ রাব্বুল ‘আলামীনের বাণী এবং তাঁর নাযিলকৃত সর্বশেষ গ্রন্থ। ক্বোরআন দ্বারা উপকৃত হতে হলে পরিপূর্ণ নিষ্ঠা, একাগ্রতা এবং মনোযোগ সহকারে এটি পাঠ করতে হবে। ক্বোরআনে কারীম হলো এমন একটি বিষ্ময়কর মহাগ্রন্থ যার পাঠকারীগণই কেবল উপকৃত বা কল্যাণপ্রাপ্ত হন না, বরং মনোযোগ সহকারে যারা এটি শ্রবণ করেন তারাও এর দ্বারা অসংখ্য কল্যাণ ও উপকার লাভ করে থাকেন।</p>",
  "audio_files": [
    {
      "name": "Al Faawid_ What are the conditions of achieving benefits-Imam Ibnul Qayyim",
      "url": "http://eshodinshikhi.com/wp-content/uploads/2014/09/Al-Faawid_-What-are-the-conditions-of-achieving-benefits-Imam-Ibnul-Qayyim.mp3"
    }
  ],
  "published_on": "Fri, 26 Sep 2014 19:30:04 +0000"
}