{
  "name": "aqidatil-wasatiyyah-part8",
  "title": "শাইখুল ইছলাম ইবনু তাইমিয়াহ কর্তৃক রচিত “আল ‘আক্বীদাতুল ওয়াছিত্বিয়্যাহ” (৮ম পর্ব)",
  "categories": [
    { "name": "belief-in-allah", "url": "category-belief-in-allah.json" },
    { "name": "tawheed-al-asma-as-sifat", "url": "category-tawheed-al-asma-as-sifat.json" },
    { "name": "islamic-aqeedah-eemaan", "url": "category-islamic-aqeedah-eemaan.json" }
  ],
  "content": "<p>এটি শাইখ হাম্মাদ বিল্লাহ <span style=\"font-family: Arabic Symbols;\">(حفيظ الله)</span> প্রদত্ত অতি গুরুত্বপূর্ণ একটি ভাষণ। এতে তিনি ক্বোরআন ও ছুন্নাহ নির্দেশিত এবং ছালাফে সালিহীনের অনুসৃত প্রকৃত ইছলামী ‘আক্বীদাহ বিষয়ে বিশেষ করে আল্লাহ্\u200cর (<span style=\"font-family: Arabic Symbols;\">(سُبْحَانَهُ وَتَعَالَىٰ)</span>) সুমহান নাম ও গুণাবলী সম্পর্কে সুস্পষ্ট দালীল-প্রমাণ সহ সংক্ষিপ্ত সারগর্ভ বক্তব্য প্রদান করেছেন।</p>",
  "excerpt": "<p>এটি শাইখ হাম্মাদ বিল্লাহ حفظه الله<span style=\"color: #000000; font-family: Arabic Symbols;\"> </span>প্রদত্ত অতি গুরুত্বপূর্ণ একটি ভাষণ। এতে তিনি ক্বোরআন ও ছুন্নাহ নির্দেশিত এবং ছালাফে সালিহীনের অনুসৃত প্রকৃত ইছলামী ‘আক্বীদাহ বিষয়ে বিশেষ করে আল্লাহ্\u200cর (سبحانه وتعالى) সুমহান নাম ও গুণাবলী সম্পর্কে সুস্পষ্ট দালীল-প্রমাণ সহ সংক্ষিপ্ত সারগর্ভ বক্তব্য প্রদান করেছেন।</p>",
  "audio_files": [
    {
      "name": "Aqeedatul Wasitiah by ShaykhuIslam Ibn Taymiyyah, class#8",
      "url": "http://eshodinshikhi.com/wp-content/uploads/2014/09/Aqeedatul-Wasitiah-by-ShaykhuIslam-Ibn-Taymiyyah-part-8.mp3"
    }
  ],
  "published_on": "Fri, 26 Sep 2014 20:28:12 +0000"
}