{
  "name": "sufficiency-of-creed-part12",
  "title": "আল ইমাম মুহাম্মাদ ইবনু সালিহ্\u200c আল ‘উছাইমীন কর্তৃক ব্যাখ্যাকৃত আল ইমাম ইবনু ক্বোদামাহ আল মাক্বদিছী রচিত -‘আক্বীদাহ সংকলন- গ্রন্থ  (১২তম পর্ব)",
  "categories": [
    { "name": "belief-in-allah", "url": "category-belief-in-allah.json" },
    { "name": "tawheed-al-asma-as-sifat", "url": "category-tawheed-al-asma-as-sifat.json" },
    { "name": "islamic-aqeedah-eemaan", "url": "category-islamic-aqeedah-eemaan.json" }
  ],
  "content": "<p>এই অডিওটি হলো আশ্\u200cশাইখ মুহাম্মাদ ইবনু সালিহ্\u200c আল ‘উছাইমীন <span style=\"font-family: Arabic Symbols;\">(رَحِمَهُ ٱللَّٰهُ)</span> কর্তৃক ব্যাখ্যাকৃত ইমাম ইবনু ক্বোদামাহ আল মাক্বদিছী <span style=\"font-family: Arabic Symbols;\">(رَحِمَهُ ٱللَّٰهُ)</span> রচিত সুপ্রসিদ্ধ গ্রন্থ “লুম‘আতুলই‘তিক্বাদ” এর ধারাবাহিক অডিও ভাষান্তর। বাংলা ভাষায় অডিওরূপে এটি ভাষান্তর করেছেন উযতায হাম্মাদ বিল্লাহ <span style=\"font-family: Arabic Symbols;\">(حفيظ الله)</span>। এতে ছালাফে সালিহীনের (<span style=\"font-family: Arabic Symbols;\">(unknown text)</span>) ‘আক্বীদাহ-বিশ্বাসের বিবরণ তুলে ধরা হয়েছে। আহলুছ্\u200c ছুন্নাহ ওয়াল জামা‘আতের ‘উলামায়ে কিরামের চিরাচরিত স্বভাব–বৈশিষ্ট্যও হলো যে, তারা তাদের লিখনীর মাধ্যমে সর্বাগ্রে বিশুদ্ধ ইছলামী ‘আক্বীদাহ্\u200cর সংরক্ষণ এবং তা প্রচার ও প্রসার করে থাকেন। ভাষান্তরিত বক্তব্যে উছতায হাম্মাদ বিল্লাহ <span style=\"font-family: Arabic Symbols;\">(حفيظ الله)</span> নিম্নোক্ত বিষয়ে আলোচনা করেছেন:-<br />১) ক্বোরআনে কারীমে উল্লেখিত আল্লাহ্\u200cর (<span style=\"font-family: Arabic Symbols;\">(سُبْحَانَهُ وَتَعَالَىٰ)</span>) সিফাত বা গুণ সম্পর্কে ধারাবাহিক আলোচনা।<br />২) ক্বোরআনে কারীমে উল্লেখিত আল্লাহ্\u200cর ৩য় সিফাত বা গুণ “নাফছ” সম্পর্কে আলোচনা।<br />৩) “আল্লাহ্\u200cর (<span style=\"font-family: Arabic Symbols;\">(عَزَّ وَجَلَّ)</span>) নাফ্\u200cছ্\u200c রয়েছে” এর প্রমাণ হলো ছূরা আল মা-য়িদাহ্\u200cর ১১৬নং আয়াত এবং ছূরা আল আন‘আমের ৫৪নং আয়াত।<br />৪) “আল্লাহ্\u200cর (<span style=\"font-family: Arabic Symbols;\">(ﷻ)</span>) নাফ্\u200cছ্\u200c রয়েছে” হাদীছ থেকে এর প্রমাণ হলো- রাছূলুল্লাহ <span style=\"font-family: Arabic Symbols;\">(ﷺ)</span> বলেছেন:- অর্থ- আল্লাহ পুতঃপবিত্র, তাঁর প্রশংসা জ্ঞাপন করছি তাঁর সৃষ্টির সমপরিমাণ, তাঁর নাফছের সন্তুষ্টি অনুসারে, তাঁর ‘আরশের ওজন পরিমাণ এবং তাঁর মহান বাক্যাবলির কালি সমপরিমাণ। ((সাহীহ্\u200c মুছলিম))<br />৫) ছালাফে সালিহীন (<span style=\"font-family: Arabic Symbols;\">(unknown text)</span>) সকলেই এ বিষয়ে একমত যে, এই গুণটি যেভাবে আল্লাহ্\u200cর (<span style=\"font-family: Arabic Symbols;\">(unknown text)</span>) জন্য হওয়া বাঞ্চনীয় ঠিক সেভাবেই তিনি এ গুণে গুণান্বিত। প্রত্যেক মুছলমানের জন্য ওয়াজিব আল্লাহ্\u200cর (<span style=\"font-family: Arabic Symbols;\">(سُبْحَانَهُ وَتَعَالَىٰ)</span>) এ মহান গুণটিকে বাত্বিল সাব্যস্ত না করা, তার শব্দ বা অর্থে কোনরূপ পরিবর্তন না করা, এর কোন আকার বা উদাহরণ সাব্যস্ত না করা, বরং ক্বোরআন ও ছুন্নাহ্\u200cতে এ গুণটি যেভাবে বর্ণিত রয়েছে ঠিক সেভাবেই তার বাহ্যিক অর্থসহ পরিপূর্ণরূপে বিশ্বাস ও স্বীকার করা।<br />৬) ক্বোরআনে কারীমে উল্লেখিত আল্লাহ্\u200cর ৪র্থ সিফাত বা গুণ “আগমন” সম্পর্কে আলোচনা।<br />৭) “আল্লাহ আগমন করেন” এর প্রমাণ হলো- ছূরা আল ফাজ্\u200cরের ২২নং এবং ছূরা আল বাক্বারাহ্\u200cর ২১০নং আয়াত।<br />৮) “আল্লাহ আগমন করেন” হাদীছ থেকে এর প্রমাণ হলো- রাছূলুল্লাহ <span style=\"font-family: Arabic Symbols;\">(ﷺ)</span> বলেছেন:- অর্থ- শেষ পর্যন্ত যখন একমাত্র আল্লাহ্\u200cর (<span style=\"font-family: Arabic Symbols;\">(سُبْحَانَهُ وَتَعَالَىٰ)</span>) ‘ইবাদাতকারী ব্যতীত আর কেউ বাকি থাকবে না তখন সমগ্র জগতের মালিক আল্লাহ <span style=\"font-family: Arabic Symbols;\">(ﷻ)</span> তাদের প্রতি আগমন করবেন----------। ((সাহীহ্\u200c বুখারী))<br />৯) ছালাফে সালিহীন (<span style=\"font-family: Arabic Symbols;\">(unknown text)</span>) সকলেই এ বিষয়ে একমত যে, এই গুণটি যেভাবে আল্লাহ্\u200cর (<span style=\"font-family: Arabic Symbols;\">(عَزَّ وَجَلَّ)</span>) জন্য হওয়া বাঞ্চনীয় ঠিক সেভাবেই তিনি এ গুণে গুণান্বিত। প্রত্যেক মুছলমানের জন্য ওয়াজিব আল্লাহ্\u200cর (<span style=\"font-family: Arabic Symbols;\">(unknown text)</span>) এ মহান গুণটিকে বাত্বিল সাব্যস্ত না করা, তার শব্দ বা অর্থে কোনরূপ পরিবর্তন না করা, এর কোন আকার বা উদাহরণ সাব্যস্ত না করা, বরং ক্বোরআন ও ছুন্নাহ্\u200cতে এ গুণটি যেভাবে বর্ণিত রয়েছে ঠিক সেভাবেই তার বাহ্যিক অর্থসহ পরিপূর্ণরূপে বিশ্বাস ও স্বীকার করা।<br />১০) আল্লাহ্\u200cর (<span style=\"font-family: Arabic Symbols;\">(ﷻ)</span>) আগমন বলতে প্রকৃত অর্থে এবং যেভাবে আগমন করা মহান আল্লাহর জন্য যথোপযোগী ঠিক সেভাবেই আল্লাহ্\u200cর আগমনকে বুঝায়। উযতায হাম্মাদ <span style=\"font-family: Arabic Symbols;\">(حفيظ الله)</span> বিষয়টির চমৎকার ব্যাখ্যা দিয়েছেন।</p><p>&nbsp;</p><p>ক্লাস শেষে নিম্নোক্ত প্রশ্নগুলোর উত্তর প্রদান করা হয়:-<br />ক) একজন সাধারণ ব্যক্তির জন্য ‘আরাবী ভাষা শিখার হুক্\u200cম কি?<br />খ) সাধারণভাবে আমরা “হাত” শব্দটি শুনলে আমাদের মস্তিষ্কে মানুষের হাতের চিত্র আসে, যা আল্লাহর জন্য প্রযোজ্য নয়। আল্লাহর সিফাত নিয়ে শাইত্বান আমাদের মস্তিষ্কে এরকম চিত্র ও কুমন্ত্রণা দিতে চাইলে আমরা কিভাবে শাইত্বানের মুক্বাবিলা করবো?<br />গ) কেউ যদি আল্লাহ্\u200cর (<span style=\"font-family: Arabic Symbols;\">(سُبْحَانَهُ وَتَعَالَىٰ)</span>) আছমা ওয়াস্\u200c সিফাতের জ্ঞান  উদাসীনতাবশতঃ অর্জন করতে না চায় এবং তাওহীদুল আছমা ওয়াস্\u200c সিফাতের জ্ঞান অর্জন করার বিষয়টিকে মোটেই গুরুত্ব না দেয়, তাহলে এরূপ ব্যক্তি সম্পর্কে আমরা কিরূপ ধারণা পোষণ করব?<br />ঘ) কোন ব্যক্তি আল্লাহ্\u200cর (<span style=\"font-family: Arabic Symbols;\">(عَزَّ وَجَلَّ)</span>) সিফাত জানার পর যদি উক্ত সিফাতকে কোন কিছুর ন্যায় কল্পনা করা শুরু করে, তাহলে এটা কি কুফরী হবে?<br />ঙ) আল্লাহ্\u200cর (<span style=\"font-family: Arabic Symbols;\">(ﷻ)</span>) হাত, মুখ, পা, নাফ্\u200cছ- এসব সিফাত সম্পর্কে কি প্রত্যেক মুছলমানের জানা ফার্\u200cয?</p>",
  "excerpt": "<p>এই অডিওটি হলো আশ্\u200cশাইখ মুহাম্মাদ ইবনু সালিহ্\u200c আল ‘উছাইমীন رحمه الله কর্তৃক ব্যাখ্যাকৃত ইমাম ইবনু ক্বোদামাহ আল মাক্বদিছী رحمه الله এর সুপ্রসিদ্ধ গ্রন্থ “লুম‘আতুল ই‘তিক্বাদ” এর ধারাবাহিক অডিও ভাষান্তর। বক্তব্যে আলোচিত মুল বিষয়গুলো:<br />১) ক্বোরআনে কারীমে বর্ণিত আল্লাহ্\u200cর (سبحانه وتعالى) সিফাত (গুণাবলী) সম্পর্কে ধারাবাহিক আলোচনা।<br />২) তৃতীয় যে সিফাতের কথা ইমাম ইবনু ক্বোদামাহ আল মাক্বদিছী এবং শাইখ সালিহ্\u200c আল ‘উছাইমীন উল্লেখ করেছেন, তা হলো “আল্লাহ্\u200cর নাফ্\u200cছ”।<br />৩) আল্লাহ্\u200cর একটি সিফাত হলো “নাফ্\u200cছ”। ক্বোরআন থেকে এর প্রমাণ হলো ছূরা আল মা-ইদাহ্\u200cর ১১৬ নং আয়াত এবং ছূরা আল আন‘আমের ৫৪ নং আয়াত।<br />৪) নাফ্\u200cছ হলো আল্লাহ্\u200cর (عز وجل) সত্ত্বাগত একটি গুণ বা সিফাত। হাদীছে এর প্রমাণ হলো- রাছূলুল্লাহ صلى الله عليه وسلم বলেছেন:- মহিমা-পূত:পবিত্রতা এবং প্রশংসা আল্লাহ্\u200cর জন্যে তাঁর সৃষ্টির সমসংখ্যক এবং তাঁর নাফছের সন্তুষ্টি অনুযায়ী, তাঁর ‘আরশের ওযন পরিমাণ এবং তাঁর বাক্যাবলীর কালি সমপরিমাণ। (সাহীহ মুছলিম-২৭২৬)</p>",
  "audio_files": [
    {
      "name": "Lum’atul I’tiqad of Imam Ibn Qudamah, class # 12",
      "url": "http://eshodinshikhi.com/wp-content/uploads/2015/02/edited-lumat-al-itiqad-class-12.mp3"
    }
  ],
  "published_on": "Thu, 05 Mar 2015 02:30:57 +0000"
}