{
  "name": "ubudiyyah",
  "title": "আল্লাহ্\u200cর দাসত্ব",
  "categories": [
    {
      "name": "testifications-vs-tawheed-and-risalat",
      "url": "category-testifications-vs-tawheed-and-risalat.json"
    },
    { "name": "al-islam", "url": "category-al-islam.json" }
  ],
  "content": "<p>এটি শাইখ হাম্মাদ বিল্লাহ <span style=\"font-family: Arabic Symbols;\">(حفيظ الله)</span> প্রদত্ত একটি বক্তৃতা। এটি মূলত ‘উবূদিয়্যাহ বা আল্লাহ্\u200cর দাসত্বের অর্থ ও তাৎপর্য সম্পর্কে লিখা ইমাম ইবনু তাইমিয়াহ <span style=\"font-family: 'Arabic Symbols';\">(رَحِمَهُ ٱللَّٰهُ)</span> এবং আশ্\u200cশাইখ সালিহ্\u200c আল ফাওযান <span style=\"font-family: Arabic Symbols;\">(حفيظ الله)</span> এর লিখা পুস্তিকার বাংলা ভাষান্তর। এতে ইছলামে ‘ইবাদাতের অর্থ, তাৎপর্য এবং আল্লাহ্\u200cর (<span style=\"font-family: 'Arabic Symbols';\">(سُبْحَانَهُ وَتَعَالَىٰ)</span>) প্রকৃত বান্দাহ বা দাস হওয়ার মধ্যেই যে নিহিত রয়েছে ইহ-পরকালের মর্যাদা ও সম্মান, এসব বিষয় আলোচনা করা হয়েছে। “আল্লাহ্\u200cর (<span style=\"font-family: 'Arabic Symbols';\">(عَزَّ وَجَلَّ)</span>) বান্দাহ” এটি হলো অত্যন্ত মহান ও সম্মানজনক একটি উপাধি বা খেতাব। তাই তো আল্লাহ <span style=\"font-family: 'Arabic Symbols';\">(ﷻ)</span> তাঁর শ্রেষ্ঠ সৃষ্টি মুহাম্মাদুর্\u200c রাছূলুল্লাহ <span style=\"font-family: 'Arabic Symbols';\">(ﷺ)</span>-কে এই উপাধিতে ভূষিত করেছেন। কেউ যখন আল্লাহ রাব্বুল ‘আলামীনের পরিবর্তে কোন সৃষ্টির গোলামে পরিণত হতে চায় কিংবা আল্লাহ্\u200cর (<span style=\"font-family: 'Arabic Symbols';\">(unknown text)</span>) প্রতি ভালোবাসার পরিবর্তে কোন বস্তুর ভালোবাসায় নিজের অন্তরকে জড়িয়ে ফেলে, তখন সেই ব্যক্তি নানারকম ভয়ঙ্কর ফাঁদে আটকা পড়ে যায় কিংবা বিভিন্ন ফিতনায় নিপতিত হয়ে যায়। এসব ভয়ঙ্কর ফাঁদ ও ফিতনাহ্\u200cর কথা ইবনু তাইমিয়াহ <span style=\"font-family: 'Arabic Symbols';\">(رَحِمَهُ ٱللَّٰهُ)</span> তাঁর এই লিখনীতে তুলে ধরেছেন। প্রত্যেক মুছলমানের উপর ওয়াজিব, অন্তরে কেবল আল্লাহ্\u200cর (<span style=\"font-family: 'Arabic Symbols';\">(عَزَّ وَجَلَّ)</span>) প্রতি খাঁটি ভালোবাসা পোষণ করে শুধুমাত্র তাঁরই ‘ইবাদাত করা এবং তাঁর খাঁটি বান্দাহ হওয়ার জন্য প্রাণান্ত চেষ্টা করা।</p>",
  "excerpt": "<p>এটি শাইখ হাম্মাদ বিল্লাহ حفظه الله প্রদত্ত একটি বক্তৃতা। এটি মূলত ‘উবূদিয়্যাহ বা আল্লাহ্\u200cর দাসত্বের অর্থ ও তাৎপর্য সম্পর্কে লিখা ইমাম ইবনু তাইমিয়াহ رحمه الله এবং আশ্\u200cশাইখ সালিহ্\u200c আল ফাওযান حفظه الله এর লিখা পুস্তিকার বাংলা ভাষান্তর। এতে ইছলামে ‘ইবাদাতের অর্থ, তাৎপর্য এবং আল্লাহ্\u200cর (سبحانه وتعالى) প্রকৃত বান্দাহ বা দাস হওয়ার মধ্যেই যে নিহিত রয়েছে ইহ-পরকালের মর্যাদা ও সম্মান, এসব বিষয় আলোচনা করা হয়েছে। “আল্লাহ্\u200cর (عز وجل) বান্দাহ” এটি হলো অত্যন্ত মহান ও সম্মানজনক একটি উপাধি বা খেতাব। তাই তো আল্লাহ جل وعلا তাঁর শ্রেষ্ঠ সৃষ্টি মুহাম্মাদুর্\u200c রাছূলুল্লাহ صلى الله عليه وسلم-কে এই উপাধিতে ভূষিত করেছেন।</p>",
  "audio_files": [
    {
      "name": "Ubudiyyah by Shaykh Ibn Taymiyyah Explained by Shaykh Fawzan",
      "url": "http://eshodinshikhi.com/wp-content/uploads/2014/09/Ubudiyyah-by-Shaykh-Ibn-Taymiyyah-Explained-by-Shaykh-Fawzan.mp3"
    }
  ],
  "published_on": "Fri, 26 Sep 2014 03:24:33 +0000"
}