{
  "name": "sufficiency-of-creed-part2",
  "title": "আল ইমাম মুহাম্মাদ ইবনু সালিহ্\u200c আল ‘উছাইমীন কর্তৃক ব্যাখ্যাকৃত আল ইমাম ইবনু ক্বোদামাহ আল মাক্বদিছী রচিত -‘আক্বীদাহ সংকলন- গ্রন্থ (২য় পর্ব)",
  "categories": [
    { "name": "belief-in-allah", "url": "category-belief-in-allah.json" },
    { "name": "tawheed-al-asma-as-sifat", "url": "category-tawheed-al-asma-as-sifat.json" },
    { "name": "islamic-aqeedah-eemaan", "url": "category-islamic-aqeedah-eemaan.json" }
  ],
  "content": "<p>এই অডিওটি হলো আশ্\u200cশাইখ মুহাম্মাদ ইবনু সালিহ্\u200c আল ‘উছাইমীন <span style=\"font-family: 'Arabic Symbols';\">(رَحِمَهُ ٱللَّٰهُ) </span>কর্তৃক ব্যাখ্যাকৃত ইমাম ইবনু ক্বোদামাহ আল মাক্বদিছী <span style=\"font-family: 'Arabic Symbols';\">(رَحِمَهُ ٱللَّٰهُ)</span> এর সুপ্রসিদ্ধ গ্রন্থ “লুম‘আতুল ই‘তিক্বাদ” এর ধারাবাহিক অডিও ভাষান্তর। বাংলা ভাষায় অডিও রূপে এটি ভাষান্তর করেছেন শাইখ হাম্মাদ বিল্লাহ <span style=\"font-family: Arabic Symbols;\">(حفيظ الله)</span>। এতে ছালাফে সালিহীনের ‘আক্বীদাহ-বিশ্বাসের বিবরণ তুলে ধরা হয়েছে। আর যুগে যুগে আহলুছ্\u200c ছুন্নাহ ওয়াল জামা‘আতের ‘উলামায়ে কিরামের স্বভাব বা বৈশিষ্ট্যও হলো যে, তারা তাদের লিখনীর মাধ্যমে সর্বাগ্রে বিশুদ্ধ ইছলামী ‘আক্বীদাহ্\u200cর সংরক্ষণ এবং তা প্রচার ও প্রসার করে থাকেন। বক্তব্যে উল্লেখিত মূল বিষয়গুলো:-</p><p>১) আল্লাহ্\u200cর সুমহান নাম ও গুণাবলী সম্পর্কে শাইখ সালিহ আল ‘উছাইমীন (<span style=\"font-family: Arabic Symbols;\">(رَحِمَهُ ٱللَّٰهُ)</span>) এর অতি গুরুত্বপূর্ণ কিছু কথা এবং এতদসম্পর্কিত চারটি মূলনীতির মধ্যে তৃতীয় মুলনীতির অধীনে উল্লেখিত চতুর্থ বিষয়। আর তা হলো আল্লাহ্\u200cর (<span style=\"font-family: Arabic Symbols;\">(سُبْحَانَهُ وَتَعَالَىٰ)</span>) প্রতিটি সিফাত সম্পর্কে ৩টি প্রশ্নের সুস্পষ্ট উত্তর চাই। প্রশ্নগুলো হলো:-</p><p style=\"padding-left: 60px;\">(ক) আল্লাহ্\u200cর (<span style=\"font-family: Arabic Symbols;\">(سُبْحَانَهُ وَتَعَالَىٰ)</span>) সকল গুণাবলী কি বাস্তব ও সত্য না-কি ওগুলো সব মিথ্যা ও বানোয়াট?<br />(খ) আল্লাহ্\u200cর (<span style=\"font-family: Arabic Symbols;\">(سُبْحَانَهُ وَتَعَالَىٰ)</span>) গুণের কোন আকার বা আকৃতি আছে কি? আমরা কি তাঁর গুণের কোন আকার বা আকৃতি দিতে পারব?<br />(গ) আল্লাহ্\u200cর (<span style=\"font-family: Arabic Symbols;\">(سُبْحَانَهُ وَتَعَالَىٰ)</span>) কোন গুণকে সৃষ্টির গুণের সাথে তুলনা করা যাবে কি না এবং কেন?</p><p>২) এ পর্বে আরো যেসব বিষয়ে আলোচনা করা হয়েছে সেগুলো হলো:-</p><p style=\"padding-left: 60px;\">(ক) ‘আক্বীদাহ কী,‘আক্বীদাহ বলতে কি বুঝায়?<br />(খ) তামছীল ও তাকয়ীফ এর মধ্যে পার্থক্য কী?<br /> </p><p>ভাষান্তরকালীন নিম্নোক্ত প্রশ্নগুলোর উত্তর প্রদান করা হয়েছে:-</p><p>১। ছূরা আল মা-য়িদাহ এর ৬৪ নং আয়াতে আল্লাহ <span style=\"font-family: 'Arabic Symbols';\">(سُبْحَانَهُ وَتَعَالَىٰ)</span> বলেছেন:- অর্থাৎ- “না, বরং তার হাত দু‘টি প্রশস্ত, তিনি যেভাবে ইচ্ছা সেভাবে ব্যয় করেন”।</p><p>এই আয়াতের ব্যাখ্যায় ইবনু কাছীর <span style=\"font-family: 'Arabic Symbols';\">(رَحِمَهُ ٱللَّٰهُ)</span> বলেছেন যে, আল্লাহ্\u200cর অনুগ্রহ প্রশস্ত-বিস্তৃত।</p><p>প্রশ্ন হলো- “আল্লাহ্\u200cর হাত”-কে “আল্লাহ্\u200cর অনুগ্রহ” বলে ব্যাখ্যা করা, এটা কি তাহ্\u200cরীফ বা আল্লাহ্\u200cর সিফাত তথা গুণের বাহ্যিক অর্থকে বাদ দিয়ে ভিন্ন অর্থ গ্রহণ করার নামান্তর?</p><p>২। প্রতিরাতের শেষ তৃতীয়াংশে দুন্\u200cইয়ার আকাশে আল্লাহ্\u200cর অবতরণ, এটা কি তাঁর সিফাতে ছুর্বূতিয়্যাহ্\u200cর অন্তর্ভুক্ত?</p>",
  "excerpt": "<p>এই অডিওটি হলো আশ্\u200cশাইখ মুহাম্মাদ ইবনু সালিহ্\u200c আল ‘উছাইমীন رحمه الله কর্তৃক ব্যাখ্যাকৃত ইমাম ইবনু ক্বোদামাহ আল মাক্বদিছী رحمه الله এর সুপ্রসিদ্ধ গ্রন্থ “লুম‘আতুল ই‘তিক্বাদ” এর ধারাবাহিক অডিও ভাষান্তর। বক্তব্যে উল্লেখিত মূল বিষয়গুলো:-<br />১) আল্লাহ্\u200cর সুমহান নাম ও গুণাবলী সম্পর্কে শাইখ সালিহ আল ‘উছাইমীন (رحمه الله) এর অতি গুরুত্বপূর্ণ কিছু কথা এবং এতদসম্পর্কিত চারটি মূলনীতির মধ্যে তৃতীয় মুলনীতির অধীনে উল্লেখিত চতুর্থ বিষয়। আর তা হলো আল্লাহ্\u200cর (سبحانه وتعالى) প্রতিটি সিফাত সম্পর্কে ৩টি প্রশ্নের সুস্পষ্ট উত্তর চাই। প্রশ্নগুলো হলো:-</p><p style=\"padding-left: 60px;\">(ক) আল্লাহ্\u200cর (سبحانه وتعالى) সকল গুণাবলী কি বাস্তব ও সত্য না-কি ওগুলো সব মিথ্যা ও বানোয়াট?</p>",
  "audio_files": [
    {
      "name": "Lum’atul I’tiqad of Imam Ibn Qudamah, class # 2",
      "url": "http://eshodinshikhi.com/wp-content/uploads/2014/08/P2_Sufficiency-of-creed-of-Al-Imam-Ibn-Qudamah-Al-Maqdisi-edit.mp3"
    }
  ],
  "published_on": "Mon, 29 Sep 2014 15:48:25 +0000"
}