{
  "name": "how-to-attain-taqwa-part2",
  "title": "কিভাবে তাক্বওয়া অর্জন করা যায় (২য় পর্ব)",
  "categories": [
    { "name": "at-taqwa", "url": "category-at-taqwa.json" },
    { "name": "al-ihsan", "url": "category-al-ihsan.json" }
  ],
  "content": "<p>এটি তাক্বওয়া অর্জন করা বিষয়ে শাইখ হাম্মাদ বিল্লাহ <span style=\"font-family: Arabic Symbols;\">(حفيظ الله)</span> প্রদত্ত অতি গুরুত্বপূর্ণ্ ধারাবাহিক ভাষণেরই একটি অংশ। এতে তিনি শ্রোতাদেরকে তাক্বওয়া অবলম্বনের আহবান জানিয়েছেন। বক্তব্যে উল্লেখিত মূল বিষয়গুলো হলো:-<br />১) আল্লাহ্\u200cর রুবূবিয়্যাহ এবং আল্লাহ্\u200cর ‘উবূদিয়্যাহ্\u200cর মধ্যে যোগসম্পর্ক।<br />২) আল্লাহ্\u200cর রুবূবিয়্যাহ, উলূহিয়্যাহ ও তাঁর আছমা ওয়াস সিফাতের মধ্যে যোগসম্পর্ক।<br />৩) যে সকল লোক রুবূবিয়্যাহ ও উলূহিয়্যাহ্\u200c\u200cতে আল্লাহ্\u200cর এককত্ব স্বীকার করা সত্বেও শাহজালাল, শাহপরান প্রমুখ অলী বা পীর-দরবেশের ক্ববরে তাদের নিকট প্রার্থনা করতে যায়, তারা জঘন্য শির্\u200cকে লিপ্ত। শাইখ তাদের সম্পর্কে অত্যন্ত গুরুত্বপূর্ণ আলোচনা করেছেন।<br />৪) তাওহীদের (তাওহীদুর রুবূবিয়্যাহ, উলূহিয়্যাহ এবং আছমা ও সিফাত-এর) বাস্তবায়ন তিনভাবে করতে হবে। তাহলেই প্রকৃত অর্থে মু’মিন-মুছলিম হওয়া যাবে।<br />৫) শুধুমাত্র মুখে তাওহীদের স্বীকারোক্তি মু’মিন হওয়ার জন্য আদৌ যথেষ্ট নয় বরং একই সাথে অন্তর দিয়ে তা উপলব্ধি করতে হবে এবং কথায় ও কার্যে এই বিশ্বাসের প্রতিফলন ও বাস্তবায়ন করতে হবে।</p>",
  "excerpt": "<p>এটি তাক্বওয়া অর্জন করা বিষয়ে শাইখ হাম্মাদ বিল্লাহ حفظه الله প্রদত্ত অতি গুরুত্বপূর্ণ্ ধারাবাহিক ভাষণেরই একটি অংশ। এতে তিনি শ্রোতাদেরকে তাক্বওয়া অবলম্বনের আহবান জানিয়েছেন। বক্তব্যে উল্লেখিত মূল বিষয়গুলো হলো:-<br />১) আল্লাহ্\u200cর রুবূবিয়্যাহ এবং আল্লাহ্\u200cর ‘উবূদিয়্যাহ্\u200cর মধ্যে যোগসম্পর্ক।<br />২) আল্লাহ্\u200cর রুবূবিয়্যাহ, উলূহিয়্যাহ ও তাঁর আছমা ওয়াস সিফাতের মধ্যে যোগসম্পর্ক।<br />৩) যে সকল লোক রুবূবিয়্যাহ ও উলূহিয়্যাহ্\u200c\u200cতে আল্লাহ্\u200cর এককত্ব স্বীকার করা সত্বেও শাহজালাল, শাহপরান প্রমুখ অলী বা পীর-দরবেশের ক্ববরে তাদের নিকট প্রার্থনা করতে যায়, তারা জঘন্য শির্\u200cকে লিপ্ত। শাইখ তাদের সম্পর্কে অত্যন্ত গুরুত্বপূর্ণ আলোচনা করেছেন।<br />৪) তাওহীদের (তাওহীদুর রুবূবিয়্যাহ, উলূহিয়্যাহ এবং আছমা ও সিফাত-এর) বাস্তবায়ন তিনভাবে করতে হবে। তাহলেই প্রকৃত অর্থে মু’মিন-মুছলিম হওয়া যাবে।</p>",
  "audio_files": [
    {
      "name": "How to develop-attain taqwa (part II)",
      "url": "http://eshodinshikhi.com/wp-content/uploads/2014/09/How-to-develop-attain-taqwa-part-II.mp3"
    }
  ],
  "published_on": "Fri, 26 Sep 2014 02:57:32 +0000"
}