{
  "name": "difficulties-of-women-part2",
  "title": "নারীদের সম-সাময়িক বিভিন্ন সমস্যা এবং তা থেকে উত্তোরণের ক্বোরআন-ছুন্নাহ ভিত্তিক পথ ও পদ্ধতি (২য় পর্ব)",
  "categories": [
    { "name": "status-women-in-islam", "url": "category-status-women-in-islam.json" },
    { "name": "women-issues", "url": "category-women-issues.json" }
  ],
  "content": "<p>উছতায আবূ ছা‘আদাহ হাম্মাদ বিল্লাহ <span style=\"font-family: 'Arabic Symbols';\">(حفيظ الله)</span> এই অডিও বক্তব্যে নারীদের সম-সাময়িক বিভিন্ন সমস্যা এবং এসকল সমস্যা থেকে উত্তোরণের পথ ও পদ্ধতি বিষয়ে ক্বোরআন-ছুন্নাহ্\u200cর আলোকে অত্যন্ত মূল্যবান আলোচনা পেশ করেছেন। পারিবারিক এবং বৈবাহিক জীবনে নারীরা বিভিন্ন সমস্যার সম্মুখীন হওয়া, সন্তানদের লালন-পালন করা, সুখী ও সমৃদ্ধ পরিবার গড়ে তোলা, ঘরের বাইরে কাজ-কর্ম করা ইত্যাদি অনেকগুলো বিষয় সম্পর্কে এখানে আলোচনা করা হয়েছে। তন্মধ্যে অতি গুরুত্বপূর্ণ কয়েকটি বিষয় এখানে তুলে ধরা হলো:-<br />১) পূর্ববর্তী ক্লাসের সংক্ষিপ্ত পূণঃ আলোচনা।<br />২) “অন্তর ও লজ্জাশীলতা প্রসঙ্গ”, উছতায হাম্মাদ বিল্লাহ <span style=\"font-family: 'Arabic Symbols';\">(حفيظ الله)</span> বিষয়টি ছালাফে সালিহীনের (<span style=\"font-family: 'Arabic Symbols';\">(unknown text)</span>) দেয়া বর্ণনা ও সংজ্ঞার আলোকে ব্যাখ্যা করেছেন।<br />৩) উছতায ঈমানের সাথে লজ্জাশীলতার সম্পর্ক বিষয়ে আলোচনা করেছেন। এছাড়া হায়া-শরম না থাকা কিংবা কম থাকার কারণে ঈমান ও ‘আমাল বিনষ্ট কিংবা হ্রাস হওয়ার বিষয়টিও শাইখের আলোচনায় উঠে এসেছে।</p>",
  "excerpt": "<p>উছতায আবূ ছা‘আদাহ হাম্মাদ বিল্লাহ حفظه الله এই অডিও বক্তব্যে নারীদের সম-সাময়িক বিভিন্ন সমস্যা এবং এসকল সমস্যা থেকে উত্তোরণের পথ ও পদ্ধতি বিষয়ে ক্বোরআন-ছুন্নাহ্\u200cর আলোকে অত্যন্ত মূল্যবান আলোচনা পেশ করেছেন। পারিবারিক এবং বৈবাহিক জীবনে নারীরা বিভিন্ন সমস্যার সম্মুখীন হওয়া, সন্তানদের লালন-পালন করা, সুখী ও সমৃদ্ধ পরিবার গড়ে তোলা, ঘরের বাইরে কাজ-কর্ম করা ইত্যাদি অনেকগুলো বিষয় সম্পর্কে এখানে আলোচনা করা হয়েছে। তন্মধ্যে অতি গুরুত্বপূর্ণ কয়েকটি বিষয় এখানে তুলে ধরা হলো:-<br />১) পূর্ববর্তী ক্লাসের সংক্ষিপ্ত পূণঃ আলোচনা।<br />২) “অন্তর ও লজ্জাশীলতা প্রসঙ্গ”, উছতায হাম্মাদ বিল্লাহ حفظه الله বিষয়টি ছালাফে সালিহীনের (رضي الله عنهم) দেয়া বর্ণনা ও সংজ্ঞার আলোকে ব্যাখ্যা করেছেন।<br />৩) উছতায ঈমানের সাথে লজ্জাশীলতার সম্পর্ক বিষয়ে আলোচনা করেছেন। এছাড়া হায়া-শরম না থাকা কিংবা কম থাকার কারণে ঈমান ও ‘আমাল বিনষ্ট কিংবা হ্রাস হওয়ার বিষয়টিও শাইখের আলোচনায় উঠে এসেছে।</p>",
  "audio_files": [
    {
      "name": "\"مشكلات النساء\"~Difficulties of Women, class#2",
      "url": "http://eshodinshikhi.com/wp-content/uploads/2016/08/Edited-difficulties-of-women-part-2.mp3"
    }
  ],
  "published_on": "Wed, 10 Aug 2016 17:43:18 +0000"
}