{
  "name": "importance-of-patience-and-necessity-p4",
  "title": "ইমাম ইবনুল ক্বায়্যিম রচিত -‘উদ্দাতুস্\u200c সাবিরীন ওয়া যাখীরাতুশ্\u200c শাকিরীন- গ্রন্থ থেকে আলোচনা (৪র্থ পর্ব)",
  "categories": [
    { "name": "islamic-manner-character", "url": "category-islamic-manner-character.json" },
    { "name": "character-manner", "url": "category-character-manner.json" }
  ],
  "content": "<p>শাইখ হাম্মাদ বিল্লাহ <span style=\"font-family: Arabic Symbols;\">(حفيظ الله)</span> কর্তৃক এই অডিও বক্তৃতাটি হলো মূলত ইমাম ইবনুল ক্বায়্যিম <span style=\"font-family: Arabic Symbols;\">(رَحِمَهُ ٱللَّٰهُ)</span> প্রণীত -‘উদ্দাতুস্\u200c সাবিরীন ওয়া যাখীরাতুশ্\u200c শাকিরীন- নামক কিতাবের ভাষান্তর। গ্রন্থকার ইছলামিক দৃষ্টিকোণ থেকে -সাব্\u200cর বা ধৈর্য্য, অধৈর্য্য এবং শুক্\u200cর বা কৃতজ্ঞতা- এ ক‘টি গুরুত্বপূর্ণ দ্বীনী বিষয়ের অনুশীলনমূলক কাঠামো এবং এগুলোকে কিভাবে মানুষের প্রাত্যহিক জীবনে সংযুক্ত ও রপ্ত করা যায়, সেসব বিষয়ে অত্যন্ত চমৎকার ব্যাখ্যা-বিশ্লেষণ দিয়েছেন। গ্রন্থখানি ছয় শতাব্দী পূর্বে লিখা হলেও এর বিষয়-বস্তু অত্যন্ত সময় উপযোগী এবং বর্তমান বাস্তবতার সাথে অতি প্রাসঙ্গিক। ভাষান্তরিত বক্তব্যে শাইখ হাম্মাদ বিল্লাহ <span style=\"font-family: Arabic Symbols;\">(حفيظ الله)</span> নিম্নোক্ত বিষয়ে আলোচনা করেছেন:-<br />১) ৩নং ক্লাসে উল্লেখিত সাব্\u200cরের প্রকার সম্পর্কে সংক্ষিপ্ত পূণঃআলোচনা।<br />২) কুমনোবৃত্তি বা প্রবৃত্তির কুতাড়নার মোক্বাবিলায় দ্বীনী প্রেরণা বা তাড়নার অবস্থা তিন প্রকার। তন্মধ্যে দুই প্রকার অবস্থা সম্পর্কে ইতোমধ্যে সবিস্তার আলোচনা হয়েছে। এখানে তৃতীয় প্রকার অবস্থা সম্পর্কে আলোচনা করা হচ্ছে-<br />(তিন) দ্বীনী তাড়না ও প্রেরণা এবং কুমনোবৃত্তি বা প্রবৃত্তির তাড়না এ দু‘য়ের মধ্যে যুদ্ধ অব্যাহত থাকবে। কখনো দ্বীনী তাড়না ও প্রেরণা বিজয়ী হবে কখনো কুমনোবৃত্তি বা প্রবৃত্তির তাড়না জয়ী হবে। তবে জয় পরাজয়ের সংখ্যা কম-বেশি হতে পারে। কোনটি অধিকবার জয়ী হতে পারে আবার কোনটি কম সংখ্যকবার জয়ী হতে পারে। অধিকাংশ মো’মিন, যারা ভালো কাজের সাথে মন্দ কাজও করে থাকেন, ভালোর সাথে মন্দের সংমিশ্রণ করে থাকেন তাদের ক্ষেত্রেই এরূপ অবস্থা হয়ে থাকে।<br />৩) উপরোক্ত তিন অবস্থার ভিত্তিতে পরকালেও মানুষের অনুরূপ তিন অবস্থা হবে। কিছু মানুষ চিরকালের জন্য জান্নাতে প্রবেশ করবে, জাহান্নামে নিপতি হবে না। কিছু মানুষ চিরদিনের জন্য জাহান্নামে প্রবেশ করবে। আর কিছু লোক প্রথমে (একটা নির্দিষ্ট সময়ের জন্য) জাহান্নামে প্রবেশ করবে অতঃপর তারা জান্নাতে প্রবেশ করবে।<br />৪) ধৈর্যধারণ প্রকৃতির ভিন্নতা:- কেউ অনেক কষ্টে সাব্\u200cর বা ধৈর্যধারণ করে থাকে, কেউ অতি সহজে ধৈর্যধারণ করে থাকে।<br />আল্লাহ্\u200cর সৈনিক এবং শাইত্বানের সৈন্যদের মধ্যে যুদ্ধের ক্ষেত্রে তা-ই দেখা যায়। কখনো দেখা যায়- আল্লাহ্\u200cর সৈনিকেরা সহজেই শাইত্বান বাহিনীকে পর্যুদস্ত ও পরাজিত করে ফেলছেন আবার কখনো দেখা যায়- শাইত্বান বাহিনীকে পরাজিত করতে তাদের অনেক কষ্ট করতে হচ্ছে।<br />৫) ‘আব্দুল্লাহ ইবনু মাছ‘ঊদ <span style=\"font-family: Arabic Symbols;\">(رضي الله عنه)</span> থেকে বর্ণিত একটি ঘটনা যে, ‘উমার <span style=\"font-family: Arabic Symbols;\">(رضي الله عنه)</span> মল্লযুদ্ধে এক জিনকে পরাজিত করেছিলেন।<br />৬) ইবনু আবিদ্\u200c দুন্\u200cইয়া (<span style=\"font-family: Arabic Symbols;\">(رَحِمَهُ ٱللَّٰهُ)</span>) বর্ণিত, দুই শয়তানের কথোপকথনের ঘটনা।<br />৭) যে ব্যক্তি ধৈর্যধারণে যতবেশি অভ্যস্ত হয় শত্রু তাকে ততবেশি ভয় পায়। আর যার কাছে সাব্\u200cর বা ধৈর্যধারণ দুঃসহ ও কঠিন মনে হয়, শত্রু তার প্রতি লালায়িত থাকে এবং তার যে কোন মূহুর্তে শত্রুর শিকারে পরিণত হওয়ার সম্ভাবনা থাকে।</p><p>&nbsp;</p><p>ভাষান্তরকালীন বক্তৃতা শেষে যেসব প্রশ্ন উপস্থাপন করা হয়েছিল সেগুলো নিম্নরূপ:-<br />১) যদি কেউ ইছলামের কোন বিষয় নিয়ে ঠাট্রা-বিদ্রুপ করে, তাহলে সে কি কুফ্\u200cর করল? আমরা তার সম্পর্কে কী ধারণা-বিশ্বাস পোষণ করব? আমরা কি তার মধ্যে মুনাফিক্বী চরিত্র ও বৈশিষ্ট্য রয়েছে বলে মনে করব? আমরা তাকে কিভাবে, কোন পদ্ধতিতে নাসীহাত দেব?</p><p>&nbsp;</p>",
  "excerpt": "<p>শাইখ হাম্মাদ বিল্লাহ حفظه الله কর্তৃক এই অডিও বক্তৃতাটি হলো মূলত ইমাম ইবনুল ক্বায়্যিম رحمه الله প্রণীত -‘উদ্দাতুস্\u200c সাবিরীন ওয়া যাখীরাতুশ্\u200c শাকিরীন- নামক কিতাবের ভাষান্তর। গ্রন্থকার ইছলামিক দৃষ্টিকোণ থেকে -সাব্\u200cর বা ধৈর্য্য, অধৈর্য্য এবং শুক্\u200cর বা কৃতজ্ঞতা- এ ক‘টি গুরুত্বপূর্ণ দ্বীনী বিষয়ের অনুশীলনমূলক কাঠামো এবং এগুলোকে কিভাবে মানুষের প্রাত্যহিক জীবনে সংযুক্ত ও রপ্ত করা যায়, সেসব বিষয়ে অত্যন্ত চমৎকার ব্যাখ্যা-বিশ্লেষণ দিয়েছেন। গ্রন্থখানি ছয় শতাব্দী পূর্বে লিখা হলেও এর বিষয়-বস্তু অত্যন্ত সময় উপযোগী এবং বর্তমান বাস্তবতার সাথে অতি প্রাসঙ্গিক। ভাষান্তরিত বক্তব্যে শাইখ হাম্মাদ বিল্লাহ حفظه الله নিম্নোক্ত বিষয়ে আলোচনা করেছেন:-<br />১) ৩নং ক্লাসে উল্লেখিত সাব্\u200cরের প্রকার সম্পর্কে সংক্ষিপ্ত পূণঃআলোচনা।<br />২) কুমনোবৃত্তি বা প্রবৃত্তির কুতাড়নার মোক্বাবিলায় দ্বীনী প্রেরণা বা তাড়নার অবস্থা তিন প্রকার। তন্মধ্যে দুই প্রকার অবস্থা সম্পর্কে ইতোমধ্যে সবিস্তার আলোচনা হয়েছে। এখানে তৃতীয় প্রকার অবস্থা সম্পর্কে আলোচনা করা হচ্ছে-<br />(তিন) দ্বীনী তাড়না ও প্রেরণা এবং কুমনোবৃত্তি বা প্রবৃত্তির তাড়না এ দু‘য়ের মধ্যে যুদ্ধ অব্যাহত থাকবে। কখনো দ্বীনী তাড়না ও প্রেরণা বিজয়ী হবে কখনো কুমনোবৃত্তি বা </p>",
  "audio_files": [
    {
      "name": "Imam Ibnul Qayyim-Importance of patience and its necessity, class#4",
      "url": "http://eshodinshikhi.com/wp-content/uploads/2014/08/edited_Part4_Importance-of-patience-and-its-necessity.mp3"
    }
  ],
  "published_on": "Mon, 18 Aug 2014 13:20:28 +0000"
}