{
  "name": "hadith-qudsi",
  "description": "<p>যে দু’টি বিষয় আঁকড়ে থাকলে পথভ্রষ্ট না হওয়ার নিশ্চয়তা রাছূলুল্লাহ <span style=\"font-family: 'Arabic Symbols';\">(ﷺ)</span> দিয়ে গেছেন, তার একটি হচ্ছে- রাছূলুল্লাহ্\u200cর (<span style=\"font-family: 'Arabic Symbols';\">(ﷺ)</span>) ছুন্নাহ। রাছূলুল্লাহ <span style=\"font-family: 'Arabic Symbols';\">(ﷺ)</span> এর কথা-বার্তা, কাজ-কর্ম, অনুমোদন ও সম্মতি এবং তাঁর দৈহিক ও চারিত্রিক গুণাবলীর বিবরণ, এসবের সমষ্টিগত নাম হলো- ছুন্নাহ। ছুন্নাহ্\u200cর সম্পূর্ণ বিপরীত বিষয় হলো বিদ‘আহ। বিভ্রান্তি ও ভ্রষ্টতা থেকে বাঁচতে হলে অবশ্যই ছুন্নাহ সম্পর্কে সঠিকভাবে জানতে হবে এবং ছুন্নাহ্\u200cকে আঁকড়ে ধরতে হবে।</p>",
  "items": [
    {
      "name": "হাদীছে ক্বোদছী কাকে বলে?",
      "url": "post_hadith-alqudsi.json",
      "type": "post",
      "published_on": "Tue, 27 May 2014 19:01:00 +0000"
    }
  ]
}