{
  "name": "introduction",
  "description": "<p>“এসো দ্বীন শিখি” পরিচিতি, লক্ষ্য, উদ্দেশ্য ও বৈশিষ্ট্য:- মানব ও জিন জাতির মধ্যে যারা খান্নাছ প্রকৃতির, তাদের ধংসাত্মক থাবা থেকে এবং দ্বীনী বিষয়ে প্রতারণা, বিভ্রান্তি ও ভ্রষ্টতার বেড়াজাল থেকে বিশেষ করে বাংলা ভাষাভাষী জনগণকে মুক্ত করার সুমহান লক্ষ্যেই “এসো দ্বীন শিখি” নামক এই ওয়েব সাইট প্রতিষ্ঠা এবং আমাদের এই ক্ষুদ্র প্রচেষ্টা।</p>",
  "items": [
    {
      "name": "\"এসো দ্বীন শিখি\" পরিচিতি, লক্ষ্য, উদ্দেশ্য ও বৈশিষ্ট্য",
      "url": "post_introduction-to-eshodinshikhi.json",
      "type": "post",
      "published_on": "Tue, 27 May 2014 16:56:12 +0000"
    }
  ],
  "subcategories": [ { "name": "eds-mission", "url": "category-eds-mission.json" } ]
}