{
  "name": "reformation-of-society-and-state",
  "description": "<p>ক্বোরআন ও ছুন্নাহ্\u200cর নির্দেশ অনুযায়ী মহান সৃষ্টিকর্তা আল্লাহ্\u200cকে (<span style=\"font-family: 'Arabic Symbols';\">(سُبْحَانَهُ وَتَعَالَىٰ)</span>) এবং জগতের প্রতিটি সৃষ্ট বস্তুকে তার স্ব স্ব হাক্ব বা অধিকার যথাযথভাবে প্রদান করা-ই হলো ইছলামী আদর্শ ও সচ্চরিত্রের মূল কথা। কিন্তু দুঃখজনক হলেও সত্য যে, প্রকৃত ইছলামী আদর্শ ও নীতি-নৈতিকতা থেকে অধিকাংশ মুছলমানই আজ দূরে বহু দূরে। ব্যক্তি, পরিবার, সমাজ, রাষ্ট্র সর্বক্ষেত্রেই চারিত্রিক ও নৈতিক স্খলন-অধঃপতন আজ চরম পর্যায়ে। দুনইয়াতে যাবতীয় ফিতনা-ফাছাদ ও বিশৃঙ্খলার অন্যতম কারণ হলো চরিত্রহীনতা ও আদর্শহীনতা, অর্থাৎ যার যেটুকু অধিকার বা প্রাপ্য তাকে সেটা না দেয়া। পরকালেও চরম বিপর্যয়ের কারণ হবে তা-ই। এজন্য নিজের উপর কার কি অধিকার রয়েছে এবং অন্যের কাছে নিজের প্রাপ্য বা অধিকার কী, সে বিষয়ে সঠিকভাবে জানতে হবে এবং প্রত্যেককে তার হাক্ব যথাযথভাবে আদায় করতে হবে, তাহলেই আল্লাহ চাহেতো মানুষের ইহ-পরকাল নিরাপদ, সুখী ও শান্তিময় হবে।</p>",
  "items": [
    {
      "name": "ছালাফে সালিহীনের মানহাজ এবং উম্মাতের জন্য এর প্রয়োজনীয়তা (১ম পর্ব)",
      "url": "audio_manhaj-its-importance-part1.json",
      "type": "audio",
      "published_on": "Thu, 14 Aug 2014 00:46:05 +0000"
    },
    {
      "name": "ছালাফে সালিহীনের মানহাজ এবং উম্মাতের জন্য এর প্রয়োজনীয়তা (২য় পর্ব)",
      "url": "audio_manhaj-its-importance-2.json",
      "type": "audio",
      "published_on": "Thu, 14 Aug 2014 00:53:10 +0000"
    },
    {
      "name": "ছালাফে সালিহীনের মানহাজ এবং উম্মাতের জন্য এর প্রয়োজনীয়তা বিষয়ক প্রশ্নোত্তর (১ম পর্ব)",
      "url": "audio_qa-manhaj-its-importance.json",
      "type": "audio",
      "published_on": "Thu, 14 Aug 2014 01:02:54 +0000"
    },
    {
      "name": "ছালাফে সালিহীনের মানহাজ এবং উম্মাতের জন্য এর প্রয়োজনীয়তা বিষয়ক প্রশ্নোত্তর (২য় পর্ব)",
      "url": "audio_qa2-manhaj-its-importance.json",
      "type": "audio",
      "published_on": "Thu, 14 Aug 2014 01:07:57 +0000"
    },
    {
      "name": "সমাজ সংস্কারে তাক্বওয়ার ভূমিকা",
      "url": "audio_effect-of-taqwa-in-rectifying-society.json",
      "type": "audio",
      "published_on": "Fri, 26 Sep 2014 02:22:40 +0000"
    },
    {
      "name": "(সম্পূর্ণ অডিও সেট) আশ্\u200cশাইখ সালিহ্\u200c আল ফাওযান-“ছালাফে সালিহীনের মানহাজ এবং উম্মাতের জন্য এর প্রয়োজনীয়তা”",
      "url": "playlists_playlist-manhaj-its-importance-part.json",
      "type": "playlists",
      "published_on": "Thu, 09 May 2019 21:59:03 +0000"
    }
  ]
}