{
  "name": "purity",
  "description": "<p>জন্ম থেকে মৃত্যূ পর্যন্ত, ব্যক্তি জীবন থেকে রাষ্ট্রীয় জীবন পর্যন্ত মহান আল্লাহ রাব্বুল ‘আলামীনের সন্তুষ্টি সহকারে পরিচালনার জন্য যে জ্ঞান অপরিহার্য, সেটি হলো ইছলামী বিধান বা ব্যবহারশাস্ত্র, অর্থাৎ ইছলামী ফিক্ব্\u200cহ। তাই জীবনের প্রতিটি বিষয়ে ইছলামী বিধি-বিধান ও নিয়ম-নীতি সম্পর্কে বিশুদ্ধ উৎস থেকে সঠিকভাবে জানতে হবে। নতুবা ব্যক্তি নিজে যেমন পথভ্রষ্ট হবে অন্যকেও পথভ্রষ্ট করবে।</p>",
  "items": [
    {
      "name": "পবিত্রতা অর্জনের গুরুত্ব ও প্রয়োজনীয়তা",
      "url": "post_importance-of-purification.json",
      "type": "post",
      "published_on": "Tue, 10 Jun 2014 15:44:04 +0000"
    }
  ],
  "subcategories": [ { "name": "ablution", "url": "category-ablution.json" } ]
}