{
  "name": "complete-audio-set-firmness-upon-the-of-salafus-salih",
  "title": "(সম্পূর্ণ অডিও সেট) শাইখ মুহাম্মাদ ইবনু ‘উমার বাযমূল- ছালাফে সালিহীনের মানহাজের উপর অটল ও অবিচল থাকার গুরুত্ব, প্রয়োজনীয়তা এবং উপায় ও পদ্ধতি",
  "categories": [
    { "name": "ahle-sunnah-wal-jamaah", "url": "category-ahle-sunnah-wal-jamaah.json" },
    {
      "name": "usool-wa-manhaju-ahle-sunnah-wal-jamaah",
      "url": "category-usool-wa-manhaju-ahle-sunnah-wal-jamaah.json"
    }
  ],
  "content": "<p>এই অডিওটি হলো শাইখ মুহাম্মাদ ইবনু ‘উমার বাযমূল حفظه الله প্রদত্ত “ছালাফে সালিহীনের অনুসৃত নীতির উপর অটল ও অবিচল থাকা” বিষয়ে প্রদত্ত একটি মূল্যবান ‘আরাবী ভাষণের বাংলা ভাষান্তর।</p><p></p>",
  "audio_files": [
    {
      "name": "Ath-thabat 'Alal Manhaj by Shaykh Bazmool, class #1",
      "url": "http://eshodinshikhi.com/wp-content/uploads/2016/07/thabaat-ala-manhaj-Umarbazmool-part1_new.mp3"
    },
    {
      "name": "Ath-thabat 'Alal Manhaj by Shaykh Bazmool, class #2",
      "url": "http://eshodinshikhi.com/wp-content/uploads/2016/07/Ath-thabat-ala-manhaj2.mp3"
    },
    {
      "name": "Ath-thabat 'Alal Manhaj by Shaykh Bazmool, class #3",
      "url": "http://eshodinshikhi.com/wp-content/uploads/2016/07/ath-thabat-Alamanhaj-part3.mp3"
    },
    {
      "name": "Ath-Athabat 'Ala Manhaj by Shaykh Bazmool, class #4",
      "url": "http://eshodinshikhi.com/wp-content/uploads/2016/07/edited_ath-thabat-ala-manhaj-4.mp3"
    },
    {
      "name": "Ath-thabat 'Alal Manhaj by Shaykh Bazmool, class #5",
      "url": "http://eshodinshikhi.com/wp-content/uploads/2016/07/edited_ath-thabat-ala-manhaj-class-5.mp3"
    },
    {
      "name": "Ath-thabat 'Alal Manhaj by Shaykh Bazmool, class #6",
      "url": "http://eshodinshikhi.com/wp-content/uploads/2016/07/edited-ath-thabat-alal-manhaj-class-6.mp3"
    },
    {
      "name": "Ath-thabat 'Alal Manhaj by Shaykh Bazmool, class #7",
      "url": "http://eshodinshikhi.com/wp-content/uploads/2016/07/edited-ath-thabat-alal-manhaj-class-7.mp3"
    },
    {
      "name": "Ath-thabat 'Alal Manhaj by Shaykh Bazmool, class #8",
      "url": "http://eshodinshikhi.com/wp-content/uploads/2016/07/edited-ath-thabat-alal-manhaj-class-8.mp3"
    },
    {
      "name": "Ath-thabat 'Alal Manhaj by Shaykh Bazmool, class #9",
      "url": "http://eshodinshikhi.com/wp-content/uploads/2016/07/edited-ath-thabat-alal-manhaj-class-9.mp3"
    },
    {
      "name": "Ath-thabat 'Alal Manhaj by Shaykh Bazmool, class #10",
      "url": "http://eshodinshikhi.com/wp-content/uploads/2016/07/edited-ath-thabat-alal-manhaj-class-10.mp3"
    },
    {
      "name": "Ath-thabat 'Alal Manhaj of Shaykh Bazmool, class #11",
      "url": "http://eshodinshikhi.com/wp-content/uploads/2016/07/edited_ath-thabat-alalmanhaj-class-11.mp3"
    },
    {
      "name": "Ath-thabat 'Alal Manhaj by Shaykh Bazmool, class #12",
      "url": "http://eshodinshikhi.com/wp-content/uploads/2016/07/edited-at-thabat-alal-manhaj-class-12.mp3"
    },
    {
      "name": "Ath-thabat 'Alal Manhaj by Shaykh Bazmool, class #13",
      "url": "http://eshodinshikhi.com/wp-content/uploads/2016/07/edited-at-thabat-alal-manhaj-class-13.mp3"
    }
  ],
  "published_on": "Mon, 04 Jul 2016 19:34:23 +0000"
}