{
  "name": "complete-audio-set-lumatul-itiqad",
  "title": "(সম্পূর্ণ অডিও সেট) আল ইমাম মুহাম্মাদ ইবনু সালিহ্\u200c আল ‘উছাইমীন কর্তৃক ব্যাখ্যাকৃত আল ইমাম ইবনু ক্বোদামাহ আল মাক্বদিছী রচিত -“লুম‘আতুল ই‘তিক্বাদ”",
  "categories": [
    { "name": "belief-in-allah", "url": "category-belief-in-allah.json" },
    { "name": "tawheed-al-asma-as-sifat", "url": "category-tawheed-al-asma-as-sifat.json" },
    { "name": "islamic-aqeedah-eemaan", "url": "category-islamic-aqeedah-eemaan.json" }
  ],
  "content": "<p>এই অডিওটি হলো আশ্\u200cশাইখ মুহাম্মাদ ইবনু সালিহ্\u200c আল ‘উছাইমীন رحمه الله কর্তৃক ব্যাখ্যাকৃত ইমাম ইবনু ক্বোদামাহ আল মাক্বদিছী رحمه الله এর সুপ্রসিদ্ধ গ্রন্থ “লুম‘আতুল ই‘তিক্বাদ” এর ধারাবাহিক অডিও ভাষান্তর।</p>\n<p></p>",
  "audio_posts": [],
  "audio_files": [
    {
      "name": "Lum’atul I’tiqad of Imam Ibn Qudamah, class # 40",
      "url": "http://eshodinshikhi.com/wp-content/uploads/2016/07/edited-lumat-al-itiqad-class-40.mp3"
    },
    {
      "name": "Lum'atul I'tiqad of Imam Ibn Qudamah, class # 41",
      "url": "http://eshodinshikhi.com/wp-content/uploads/2016/07/edited-lumat-al-itiqad-class-41.mp3"
    },
    {
      "name": "Lum’atul I’tiqad of Imam Ibn Qudamah, class # 42",
      "url": "http://eshodinshikhi.com/wp-content/uploads/2016/07/edited-lumat-al-itiqad-class-42.mp3"
    },
    {
      "name": "Lum’atul I’tiqad of Imam Ibn Qudamah, class # 43",
      "url": "http://eshodinshikhi.com/wp-content/uploads/2016/07/edited-lumat-al-itiqad-class-43.mp3"
    },
    {
      "name": "Lum’atul I’tiqad of Imam Ibn Qudamah, class # 44",
      "url": "http://eshodinshikhi.com/wp-content/uploads/2016/07/edited-lumat-al-itiqad-class-44.mp3"
    }
  ],
  "published_on": "Sat, 02 Jul 2016 16:02:26 +0000"
}