{
  "name": "question-answer-related-to-korbani",
  "title": "ক্বোরবানী বিষয়ক কতিপয় প্রশ্ন-উত্তর:  শাইখ ‘উছাইমীন (رحمه الله)/শাইখ ইবনু বায (رحمه الله)",
  "categories": [
    { "name": "korbani", "url": "category-korbani.json" },
    { "name": "al-islam", "url": "category-al-islam.json" },
    { "name": "hajj-and-umrah", "url": "category-hajj-and-umrah.json" }
  ],
  "content": "<p>প্রশ্নঃ- কয়েকজন মিলে অংশীদারিত্বের ভিত্তিতে একটি পশু ক্বোরবানী করা কি জা-ইয?<br />\nউত্তরঃ- একটি উট অথবা একটি গরু সর্বোচ্চ সাতজন মুছলিম মিলে অংশীদারিত্বের ভিত্তিতে ক্বোরবানী করা জা-ইয। আর এটাই হলো অধিকাংশ আয়িম্মায়ে কিরাম ও ‘উলামায়ে কিরামের (<span style=\"font-family: 'Arabic Symbols';\">(رَحِمَهُ ٱللَّٰهُ)</span>) অভিমত।<br />\n(তবে এক অংশের ভগ্নাংশ করা যাবে না। যে কারণে দুইজন মিলে এক অংশ কিংবা তিনজন মিলে দুই অংশ এরূপ করা যাবে না, অনুরূপ ছাগল, দুম্বা কিংবা ভেড়ি অংশীদারিত্বের ভিত্তিতে ক্বোরবানী করা যাবে না, সেটা যত বড় কিংবা যত দামী হোক না কেন।)</p>\n<p>প্রথমতঃ ক্বোরআনে কারীম থেকে এর প্রমাণ হলো- আল্লাহ <span style=\"font-family: 'Arabic Symbols';\">(unknown text)</span> ইরশাদ করেছেন:-</p>\n<p style=\"text-align: right;\">فَمَنْ تَمَتَّعَ بِالْعُمْرَةِ إِلَى الْحَجِّ فَمَا اسْتَيْسَرَ مِنَ الْهَدْيِ. ((سورة البقرة- ١٩٦))</p>\n<p>অর্থাৎ- যে ব্যক্তি হাজ্জ ও ‘উমরাহ একত্রে পালন করবে সে ক্বোরবানীর পশু থেকে যতটুকু সহজ ততটুকু ক্বোরবানী করবে। ((ছূরা আল বাক্বারাহ- ১৯৬))<br />\nএখানে “ক্বোরবানীর পশু থেকে” বলা হয়েছে। একথাটি ক্বোরবানীর পশুর অংশবিশেষকেও বুঝায়।</p>\n<p>দ্বিতীয়তঃ ছুন্নাহ থেকে এর প্রমাণ হলো- জাবির ইবনু ‘আব্দিল্লাহ (<span style=\"font-family: 'Arabic Symbols';\">(رَضِيَ ٱللَّٰهُ عَنْهُمْا)</span>) থেকে বর্ণিত, তিনি বলেছেন:-</p>\n<p style=\"text-align: right;\">نَحَرْنَا مَعَ رَسُولِ اللَّهِ صَلَّى اللَّهُ عَلَيْهِ وَسَلَّمَ عَامَ الْحُدَيْبِيَةِ الْبَدَنَةَ عَنْ سَبْعَةٍ وَالْبَقَرَةَ عَنْ سَبْعَةٍ. ((صحيح مسلم))</p>\n<p>অর্থ- হুদায়বিয়ার দিন আমরা রাছূলুল্লাহ সাল্লাল্\u200cলাহু ‘আলাইহি ওয়া ছাল্লামের সাথে ক্বোরবানী করেছি একটি উট সাতজনের পক্ষ থেকে, একটি গরু সাতজনের পক্ষ থেকে। ((সাহীহ্\u200c মুছলিম))<br />\nজাবির ইবনু ‘আব্দিল্লাহ (<span style=\"font-family: 'Arabic Symbols';\">(رَضِيَ ٱللَّٰهُ عَنْهُمْا)</span>) থেকে আরো বর্ণিত, তিনি বলেছেন:-</p>\n<p style=\"text-align: right;\">ثُمَّ انْصَرَفَ إلى المَنْحَرِ، فَنَحَرَ ثَلَاثًا وَسِتِّينَ بيَدِهِ، ثُمَّ أَعْطَى عَلِيًّا، فَنَحَرَ ما غَبَرَ، وَأَشْرَكَهُ في هَدْيِهِ. ((صحيح مسلم))</p>\n<p>অর্থ- অতঃপর (হাজ্জ সম্পাদনকালীন জামরায়ে ‘আক্বাবাহ্\u200cতে পাথর নিক্ষেপের পর) রাছূলুল্লাহ <span style=\"font-family: 'Arabic Symbols';\">(ﷺ)</span> মিনাতে যেখানে হাদ-য়ি তথা হাজিগণ পশু ক্বোরবানী করে থাকেন, সেখানে ফিরে এসে নিজ হাতে তেষট্টিটি (৬৩) পশু ক্বোরবানী করেন, অতঃপর ‘আলী রাযিয়াল্লাহু ‘আনহুকে দেন, তিনি অবশিষ্টগুলো (৩০/৩৭টি পশু) ক্বোরবানী করেন এবং রাছূলুল্লাহ <span style=\"font-family: 'Arabic Symbols';\">(ﷺ)</span> স্বীয় হাদ-য়ি এর মধ্যে তাকেও (‘আলী রাযিয়াল্লাহু ‘আনহুকেও) শরীক করেন। ((সাহীহ্\u200c মুছলিম))</p>\n<p>আবূ জামরাহ <span style=\"font-family: 'Arabic Symbols';\">(رضي الله عنه)</span>থেকে বর্ণিত, তিনি বলেছেন- আমি ইবনু ‘আব্বাছ <span style=\"font-family: 'Arabic Symbols';\">(رَضِيَ ٱللَّٰهُ عَنْهُمْا)</span>-কে হাজ্জে তামাত্তু‘ সম্পর্কে জিজ্ঞেস করেছিলাম, তিনি আমাকে তা সম্পাদন করার নির্দেশ দেন, আমি তাঁকে হাদ-য়ি সম্পর্কে জিজ্ঞেস করেছিলাম, তিনি বলেছেন- হাদয়ি হলো একটি উট অথবা একটি গরু কিংবা একটি ছাগল অথবা একটি পশুতে অংশীদার হয়ে ক্বোরবানী করা।</p>\n<p>তৃতীয়তঃ সাহাবায়ে কিরামের (<span style=\"font-family: 'Arabic Symbols';\">(رَضِيَ ٱللَّٰهُ عَنْهُمْ)</span>) একটি বড়দল উপরোক্ত অভিমত ব্যক্ত করেছেন। যাদের মধ্যে রয়েছেন ‘আলী, ‘আব্দুল্লাহ ইবনু মাছ‘ঊদ, আনাছ ইবনু মালিক <span style=\"font-family: 'Arabic Symbols';\">(رَضِيَ ٱللَّٰهُ عَنْهُمْ)</span> এবং ‘আয়িশাহ (<span style=\"font-family: 'Arabic Symbols';\">(رَضِيَ ٱللَّٰهُ عَنْهَا)</span>) প্রমুখ। ‘আব্দুল্লাহ ইবনু ‘উমার <span style=\"font-family: 'Arabic Symbols';\">(رَضِيَ ٱللَّٰهُ عَنْهُمْا)</span>; তিনিও পরবর্তীতে উপরোক্ত অভিমতের দিকে প্রত্যাবর্তন করেন।</p>\n<p>চতুর্থতঃ ক্বিয়াছ। যেহেতু একটি পশুতে একই পরিবারের অনেক লোক অংশগ্রহণ করতে পারে, অর্থাৎ একটি পশু (গরু অথবা উট) দিয়ে একই পরিবারের অনেক সদস্যের পক্ষ থেকে ক্বোরবানী সম্পন্ন করা যায়, তাহলে একটি পশুতে ভিন্ন ভিন্ন পরিবারের নির্দিষ্ট সংখ্যক লোক অংশগ্রহণ করতে পারবে এবং একটি পশু দিয়ে ভিন্ন ভিন্ন পরিবারের নির্দিষ্ট সংখ্যক লোকের পক্ষ থেকে ক্বোরবানী সম্পন্ন করা যাবে, এটাই হলো ক্বিয়াছ বা যুক্তির দাবি।</p>\n<p>আংশীদারিত্বের ভিত্তিতে ক্বোরবানী দেয়ার বিধান সম্পর্কে সৌদী ‘আরবের স্থায়ী ফাতওয়া কমিটিকে জিজ্ঞেস করা হলে তারা প্রতিউত্তরে বলেনঃ- “একটি উট বা একটি গরু সাতজনের পক্ষ থেকে ক্বোরবানী দেয়া যাবে। এই সাতজন ব্যক্তি একই ঘরের একই পরিবারের হোন বা ভিন্ন ভিন্ন ঘরের ভিন্ন পরিবারের এবং তাদের পরস্পরের মধ্যে আত্মীয়তার সম্পর্ক থাকুক বা না থাকুক। কেননা রাছূলুল্লাহ <span style=\"font-family: 'Arabic Symbols';\">(ﷺ)</span> একটি উট বা একটি গরু ক্বোরবানীতে সাতজন করে সাহাবী-কে (<span style=\"font-family: 'Arabic Symbols';\">(رَضِيَ ٱللَّٰهُ عَنْهُمْ)</span>) অংশগ্রহন করার অর্থাৎ সাতজন মিলে একটি উট বা একটি গরু ক্বোরবানী দেয়ার অনুমতি দিয়েছেন। এক্ষেত্রে তিনি কোনরূপ ব্যাখ্যা দেননি বরং সাধারণভাবে অনুমতি দিয়েছেন।</p>\n<p>এসম্পর্কে শাইখ মুহাম্মাদ ইবনু সালিহ্\u200c আল ‘উছাইমীন (<span style=\"font-family: 'Arabic Symbols';\">(رَحِمَهُ ٱللَّٰهُ)</span>) বলেছেন:-<br />\nএকটি ছাগল একজন লোকের পক্ষ থেকে ক্বোরবানীর জন্য যথেষ্ট হবে। আর একটি ছাগল যেমন একজন লোকের পক্ষ থেকে ক্বোরবানীর জন্য যথেষ্ট হয়ে থাকে তেমনি, গরু বা উটের সাত ভাগের এক ভাগ একজন লোকের পক্ষ থেকে ক্বোরবানীর জন্য যথেষ্ট হবে।</p>\n<p>সূত্রঃ- আহ্\u200cকামুল উযহিয়াহ লিশ্\u200c শাইখ মুহাম্মাদ ইবনু সালিহ্\u200c আল ‘উছাইমীন (<span style=\"font-family: Arabic Symbols;\"><span style=\"font-family: 'Arabic Symbols';\">(رَحِمَهُ ٱللَّٰهُ)</span>)</span>।</p>\n<p>-----------------------------------------</p>\n<p>প্রশ্নঃ- ক্বোরবানীর পশুর গোশত নিজে খাওয়া এবং পরবর্তী সময়ে খাওয়ার জন্য সংরক্ষণ করা কি শারী‘আত সম্মত?<br />\nউত্তরঃ- ক্বোরবানীর পশুর গোশত নিজে খাওয়া যাবে, অন্যকে খাওয়ানো যাবে এবং পরবর্তী সময়ে খাওয়ার জন্য সংরক্ষণ করে রাখা যাবে। এটিই সকল আয়িম্মায়ে কিরামের অভিমত।<br />\nক্বোরআনে কারীম থেকে এর প্রমাণ হলো- আল্লাহ ছুবহানাহু ওয়া তা‘আলা ইরশাদ করেছেন:-</p>\n<p style=\"text-align: right;\">فَكُلُوا مِنْهَا وَأَطْعِمُوا الْبَائِسَ الْفَقِيرَ. ((سورة الحج- ٢٧))</p>\n<p>অর্থাৎ- তোমরা তা থেকে আহার করো এবং দূর্দশাগ্রস্থ-অভাবগ্রস্থদের আহার করাও। ((ছূরা আল হাজ্জ- ২৭))</p>\n<p>ছুন্নাহ থেকে এর প্রমাণ হলো- (এক) আবূ হুরাইরাহ রাযিয়াল্লাহু ‘আনহু থেকে বর্ণিত, রাছূলুল্লাহ <span style=\"font-family: 'Arabic Symbols';\">(ﷺ) </span>বলেছেন:-</p>\n<p style=\"text-align: right;\">إذا ضحَّى أحَدُكم فلْيَأْكُلْ مِنْ أُضْحِيَّتِه. ((أخرجه أحمد وصححه الألباني))</p>\n<p>অর্থ- যখন তোমাদের কেউ ক্বোরবানী করবে, সে যেন নিজের ক্বোরবানীর গোশত থেকে খায়। ((মুছনাদুল ইমাম আহ্\u200cমাদ। ইমাম আল আলবানী <span style=\"font-family: 'Arabic Symbols';\">(رَحِمَهُ ٱللَّٰهُ) </span>হাদীছটিকে সাহীহ বলেছেন।))</p>\n<p>(দুই) জাবির ইবনু ‘আব্দিল্লাহ <span style=\"font-family: 'Arabic Symbols';\">(رضي الله عنه)</span> থেকে বর্ণিত, তিনি বলেছেন- রাছূলুল্লাহ <span style=\"font-family: 'Arabic Symbols';\">(ﷺ)</span> ক্বোরবানীর পশুর গোশত তিন দিনের পর খেতে (অর্থাৎ তিন দিনের বেশি সময় ধরে খেতে প্রথমতঃ) নিষেধ করেছিলেন। অতঃপর তিনি (<span style=\"font-family: 'Arabic Symbols';\">(ﷺ)</span>) বলেন:-</p>\n<p style=\"text-align: right;\">كُلُوا، وتَزَوَّدوا، وادَّخِروا. ((صحيح مسلم))</p>\n<p>সাহীহ্\u200c মুছলিমের অন্য বর্ণনায় রয়েছে, রাছূলুল্লাহ <span style=\"font-family: 'Arabic Symbols';\">(ﷺ)</span> বলেছেন ((সাহীহ্\u200c মুছলিম)):-</p>\n<p style=\"text-align: right;\"> .فَكُلُوا وَادَّخِرُوا وَتَصَدَّقُوا</p>\n<p>অর্থ- অতএব তোমরা (ক্বোরবানীর পশুর গোশত) খাও, সংরক্ষণ করো এবং সাদাক্বাহ করো। ((সাহীহ্\u200c মুছলিম))<br />\nসাহীহ্\u200c বুখারীর বর্ণনায় ক্বোরবানীর পশুর গোশত সম্পর্কে বর্ণিত রয়েছে, রাছূলুল্লাহ <span style=\"font-family: 'Arabic Symbols';\">(ﷺ)</span> বলেছেন:-</p>\n<p style=\"text-align: right;\">كُلُوا وَأَطْعِمُوا وَادَّخِرُوا. ((صحيح اليخاري))</p>\n<p>অর্থ- তোমরা (ক্বোরবানীর পশুর গোশত) খাও, অপরকে খাওয়াও এবং সংরক্ষণ করো। ((সাহীহ্\u200c বুখারী))<br />\nউপরোক্ত দালীল সমূহ দ্বারা স্পষ্টভাবে প্রমাণিত যে, ক্বোরবানীর পশুর গোশত নিজে খাওয়া, অভাবগ্রস্থদের খাওয়ানো এবং সংরক্ষণ করা জা-ইয।</p>\n<p>প্রশ্নঃ- কেউ যদি ক্বোরবানীর গোশ্\u200cত একটুও সাদাক্বা না করে অর্থাৎ গরীব-মিছকীনকে না দিয়ে পুরোটা নিজে বা নিজের পরিবারকে নিয়ে খেয়ে ফেলে তাহলে এক্ষেত্রে ইছলামের বিধান কি?<br />\nউত্তরঃ- অবশ্যই তাকে বাজার থেকে কিনে এনে হলেও কমপক্ষে এই পরিমাণ গোশত সাদাক্বাহ করতে হবে যেটুকু কাউকে দিলে পরে সেই ব্যক্তি “গোশ্\u200cত পেয়েছে” বা তাকে “গোশ্\u200cত সাদাক্বাহ করা হয়েছে” বলা যাবে।<br />\n(কেননা, ক্বোরআনে কারীমে আল্লাহ ছুবহানাহু ওয়া তা‘আলা নির্দেশ দিয়েছেন:-</p>\n<p style=\"text-align: right;\">فَكُلُوا مِنْهَا وَأَطْعِمُوا الْبَائِسَ الْفَقِيرَ. ((سورة الحج- ٢٧))</p>\n<p>অর্থাৎ- তোমরা তা থেকে খাও এবং দূর্দশাগ্রস্থ-অভাবগ্রস্থদের খাওয়াও। ((ছূরা আল হাজ্জ- ২৭))</p>\n<p>সূত্রঃ- আশ্\u200c শারহুল মুমতি‘ ‘আলা যাদিল মুছতাক্বনি‘ লিশ্\u200cশাইখ মুহাম্মাদ ইবনু সালিহ আল ‘উছাইমীন।</p>\n<p>-------------------------------------------------</p>\n<p>প্রশ্নঃ- ক্বোরবানী দাতা যদি ক্বোরবানী দেয়ার আগে (যিলহাজ্জ মাসের চাঁদ দেখার পরে) নিজের নখ, চুল বা চামড়া কর্তন করেন, তাহলে তার ক্বোরবানী ক্ববূল হবে কি?<br />\nউত্তরঃ- হ্যাঁ, তার ক্বোরবানী ক্ববূল হবে, কেননা নখ, চুল বা চামড়া কাটার সাথে উযহিয়্যাহ তথা ক্বোরবানীর সঠিক-শুদ্ধতা বা অশুদ্ধতার কোন সম্পর্ক নেই। তবে এক্ষেত্রে ছুন্নাহ অনুসরণ না করার জন্য সে ব্যক্তি গোনাহগার হবে।<br />\n(তজ্জন্য তাকে তাওবাহ ও ইছতিগফার করতে হবে। তবে ভুলবশতঃ অথবা বিধান না জানার কারণে কিংবা বিশেষ প্রয়োজনে কর্তন করলে ব্যক্তি গোনাহগার হবে না।)</p>\n<p>সূত্রঃ আশ্\u200c শারহুল মুমতি‘ ‘আলা যাদিল মুছতাক্বনি‘ লিশ্\u200cশাইখ মুহাম্মাদ ইবনু সালিহ আল ‘উছাইমীন (<span style=\"font-family: 'Arabic Symbols';\">(رَحِمَهُ ٱللَّٰهُ)</span>)।</p>\n<p>--------------------------------------</p>\n<p>প্রশ্নঃ- কোন মুছলিম যদি অমুছলিম এমন কোন দেশে অবস্থান করে, যেখানে ক্বোরবানী দিলে পরে সে হয়ত অভাবগ্রস্থ এমন কাউকে পাবে না যাকে ক্বোরবানীর গোশত দেয়া যায় বা খাওয়ানো যায়, এমতাবস্থায় সে কি ক্বোরবানীর জন্য টাকা এমন কোথাও পাঠতে পারে যেখানে ক্বোরবানী দিলে অভাবগ্রস্থ মুছলিমরা গোশত খেতে পারবে, এটা কি তার জন্য জা-ইয? <br />\nউত্তরঃ- এতে কোন অসুবিধা নেই। সে তার ক্বোরবানীর পশু বা পশুর মূল্য অন্য কোথাও পাঠিয়ে দিয়ে বিশ্বস্থ কারো মাধ্যমে ক্বোরবানী দিয়ে দিতে পারবে, যেখানে অভাবগ্রস্থ মুছলিমগণ গোশত খেতে পারবে এবং তদ্বারা উপকৃত হতে পারবে।</p>\n<p>সূত্রঃ ফাতাওয়াশ্\u200c শাইখ ইবনু বায <span style=\"font-family: 'Arabic Symbols';\">(رَحِمَهُ ٱللَّٰهُ)</span>।</p>\n<p>----------------------------------------<br />\nপ্রশ্নঃ- ক্বোরবানীর জন্য কি নিয়্যাত আবশ্যক?<br />\nউত্তরঃ- ক্বোরবানীর জন্য নিয়্যাত হলো শর্ত। ক্বোরবানী দাতাকে অবশ্যই ক্বোরবানীর নিয়্যাত করে নির্ধারিত পশু যবেহ করতে হবে। আর এই নিয়্যাত তিন ভাবে সম্পাদন হতে পারে- (এক) ক্বোরবানীর জন্য পশুটি ক্রয় কিংবা কথা দ্বারা ক্বোরবানীর জন্য পশুটি নির্ধারণের মাধ্যমে। (দুই) যবহের মুহূর্তে মনে মনে পশুটি কেবল আল্লাহ্\u200cর জন্যে ক্বোরবানী দেয়ার মনস্থ করার মাধ্যমে। (৩) বিশ্বস্থ কাউকে নিজের পক্ষ থেকে ক্বোরবানী দেয়ার দায়িত্ব প্রদানের মাধ্যমে।</p>\n<p>কেউ যদি পশুটি ক্রয় করার সময় আল্লাহ্\u200cর জন্যে ক্বোরবানী দেয়ার নিয়্যাতে ক্রয় করে থাকে এবং পরবর্তীতে যবেহ কার্য সম্পাদিত হওয়ার পূর্বে সে যদি তার এই নিয়্যাত ভঙ্গঁ না করে থাকে কিংবা ঐ নিয়্যাতের পরিপন্থি কোন নিয়্যাত না করে থাকে, তাহলে সে যদি যবহের সময় নিয়্যাত না-ও করে কিংবা সে যে ব্যক্তিকে ক্বোরবানী কার্য সম্পাদন করার দায়িত্ব দিয়েছে সেই ব্যক্তি যদি নিয়্যাত ছাড়াই কেবল “বিছমিল্লাহ ওয়াল্লাহু আকবার” বলে যবেহ করে নেয়, তাহলেও তার ক্বোরবানী বিশুদ্ধ হবে।</p>\n<p>কিন্তু কেউ যদি উক্ত তিন প্রকার নিয়্যাতের কোন প্রকার নিয়্যাত ব্যতীত ক্বোরবানী করে তাহলে তার ক্বোরবানী সাহীহ-শুদ্ধ হবে না। আবার কেউ যদি উপরোক্ত কোন প্রকার নিয়্যাত না করে কেবল যবেহ করার সময় “বিছমিল্লাহ ওয়াল্লাহু আকবার” বলে “আল্লাহুম্মা মিনকা ওয়া লাকা ‘আন্নী, আল্লাহুম্মা তাক্বাব্বাল মিন্নী” বলে যবেহ করে নেয়, তাহলেও তার ক্বোরবানী সাহীহ-শুদ্ধ বলে গণ্য হবে।<br />\nতবে সর্বাবস্থায় উত্তম হলো পূর্ব থেকেই নিয়্যাত করা এবং যব্\u200cহের সময় “বিছমিল্লাহ ওয়াল্লাহু আকবার” বলে “আল্লাহুম্মা মিনকা ওয়া লাকা ‘আন্নী” (যদি ক্বোরবানী নিজের হাতে নিজের পক্ষ থেকে হয়, আর যদি অন্যের পক্ষ থেকে হয় তাহলে ‘আন্নী-র পরিবর্তে -‘আন- বলে যার পক্ষ থেকে হবে তার নাম বলা)। অতঃপর “আল্লাহুম্মা তাক্বাব্বাল মিন্নী” (যদি ক্বোরবানী নিজের পক্ষ থেকে হয়। আর যদি অন্যের পক্ষ থেকে হয় তাহলে মিন্নী-র পরিবর্তে “মিন” বলে সেই ব্যক্তির নাম বলা। কেননা রাছূলুল্লাহ <span style=\"font-family: 'Arabic Symbols';\">(ﷺ)</span> এভাবেই বলেছেন মর্মে একাধিক বিশুদ্ধ হাদীছ দ্বারা প্রমাণিত।<br />\nসূত্রঃ- মূল- ফাতাওয়া নূরুন ‘আলাদ্\u200c দারব লিশ্\u200c শাইখ মোহাম্মাদ ইবনু সালিহ্\u200c আল ‘উছাইমীন <span style=\"font-family: 'Arabic Symbols';\">(رَحِمَهُ ٱللَّٰهُ)</span>।(প্রয়োজনীয় বিশ্লেষণ সংযোজিত)</p>\n<p>------------------------------------------------------</p>\n<p>প্রশ্নঃ- রাতের বেলা ক্বোরবানী করা কি জা-ইয?<br />\nউত্তরঃ- হ্যাঁ, রাতের বেলা ক্বোরবানী করা জা-ইয। ক্বোরআনে কারীম থেকে এর প্রমাণ হলো- আল্লাহ <span style=\"font-family: 'Arabic Symbols';\">(unknown text)</span>ইরশাদ করেছেন:-</p>\n<p style=\"text-align: right;\">وَيَذْكُرُوا اسْمَ اللَّهِ فِي أَيَّامٍ مَعْلُومَاتٍ عَلَى مَا رَزَقَهُمْ مِن بَهِيمَةِ الْأَنْعَامِ. ((سورة الحج- ٢۸))</p>\n<p>অর্থাৎ- এবং তারা সুনির্দিষ্ট দিনগুলোতে আল্লাহ্\u200cর নাম স্মরণ করবে সেইসব চতুষ্পদ জন্তুর উপর যেগুলো তিনি তাদেরকে রিয্\u200cক্ব হিসেবে দান করেছেন। ((ছূরা আল হাজ্জ- ২৮))<br />\nএই আয়াতে নির্দিষ্ট দিনের কথা বলা হয়েছে। আর আভিধানিক অর্থে রাত-ও “দিন” এর মধ্যে অন্তর্ভুক্ত।<br />\nছুন্নাহ থেকে এর প্রমাণ হলো- (এক) জুবাইর ইবনু মুত‘য়িম (<span style=\"font-family: 'Arabic Symbols';\">(رضي الله عنه)</span>) থেকে বর্ণিত, রাছূলুল্লাহ <span style=\"font-family: 'Arabic Symbols';\">(ﷺ)</span> বলেছেন:-</p>\n<p style=\"text-align: right;\">وكلُّ أيَّامِ التَّشريقِ ذبْحٌ . ((أخرجه أحمد وصححه الألباني))</p>\n<p>অর্থ- এবং আইয়্যামে তাশরীক্বের সবগুলো দিনই হলো যবেহ (অর্থাৎ ক্বোরবানী) করার দিন। ((মুছনাদুল ইমাম আহ্\u200cমাদ। ইমাম আল আলবানী <span style=\"font-family: 'Arabic Symbols';\">(رَحِمَهُ ٱللَّٰهُ)</span> হাদীছটিকে সাহীহ্\u200c বলেছেন))<br />\nএই হাদীছেও তাশরীক্বের আইয়্যাম বা দিনগুলোর কথা বলা হয়েছে। আর আইয়্যাম বা দিন বলতে রাতকেও বুঝায়। এছাড়া উক্ত হাদীছে ক্বোরবানীর সময়-সীমা বলা হয়েছে। এই সময়-সীমার মধ্যে রাত যদি অন্তর্ভুক্ত না হতো তাহলে কেবল “দিনের বেলা”-র কথা পৃথক ভাবে বলা হতো।</p>\n<p>তাছাড়া দিনের বেলা বা রাত্রিবেলা যে কোন সময়ই পশু যবেহ করা আল্লাহ <span style=\"font-family: 'Arabic Symbols';\">(unknown text)</span> বৈধ করে দিয়েছেন। “রাতের বেলা ক্বোরবানী করা মাকরূহ” সাব্যস্থ করতে হলে এর পক্ষে সুস্পষ্ট দালীল থাকতে হবে। অথচ এই মর্মে স্পষ্ট কোন দালীল নেই। অতএব দালীল ব্যতীত এরকম কোন বিষয়কে হারাম তো দূরের কথা মাকরূহও সাব্যস্থ করা যাবে না।</p>\n<p>শাইখ মুহাম্মাদ ইবনু সালিহ্\u200c আল ‘উছাইমীন <span style=\"font-family: 'Arabic Symbols';\">(رَحِمَهُ ٱللَّٰهُ)</span> বলেছেন:- রাতের চেয়ে দিনের বেলা ক্বোরবানী করা উত্তম। ২য়, ৩য় ও ৪র্থ দিনের চেয়ে প্রথম দিন ক্বোরবানী করা উত্তম। ‘ঈদের সালাতের পরপরই ক্বোরবানী করা জা-ইয, তবে সালাত এবং খুতবাহ দু’টি শেষ হওয়ার পর দ্রুত ক্বোরবানী করা উত্তম।</p>\n<p>(সূত্রঃ- আহ্\u200cকামুল উযহিয়্যাহ লিশ্\u200c শাইখ মুহাম্মাদ ইবনি সালিহ আল ‘উছাইমীন (<span style=\"font-family: 'Arabic Symbols';\">(رَحِمَهُ ٱللَّٰهُ)</span>)</p>\n<p>-----------------------------------</p>\n<p>প্রশ্নঃ- মৃত ব্যক্তির পক্ষ হতে ক্বোরবানী করা কি জা-ইয?<br />\nউত্তরঃ- হ্যাঁ, মৃত ব্যক্তি যদি যদি তার রেখে যাওয়া এক তৃতীয়াংশ সম্পদের মধ্যে ওসীয়্যাত করে থাকেন অথবা ক্বোরবানী করার জন্য তিনি যদি তার কোন সম্পদ ওয়াক্বফ বা নির্ধারণ করে যান, তাহলে সেই সম্পদ হতে তার পক্ষ থেকে ক্বোরবানী করা এবং তার ওসীয়্যাত বাস্তবায়ন করা ওয়াজিব। আর মৃত ব্যক্তি যদি এরূপ কিছু করে না যান, বরং কেউ যদি নিজে থেকে চায় তার মৃত বাবা, মা এর পক্ষ হতে অথবা এদু’জন ব্যতিত মৃত অন্য কোন আত্মীয় স্বজনের পক্ষ হতে ক্বোরবানী করতে, তাহলে সেটাও করা যাবে। এটি একটি উত্তম কাজ। কেননা তা মৃত ব্যক্তির পক্ষ হতে সাদাক্বাহ করার পর্যায়ভুক্ত। আর মৃত ব্যক্তির পক্ষ হতে সাদাক্বাহ করা বৈধ ও উত্তম কাজ। এটি আহলুছ্\u200c ছুন্নাহ ওয়াল জামা‘আতের সকলেরই কথা। তবে এক্ষেত্রে কেউ চাইলে মায়্যিতের পক্ষ হতে ক্বোরবানীর পরিবর্তে এর সমপরিমাণ মূল্যও সাদাক্বাহ করে দিতে পারবে।</p>\n<p>সূত্রঃ- মাজমূ‘উ ফাতাওয়া ওয়া মাক্বালাতুশ্\u200c শাইখ ইবনি বায। ভলিয়ম ১৮, পৃষ্ঠা নং ৪০।<br />\nফাতওয়া নূরুন ‘আলাদ দার্\u200cব- হুকমুল উযহিয়্যাহ ‘আনিল হায়্যি ওয়াল মায়্যিত।<br />\n(উল্লেখ্য যে, কেউ যদি সাধারণতঃ তার মৃত বাবা, মা বা অন্য কোন মায়্যিতের জন্য নগদ টাকা-পয়সা সাদাক্বাহ করে থাকেন, তাহলে ক্বোরবানীর সময় তার জন্য তাদের পক্ষ হতে ক্বোরবানী সাদাক্বাহ করা হবে উত্তম। কারণ, এক ধরনের সাদাক্বাহ করার চেয়ে শারী‘আত সম্মত পন্থায় বিভিন্ন ধরনের সাদাক্বাহ করা উত্তম।)</p>\n<p>-----------------------------------</p>\n<p>প্রশ্নঃ- ক্বোরবানীর পশু যবেহ্\u200c করার সময় মহিলারা কি পুরুষকে সাহায্য করতে পারে, যেমন মা তার ছেলেকে, মেয়ে তার বাবাকে কিংবা স্ত্রী তাঁর স্বামীকে যবেহ্\u200c এর কাজে সাহায্য করতে পারে? <br />\nউত্তরঃ- হ্যাঁ, অবশ্যই করতে পারে। কেননা <span style=\"font-family: 'Arabic Symbols';\">(رَضِيَ ٱللَّٰهُ عَنْهَا) </span>হতে বর্ণিত:-</p>\n<p style=\"text-align: right;\">أنَّ رَسولَ اللهِ صَلَّى اللَّهُ عليه وسلَّمَ أَمَرَ بكَبْشٍ أَقْرَنَ يَطَأُ في سَوَادٍ، وَيَبْرُكُ في سَوَادٍ، وَيَنْظُرُ في سَوَادٍ، فَأُتِيَ به لِيُضَحِّيَ به، فَقالَ لَهَا: يا عَائِشَةُ، هَلُمِّي المُدْيَةَ، ثُمَّ قالَ: اشْحَذِيهَا بحَجَرٍ، فَفَعَلَتْ: ثُمَّ أَخَذَهَا، وَأَخَذَ الكَبْشَ فأضْجَعَهُ، ثُمَّ ذَبَحَهُ، ثُمَّ قالَ: باسْمِ اللهِ، اللَّهُمَّ تَقَبَّلْ مِن مُحَمَّدٍ، وَآلِ مُحَمَّدٍ، وَمِنْ أُمَّةِ مُحَمَّدٍ، ثُمَّ ضَحَّى بهِ. ((صحيح مسلم ))</p>\n<p>অর্থ- রাছূলুল্লাহ <span style=\"font-family: 'Arabic Symbols';\">(ﷺ)</span>- শিংওয়ালা, কালো পা, কালো পেট ও কালো চক্ষু বিশিষ্ট একটি ভেড়া নিয়ে আসার নির্দেশ দেন। তাই তা নিয়ে আসা হলো তাঁর ক্বোরবানীর জন্যে। অতঃপর রাছূলুল্লাহ <span style=\"font-family: 'Arabic Symbols';\">(ﷺ)</span> ‘আ-ইশাহ <span style=\"font-family: 'Arabic Symbols';\">(رَضِيَ ٱللَّٰهُ عَنْهَا)</span>-কে ছুরি নিয়ে আসতে বললেন, তারপর তাঁকে বললেন</p>\n<p>সেটিকে পাথর দিয়ে ধার করে নিতে। তিনি (‘আ-ইশাহ <span style=\"font-family: 'Arabic Symbols';\">(رَضِيَ ٱللَّٰهُ عَنْهَا)</span>) তা করলেন, অতঃপর তিনি ভেড়াটিকে ধরলেন এবং রাছূলুল্লাহ সা্ল্লাল্লাহু ‘আলাইহি ওয়া ছাল্লামও ভেড়াটিকে ধরে কাত করে শুইয়ে দিলেন। তারপর তিনি সেটিকে “বিছমিল্লাহ” বলে যবেহ্\u200c করলেন, এবং বললেন “আল্লাহুম্মা তাক্বাব্বাল মিন মুহাম্মাদ ওয়া আ-লি মুহাম্মাদ ওয়া মিন উম্মাতি মুহাম্মাদ” আর এভাবেই তিনি (রাছূলুল্লাহ <span style=\"font-family: 'Arabic Symbols';\">(ﷺ)</span>) তাঁর ক্বোরবানী সম্পাদন করেন। ((সাহীহ্\u200c মুছলিম))</p>\n<p>এই হাদীছ থেকে একথা স্পষ্টভাবে প্রমাণিত যে, মহিলারাও পুরুষকে ক্বোরবানীর কাজে সহযোগিতা করতে পারেন।</p>\n<p>&nbsp;</p>\n<p>প্রশ্নঃ- কোন মুছলিমাহ নারী কি ক্বোরবানীর পশু যবেহ্\u200c করতে পারেন, এটি কি শারী‘আতে জা-ইয তথা বৈধ?<br />\nউত্তরঃ- হ্যাঁ, অবশ্যই সুন্দরভাবে যবেহ করতে সক্ষম হলে মহিলা তার নিজের ক্বোরবানীর পশু নিজ হাতে যবেহ্\u200c করতে পারেন।<br />\nএর প্রমাণ হলো- কা‘ব ইবনু মালিক<span style=\"font-family: 'Arabic Symbols';\">(رضي الله عنه)</span>থেকে বর্ণিত, একদা একজন মহিলা একটি ছাগলকে (ধারালো) পাথর দ্বারা যবেহ করেন। অতঃপর এবিষয়ে (যবেহকৃত এ পশুটির গোশত খাওয়া যাবে কি-না) <span style=\"font-family: 'Arabic Symbols';\">(ﷺ)</span>-কে জিজ্ঞেস করা হলে তিনি সেটি খাওয়ার নির্দেশ দেন। ((সাহীহ্\u200c বুখারী))</p>\n<p>এখানে রাছূলুল্লাহ <span style=\"font-family: 'Arabic Symbols';\">(ﷺ)</span> একথাও জানতে চাননি যে, যবেহ্\u200c করার সময় মহিলা পবিত্র অবস্থায় ছিলেন কি-না।<br />\nতাই এই হাদীছ থেকে একথা স্পষ্টভাবে প্রমাণিত যে, মহিলারা যে অবস্থায় থাকুন না কেন (যদি যবেহ্\u200c হালাল হওয়ার অন্যান্য শর্তগুলো বিদ্যমান থাকে), তারা উট, গরু, ছাগল, দুম্বা, ভেড়া সহ অন্যান্য হালাল যে কোন পশু-পাখি যবেহ্\u200c করতে পারবেন- শারী‘আতের দৃষ্টিতে তা জা-ইয এবং পুরুষদের যবেহ্\u200cকৃত পশু যেমন বৈধ তেমনি নারীদেরও।</p>\n<p>প্রশ্নঃ- মহিষ দ্বারা ক্বোরবানী করা জা-ইয কি-না?<br />\nউত্তরঃ- হ্যাঁ, জা-ইয। কেননা মহিষ হলো গরু গোত্রীয় জন্তু। তাই গরুর ক্ষেত্রে যে হুক্\u200cম, মহিষের ক্ষেত্রেও সেই হুক্\u200cম প্রযোজ্য। ক্বোরআনে কারীমে আল্লাহ <span style=\"font-family: 'Arabic Symbols';\">(سُبْحَانَهُ وَتَعَالَىٰ)</span> গরুর কথা উল্রেখ করেছেন, মহিষের কথা উল্লেখ করেননি, এটা এ কারণে যে, তখনকার সময়ে ‘আরাবদের কাছে গরু ছিল বেশি পরিচিত জন্তু, মহিষ তারা খুব একটা চিনতেন না।</p>\n<p>সূত্রঃ- মাজমূ‘উ ফাতাওয়া ওয়া রাছাইলুশ্\u200c শাইখ ‘উছাইমীন (<span style=\"font-family: 'Arabic Symbols';\">(رَحِمَهُ ٱللَّٰهُ)</span>)।</p>",
  "published_on": "Fri, 08 Jul 2022 12:51:02 +0000"
}