{
  "name": "shirkulakbar-wa-asgar",
  "title": "শির্\u200cকে আকবার (বড় শির্\u200cক) ও শির্\u200cকে আসগার (ছোট শির্\u200cক) এর মধ্যে পার্থক্য কি?",
  "categories": [
    { "name": "islamic-aqeedah-eemaan", "url": "category-islamic-aqeedah-eemaan.json" },
    {
      "name": "categories-and-kinds-of-shirk",
      "url": "category-categories-and-kinds-of-shirk.json"
    }
  ],
  "content": "<p dir=\"ltr\">(১) শির্\u200cকে আকবার সবচেয়ে বড় অন্যায় ও অপরাধ। এর প্রমাণ হলো ক্বোরআনে কারীমের নিম্নোক্ত আয়াত- লুক্বমান <span style=\"font-family: 'Arabic Symbols';\">(ﷷ ﷵ)</span> তাঁর ছেলেকে বলেছিলেন:-</p><p dir=\"rtl\">يَا بُنَيَّ لَا تُشْرِكْ بِاللَّهِ إِنَّ الشِّرْكَ لَظُلْمٌ عَظِيمٌ. ((سورة لقمان- ١٣))</p><p dir=\"ltr\">অর্থাৎ- হে আমার বৎস, আল্লাহ্\u200cর সাথে অংশীদার নির্ধারণ করো না। নিশ্চয় আল্লাহ্\u200cর (<span style=\"font-family: 'Arabic Symbols';\">(سُبْحَانَهُ وَتَعَالَىٰ)</span>) সাথে শির্\u200cক করা মহা যুল্\u200cম। ((ছূরা লোক্বমান- ১৩))<br /> অন্য আয়াতে আল্লাহ <span style=\"font-family: 'Arabic Symbols';\">(unknown text)</span> ইরশাদ করেছেন:-</p><p dir=\"rtl\">الَّذِينَ آمَنُوا وَلَمْ يَلْبِسُوا إِيمَانَهُمْ بِظُلْمٍ أُولَئِكَ لَهُمُ الأَْمْنُ وَهُمْ مُهْتَدُونَ. ((سورة الأنعام- ٨٢))</p><p>অর্থাৎ- যারা ঈমান আনে এবং নিজের ঈমানকে যুলমের (শিরকের) সাথে মিশ্রিত করে না, তাদের জন্যেই শান্তি এবং তারাই সুপথগামী। ((ছূরা আল আন‘আম- ৮২))<br /> এ আয়াতে যুল্\u200cম বলতে শির্\u200cককে বুঝানো হয়েছে। এর প্রমাণ হলো- সাহীহ্\u200c বুখারী ও সাহীহ্\u200c মুছলিমে বর্ণিত হাদীছে রয়েছে যে, উপরোক্ত আয়াত নাযিল হওয়ার পর সাহাবায়ে কিরাম <span style=\"font-family: Arabic Symbols;\">(unknown text) </span>অত্যন্ত বিচলিত হয়ে রাছূলকে (<span style=\"font-family: 'Arabic Symbols';\">(ﷺ)</span>) জিজ্ঞেস করলেন- হে আল্লাহ্\u200cর (<span style=\"font-family: 'Arabic Symbols';\">(سُبْحَانَهُ وَتَعَالَىٰ)</span>) রাছূল <span style=\"font-family: 'Arabic Symbols';\">(ﷺ)</span> আমাদের মধ্যে কে এমন আছে, যে তার নাফ্\u200cছের উপর যুল্\u200cম করেনি? (অর্থাৎ- আমরা প্রত্যেকেই তো কম-বেশি নিজের নাফ্\u200cছের উপর অত্যাচার করছি। তাহলে তো আমরা কেউই আল্লাহ্\u200cর ‘আযাব থেকে নিরাপদ এবং হিদায়াতপ্রাপ্ত নই।) প্রতি উত্তরে রাছূল <span style=\"font-family: 'Arabic Symbols';\">(ﷺ)</span> তাদেরকে বললেন:- “আয়াতটির মর্ম তোমরা যা মনে করছ তা নয়, বরং এ আয়াতে যুল্\u200cম বলতে ঐ শির্\u200cককেই বুঝানো হয়েছে, যে শির্\u200cক সম্পর্কে সতর্ক ও সাবধান করতে যেয়ে লুক্বমান <span style=\"font-family: 'Arabic Symbols';\">(ﷷ ﷵ)</span> তাঁর ছেলেকে বলেছিলেন:-</p><p dir=\"rtl\">يَا بُنَيَّ لَا تُشْرِكْ بِاللَّهِ إِنَّ الشِّرْكَ لَظُلْمٌ عَظِيمٌ. ((سورة لقمان- ١٣))</p><p>অর্থাৎ- হে আমার বৎস! আল্লাহ্\u200cর সাথে শির্\u200cক করো না, নিশ্চয় শির্\u200cক হলো এক মহা যুল্\u200cম। ((ছূরা লুক্বমান- ১৩))<br /> ‘আব্দুল্লাহ ইবনু মাছ‘ঊদ <span style=\"font-family: 'Arabic Symbols';\">(رَضِيَ ٱللَّٰهُ عَنْهُ)</span> থেকে বর্ণিত, তিনি বলেছেন যে, আমি আল্লাহ্\u200cর রাছূলকে (<span style=\"font-family: 'Arabic Symbols';\">(ﷺ)</span>) জিজ্ঞেস করেছিলাম যে, কোন গুনাহ্\u200cটি আল্লাহ্\u200cর (<span style=\"font-family: 'Arabic Symbols';\">(عَزَّ وَجَلَّ)</span>) নিকট সবচেয়ে বড়? এর উত্তরে রাছূল <span style=\"font-family: 'Arabic Symbols';\">(ﷺ)</span> বলেছেন:- ‘‘সেটি হলো- যে আল্লাহ্ তোমাকে সৃষ্টি করেছেন তাঁর সাথে কাউকে অংশীদার (শরীক) নির্ধারণ করা’’। ((সাহীহ্\u200c বুখারী, সাহীহ্\u200c মুছলিম, মুছনাদে ইমাম আহ্\u200cমাদ))<br /> শির্\u200cকে আসগার সাধারণ কাবীরা গুনাহের অন্তর্ভুক্ত।<br /> এর প্রমাণ হলো আল্লাহ্\u200cর (<span style=\"font-family: 'Arabic Symbols';\">(unknown text)</span>) এ বাণী:-</p><p dir=\"rtl\">إِنَّ اللّهَ لاَ يَغْفِرُ أَن يُشْرَكَ بِهِ وَيَغْفِرُ مَا دُونَ ذَلِكَ لِمَن يَشَاء. ((سورة النساء-  ٤٨))</p><p>অর্থাৎ- নিঃসন্দেহে আল্লাহ তাঁর সাথে শির্\u200cক করার পাপ ক্ষমা করেন না, তিনি ক্ষমা করেন এর নিম্ন পর্যায়ের পাপ যার জন্য তিনি ইচ্ছা করেন। ((ছূরা আন্\u200c নিছা- ৪৮))<br /> এ আয়াত এবং উপরে উল্লেখিত হাদীছ সমূহ থেকে প্রমাণিত হয় যে, শির্\u200cকে আসগার শির্\u200cকে আকবারের পর্যায়ভুক্ত নয় বরং তা অন্যান্য কাবীরাহ গুনাহের অন্তর্ভুক্ত। কেননা তাতে স্পষ্ট ও প্রত্যক্ষভাবে আল্লাহ্\u200cর (<span style=\"font-family: 'Arabic Symbols';\">(سُبْحَانَهُ وَتَعَالَىٰ)</span>) সাথে কোন অংশীদার নির্ধারণ করা হয় না।<br /> (২) শির্\u200cকে আকবার (বড় শির্\u200cক) মুছলমানকে ইছলাম থেকে বের করে দেয়। অর্থাৎ শির্\u200cকে আকবার করলে মুছলমান ইছলাম থেকে বহিষ্কৃত হয়ে যায়; সে আর মুছলমান থাকে না। যদিও সে নিজেকে মুছলিম বলে দাবি করে এবং ধর্মীয় কাজ-কর্ম করে থাকে, তথাপি আল্লাহ <span style=\"font-family: 'Arabic Symbols';\">(عَزَّ وَجَلَّ)</span> ও তাঁর রাছূলের (<span style=\"font-family: 'Arabic Symbols';\">(ﷺ)</span>) দৃষ্টিতে সে আর মুছলিম বলে গণ্য হয় না।<br /> এর প্রমাণ হলো আল্লাহ্\u200cর (<span style=\"font-family: 'Arabic Symbols';\">(ﷻ)</span>) এ বাণী:-</p><p dir=\"rtl\">وَيَقُولُونَ آمَنَّا بِاللَّهِ وَبِالرَّسُولِ وَأَطَعْنَا ثُمَّ يَتَوَلَّى فَرِيقٌ مِنْهُمْ مِنْ بَعْدِ ذَلِكَ وَمَا أُولَئِكَ بِالْمُؤْمِنِينَ. ((سورة النور- ٤٧))</p><p>অর্থাৎ- তারা বলে আমরা আল্লাহ ও রাছূলের প্রতি বিশ্বাস স্থাপন করেছি এবং আনুগত্য করি; কিন্তু অতঃপর তাদের একদল মুখ ফিরিয়ে নেয়, প্রকৃতপক্ষে তারা বিশ্বাসী নয়। ((ছূরা আন্\u200cনূর- ৪৭))<br /> পক্ষান্তরে শিরকে আসগার (ছোট শির্\u200cক) মুছলমানকে ইছলাম থেকে বের করে দেয় না। অর্থাৎ শিরকে আসগার করার কারণে কোন মুছলিম, কাফির-মুশরিকে পরিণত হয় না, বা ইছলাম থেকে বহিষ্কৃত হয়ে যায় না।<br /> (৩) শির্\u200c\u200cকে আকবার একটি হলেও তা কর্তাব্যক্তির অতীতের যাবতীয় নেক ‘আমাল ধ্বংস করে দেয়। অর্থাৎ কোন মুছলমান যদি মাত্র একটি শির্\u200cকে আকবার করে, তাহলে তা তার অতীতের যাবতীয় নেক ‘আমাল ধ্বংস করে দেবে।<br /> এর প্রমাণ হলো আল্লাহ্\u200cর (<span style=\"font-family: 'Arabic Symbols';\">(سُبْحَانَهُ وَتَعَالَىٰ)</span>) এ বাণী:-</p><p dir=\"rtl\">وَلَوْ أَشْرَكُوا لَحَبِطَ عَنْهُمْ مَا كَانُوا يَعْمَلُونَ. ((سورة الأنعام- ۸۸))</p><p>অর্থাৎ- যদি তারা শির্\u200cক করতেন, তাহলে তাদের কাজকর্ম তাদের জন্যে নিষ্ফল হয়ে যেত। ((ছূরা আল আন‘আম- ৮৮))<br /> অন্য আয়াতে আল্লাহ <span style=\"font-family: 'Arabic Symbols';\">(عَزَّ وَجَلَّ)</span> ইরশাদ করছেন:-</p><p dir=\"rtl\">لَئِنْ أَشْرَكْتَ لَيَحْبَطَنَّ عَمَلُكَ. ((سورة الزمر- ٦٥))</p><p>অর্থাৎ- যদি (আল্লাহ্\u200cর সাথে) অংশীদার সাব্যস্ত করেন, তবে আপনার কর্ম অবশ্যই নিষ্ফল হয়ে যাবে। ((ছূরা আয্\u200cযুমার- ৬৫))<br /> পক্ষান্তরে শির্\u200cকে আসগার অতীতের সকল নেক ‘আমালকে ধ্বংস করে দেয় না, বরং তা শুধুমাত্র সংশ্লিষ্ট ‘আমালকেই (যে ‘আমাল বা ‘ইবাদাতে শির্\u200cকে আসগার সংঘটিত হয়েছে, শুধুমাত্র সে ‘আমালটিকেই) বাত্বিল ও বরবাদ করে।<br /> (৪) যে ব্যক্তি শির্\u200cকে আকবার করে, সে যদি খাঁটিভাবে তাওবা করে নতুন করে ইছলাম গ্রহণ না করে, তাহলে সে জাহান্নামের চিরস্থায়ী বাসিন্দা হয়ে যায়। জান্নাত তার জন্য হারাম হয়ে যায় এবং সে ব্যক্তি সম্পূর্ণরূপে আল্লাহ্\u200cর (<span style=\"font-family: 'Arabic Symbols';\">(سُبْحَانَهُ وَتَعَالَىٰ)</span>) ক্ষমার অযোগ্য হয়ে যায়।<br /> যেমন ক্বোরআনে কারীমে আল্লাহ <span style=\"font-family: 'Arabic Symbols';\">(unknown text)</span> ইরশাদ করেছেন:-</p><p dir=\"rtl\">إِنَّهُ مَن يُشْرِكْ بِاللّهِ فَقَدْ حَرَّمَ اللّهُ عَلَيهِ الْجَنَّةَ وَمَأْوَاهُ النَّارُ وَمَا لِلظَّالِمِينَ مِنْ أَنصَارٍ. ((سورة المائدة- ٧٢))</p><p>অর্থাৎ- নিশ্চয় যে ব্যক্তি আল্লাহ্\u200cর সাথে অংশীদার স্থির করে, আল্লাহ তার জন্যে জান্নাত হারাম করে দেন এবং তার বাসস্থান হয় জাহান্নাম। আর অত্যাচারীদের কোন সাহায্যকারী নেই। ((ছূরা আল মা-য়িদা- ৭২))<br /> পক্ষান্তরে যে ব্যক্তি শির্\u200cকে আসগার করবে, সে জাহান্নামের চিরস্থায়ী বাসিন্দা হবে না। তার এ অপরাধ ক্ষমাযোগ্য, আল্লাহ <span style=\"font-family: 'Arabic Symbols';\">(سُبْحَانَهُ وَتَعَالَىٰ)</span> চাইলে নিজ দয়া-গুণে তাকে ক্ষমা করে দিতে পারেন।<br /> এ কথার প্রমাণ হলো আল্লাহ্\u200cর (<span style=\"font-family: 'Arabic Symbols';\">(ﷻ)</span>) এ বাণী:-</p><p dir=\"rtl\">إِنَّ اللّهَ لاَ يَغْفِرُ أَن يُشْرَكَ بِهِ وَيَغْفِرُ مَا دُونَ ذَلِكَ لِمَن يَشَاء. ((سورة النساء- ٤٨))</p><p>অর্থাৎ- নিঃসন্দেহে আল্লাহ তাঁর সাথে শির্\u200cক করার পাপ ক্ষমা করেন না, তিনি ক্ষমা করেন এর নিম্ন পর্যায়ের পাপ যার জন্য তিনি ইচ্ছা করেন। ((ছূরা আন্\u200c নিছা- ৪৮))<br /> (৫) যে ব্যক্তি শির্\u200cকে আকবার করে, সে তাওবা করে নতুন করে ইছলাম গ্রহণ না করেলে শারী‘য়াতের দৃষ্টিতে তার জান ও মালের কোন নিরাপত্তা নেই (অর্থাৎ শারী‘য়াতে ইছলামিয়্যাহ্\u200cর দৃষ্টিতে সে মৃত্যুদন্ডের যোগ্য এবং তার সম্পদ বাজেয়াপ্তযোগ্য)।<br /> এর প্রমাণ হলো আল্লাহ্\u200cর (<span style=\"font-family: 'Arabic Symbols';\">(عَزَّ وَجَلَّ)</span>) এ বাণী:-</p><p dir=\"rtl\">فَإِذَا انسَلَخَ الأَشْهُرُ الْحُرُمُ فَاقْتُلُواْ الْمُشْرِكِينَ حَيْثُ وَجَدتُّمُوهُمْ وَخُذُوهُمْ وَاحْصُرُوهُمْ وَاقْعُدُواْ لَهُمْ كُلَّ مَرْصَدٍ فَإِن تَابُواْ وَأَقَامُواْ الصَّلاَةَ وَآتَوُاْ الزَّكَاةَ فَخَلُّواْ سَبِيلَهُمْ إِنَّ اللّهَ غَفُورٌ رَّحِيمٌ. ((سورة النوبة- ٥))</p><p>অর্থাৎ- অতঃপর নিষিদ্ধ মাসগুলো আতিবাহিত হলে মুশরিকদের হত্যা করো যেখানে তাদের পাও, তাদের বন্দী করো এবং অবরোধ করো। আর প্রত্যেক ঘাঁটিতে তাদের সন্ধানে ওৎপেতে বসে থাকো। কিন্তু যদি তারা তাওবা করে, নামায ক্বায়িম করে ও যাকাত প্রদান করে, তাহলে তাদের পথ ছেড়ে দাও। নিশ্চয় আল্লাহ অতি ক্ষমাশীল, পরম দয়ালু। ((ছূরা আত্\u200c তাওবাহ্- ৫))<br /> পক্ষান্তরে শির্\u200cকে আসগারকারী যদিও ফাসিক্ব, তথাপি মু’মিন হওয়ার কারণে শারী‘য়াতের দৃষ্টিতে ইছলামী রাষ্ট্রের কাছে তার জীবন ও সম্পদের নিরাপত্তা রয়েছে। সে মৃত্যুদন্ড যোগ্য নয় এবং তার সম্পদও বাজেয়াপ্তযোগ্য নয়। এ সম্পর্কে রাছূল <span style=\"font-family: 'Arabic Symbols';\">(ﷺ)</span> বলেছেন:-</p><p dir=\"rtl\">مَنْ قَالَ: لَا إِلَهَ إِلَّا اللهُ، وَكَفَرَ بِمَا يُعْبَدُ مَنْ دُونِ اللهِ، حَرُمَ مَالُهُ، وَدَمُهُ، وَحِسَابُهُ عَلَى اللهِ. ((صحيح مسلم))</p><p>অর্থ- যে ব্যক্তি “আল্লাহ <span style=\"font-family: 'Arabic Symbols';\">(unknown text)</span> ব্যতীত আর কোন মা‘বূদ নেই” একথা স্বীকার করবে এবং আল্লাহ <span style=\"font-family: 'Arabic Symbols';\">(سُبْحَانَهُ وَتَعَالَىٰ)</span> ব্যতীত যত কিছুর উপাসনা করা হয়, সে সবকে অস্বীকার করবে, তার সম্পদ ও রক্ত (মাল ও জান) নিষিদ্ধ। আর তার হিসাব আল্লাহ্\u200cর (<span style=\"font-family: 'Arabic Symbols';\">(عَزَّ وَجَلَّ)</span>) নিকট রয়েছে। ((সাহীহ্\u200c মুছলিম))<br /> অন্য হাদীছে বর্ণিত রয়েছে, রাছূল <span style=\"font-family: 'Arabic Symbols';\">(ﷺ)</span> বলেছেন:-</p><p dir=\"rtl\">أُمِرْتُ أَنْ أُقَاتِلَ النَّاسَ حَتَّى يَشْهَدُوا أَنْ لاَ إِلَهَ إِلَّا اللَّهُ، وَأَنَّ مُحَمَّدًا رَسُولُ اللَّهِ، وَيُقِيمُوا الصَّلاَةَ، وَيُؤْتُوا الزَّكَاةَ، فَإِذَا فَعَلُوا ذَلِكَ عَصَمُوا مِنِّي دِمَاءَهُمْ وَأَمْوَالَهُمْ إِلَّا بِحَقِّ الإِسْلاَمِ، وَحِسَابُهُمْ عَلَى اللَّهِ. ((رواه البخاري و مسلم))</p><p>অর্থ- আমাকে নির্দেশ দেয়া হয়েছে মানুষের বিরুদ্ধে ততক্ষণ পর্যন্ত লড়াই চালিয়ে যেতে, যতক্ষণ না তারা এই ঘোষণা ও সাক্ষ্য প্রদান করবে যে, আল্লাহ <span style=\"font-family: 'Arabic Symbols';\">(سُبْحَانَهُ وَتَعَالَىٰ)</span> ব্যতীত আর কোন মা‘বূদ নেই, আর মুহাম্মাদ আল্লাহ্\u200cর (<span style=\"font-family: 'Arabic Symbols';\">(ﷻ)</span>) রাছূল, এবং নামায ক্বায়িম করবে, যাকাত প্রদান করবে। আর যখন তারা এ কাজগুলো করে নিবে তখন তারা তাদের জান ও মাল আমার হাত থেকে নিরাপদ করে নিবে, তবে যদি ইছলামের কোন হাক্ব থাকে (তাদের জান-মালের উপর, তবে তা ভিন্ন কথা)। আর তাদের হিসাব আল্লাহ্\u200cর (<span style=\"font-family: 'Arabic Symbols';\">(سُبْحَانَهُ وَتَعَالَىٰ)</span>) নিকট রয়েছে। ((সাহীহ্\u200c বুখারী ও সাহীহ্\u200c মুছলিম))<br /> শির্\u200cকে আসগার বা শির্\u200cকে খাফি:- যে সব কথা ও কাজের মাধ্যমে মানুষ শির্\u200cকে আকবারের দিকে ধাবিত হয়, সেসব কথা ও কাজ শির্\u200cকে আসগার বা ছোট শির্\u200cক হিসেবে গণ্য হয়।<br /> যেমন- মাখলূক্বের তথা আল্লাহ্\u200cর সৃষ্ট কোন বস্তুর ব্যাপারে এই পরিমাণ সীমালংঘন করা, যা ‛ইবাদাতের পর্যায়ে পৌছে না। ‛ইবাদাতের পর্যায়ে পৌছলে তা শির্\u200cকে আকবারে পরিণত হবে। যেমন- গাইরুল্লাহ্\u200cর (আল্লাহ ব্যতীত অন্য কারো) নামে শপথ করা, রিয়া বা লোক দেখানোর উদ্দেশ্যে কোন ‘আমাল বা ‘ইবাদাত করা,\u200c\u200c\u200c\u200c\u200c \u200c\u200c\u200c\u200c\u200c\u200c\u200c\u200c“আল্লাহ <span style=\"font-family: 'Arabic Symbols';\">(unknown text)</span> আর আপনি যা চান” “আল্লাহ <span style=\"font-family: 'Arabic Symbols';\">(سُبْحَانَهُ وَتَعَالَىٰ)</span> আর আপনি যদি না হতেন” এ ধরনের কথা-বার্তা বলা ।<br /> শির্\u200cকে আসগার এর সংজ্ঞা দান প্রসঙ্গে কোন কোন ‘উলামায়ে কিরাম বলেছেন:- “শির্\u200cকে আকবার নয় এমন যেসব কর্মকে শারী‘আতের “নাস” অর্থাৎ সুস্পষ্ট প্রমাণ দ্বারা শির্\u200cক বলে নামকরণ করা হয়েছে, সেগুলোই হচ্ছে শিরকে আসগার। যেমন- কেউ যদি বলে:<br /> (ما شأء الله وشئت) “আল্লাহ আর আপনি যা চান” (و لو لا الله وأنت لكان كذا و كذا) “আল্লাহ্ আর আপনি যদি উপস্থিত না থাকতেন বা না হতেন, তা হলে আমার মহা বিপদ হয়ে যেতো”। অনুরূপভাবে আল্লাহ <span style=\"font-family: 'Arabic Symbols';\">(ﷻ)</span> ব্যতীত অপর কারো নামে শপথ করা ইত্যাদি।<br /> আল ‘আল্লামা ইমাম ইবনুল ক্বায়্যিম আল জাওযিয়্যাহ <span style=\"font-family: 'Arabic Symbols';\">(رَحِمَهُ ٱللَّٰهُ)</span> (৬৯১-৭৫১ হিজরী) শির্\u200cকে আসগার এর উদাহরণ দিতে যেয়ে বলেছেন:- ‘ইবাদাতে লোক দেখানো ভাব করা, মানুষের সন্তুষ্টি লাভের উদ্দেশ্যে কোন কাজ করা, “আমি আল্লাহ ও আপনার উপর ভরসা করেছি” এমনটি বলা, “আল্লাহ <span style=\"font-family: 'Arabic Symbols';\">(سُبْحَانَهُ وَتَعَالَىٰ)</span> ও আপনি না হলে এমনটি হতো” এরকম কথা বলা।<br /> এ সব উদাহরণ প্রদানের পর তিনি (ইমাম ইবনুল ক্বায়্যিম আল জাওযিয়্যাহ <span style=\"font-family: 'Arabic Symbols';\">(رَحِمَهُ ٱللَّٰهُ)</span> বলেছেন:- “শির্\u200cকে আসগার কখনও কর্তা ব্যক্তির মানসিক অবস্থা ও উদ্দেশ্যের পরিপ্রেক্ষিতে শির্\u200cকে আকবারেও রূপান্তরিত হতে পারে”।<br /> আল্লাহ <span style=\"font-family: 'Arabic Symbols';\">(عَزَّ وَجَلَّ)</span> আমাদেরকে সকল প্রকার শির্\u200cক থেকে বেঁচে থাকার তাওফীক্ব দান করুন- আ-মী-ন।</p>",
  "published_on": "Wed, 28 May 2014 20:17:04 +0000"
}