{
  "name": "meaning-and-division-of-tawheed",
  "title": "তাওহীদ অর্থ কি, তাওহীদ কত প্রকার ও কি কি?",
  "categories": [
    {
      "name": "testifications-vs-tawheed-and-risalat",
      "url": "category-testifications-vs-tawheed-and-risalat.json"
    },
    { "name": "al-islam", "url": "category-al-islam.json" }
  ],
  "content": "<p dir=\"ltr\">তাওহীদ শব্দের আভিধানিক অর্থ- এক করা, একক ও অদ্বিতীয় সাব্যস্ত করা, একত্ববাদ প্রতিষ্ঠা করা। শারী‘য়াতের পরিভাষায় তাওহীদের অর্থ হলো- আল্লাহ্\u200cকে (<span style=\"font-family: 'Arabic Symbols';\">(سُبْحَانَهُ وَتَعَالَىٰ)</span>) তাঁর সুমহান জাত (সত্তা) সর্বসুন্দর নাম ও সিফাতে (গুণরাজি-বৈশিষ্ট্যে) এবং তাঁর অধিকার, কর্ম ও কর্তৃত্বে এক, একক ও অদ্বিতীয় ষোষণা ও সাব্যস্ত করা, এবং এসব ক্ষেত্রে নিজের কথা, কাজ ও বিশ্বাসের দ্বারা আল্লাহ্\u200cর একত্ব অক্ষুন্ন রাখা।</p>\n<p dir=\"ltr\">তাওহীদ তিন প্রকার যথা:-</p>\n<p dir=\"ltr\">(১) তাওহীদুর রুবূবিয়্যাহ। আর তা হলো- নিজের কথা, কাজ ও বিশ্বাসের দ্বারা আল্লাহ্\u200cকে (<span style=\"font-family: 'Arabic Symbols';\">(ﷻ)</span>) তাঁর যাবতীয় কর্ম ও কর্তৃত্বে এক ও অদ্বিতীয় তথা লা-শরীক (অংশীদারহীন) সাব্যস্ত করা।<br /> (২) তাওহীদুল উলূহিয়্যাহ। অর্থাৎ- ‘ইবাদাতে আল্লাহ্\u200cর (<span style=\"font-family: 'Arabic Symbols';\">(سُبْحَانَهُ وَتَعَالَىٰ)</span>) একত্ব অক্ষুন্ন রাখা। অন্য কথায়, ‘ইবাদাতে আল্লাহ্\u200cর একত্ব প্রতিষ্ঠা করা।</p>\n<p dir=\"ltr\">(৩) তাওহীদুল আছমা ওয়াস্\u200cসিফাত। অর্থাৎ- আল্লাহ্\u200cকে (<span style=\"font-family: 'Arabic Symbols';\">(عَزَّ وَجَلَّ)</span>) তাঁর নাম ও গুণাবলীতে এক ও অদ্বিতীয় সাব্যস্ত করা। অন্য কথায়, আল্লাহ্\u200cর সুমহান নাম ও গুণাবলীতে আল্লাহ্\u200cর (<span style=\"font-family: 'Arabic Symbols';\">(سُبْحَانَهُ وَتَعَالَىٰ)</span>) একত্ব অক্ষুন্ন রাখা।</p>\n<p dir=\"ltr\">“সাব্যস্ত করার’’ অর্থ হলো- নিজের ‘আক্বীদাহ-বিশ্বাসে, কথা-বার্তায় ও কাজে-কর্মে আল্লাহ্\u200cর একত্ববাদ প্রমাণিত ও প্রতিষ্ঠিত করা।</p>",
  "published_on": "Thu, 29 May 2014 14:01:29 +0000"
}