{
  "name": "what-is-tajweed",
  "title": "তাজওয়ীদ কী, তাজওয়ীদ বলতে কি বুঝায়?",
  "categories": [
    { "name": "tajweed", "url": "category-tajweed.json" },
    { "name": "sciences-of-al-quraan", "url": "category-sciences-of-al-quraan.json" }
  ],
  "content": "<p>‘আরাবী প্রতিটি হার্\u200cফকে (বর্ণকে) তার পূর্ণ সিফাত তথা অবস্থা ও গুণাবলী সহকারে তার সঠিক মাখরাজ (উচ্চারণস্থল) থেকে উচ্চারণ করাকে ‘তাজওয়ীদ’ বলে। তাজওয়ীদ অনুযায়ী কুরআনে কারীম তিলাওয়াত করা অবশ্য কর্তব্য।</p><p>&nbsp;</p><p>সূত্র:-</p><p>১) মাতনুল জাযারিয়্যাহ লিশ্\u200cশাইখ শামছুদ্\u200c দ্বীন মুহাম্মাদ ইবনুল জাযারী।</p><p>২) আল মুখতাসারুল মুফীদ লিশ্\u200cশাইখ মুহাম্মাদ ‘আব্দুর্\u200c রাহীম বদরুদ্\u200c দ্বীন।</p>",
  "published_on": "Tue, 27 May 2014 18:22:52 +0000"
}